<?xml version="1.0"?>
<!DOCTYPE svg PUBLIC "-//W3C//DTD SVG 1.1//EN" "http://www.w3.org/Graphics/SVG/1.1/DTD/svg11.dtd">
<svg version="1.1" xmlns="http://www.w3.org/2000/svg" width="468" height="816">
<g>
<circle cx="414" cy="408" r="10" style="stroke:#f00000;stroke-width:1;fill:#f00000;fill-opacity:0;"><title>death</title></circle>
<path d="M411 408 417 408 M414 405 414 411" style="stroke:#f00000;stroke-width:1;fill:none;"><title>nodraw</title></path>
</g>
<g>
<circle cx="378" cy="408" r="10" style="stroke:#f00000;stroke-width:1;fill:#f00000;fill-opacity:0;"><title>death</title></circle>
<path d="M375 408 381 408 M378 405 378 411" style="stroke:#f00000;stroke-width:1;fill:none;"><title>nodraw</title></path>
</g>
<g>
<circle cx="342" cy="408" r="10" style="stroke:#f00000;stroke-width:1;fill:#f00000;fill-opacity:0;"><title>death</title></circle>
<path d="M339 408 345 408 M342 405 342 411" style="stroke:#f00000;stroke-width:1;fill:none;"><title>nodraw</title></path>
</g>
<g>
<circle cx="306" cy="408" r="10" style="stroke:#f00000;stroke-width:1;fill:#f00000;fill-opacity:0;"><title>death</title></circle>
<path d="M303 408 309 408 M306 405 306 411" style="stroke:#f00000;stroke-width:1;fill:none;"><title>nodraw</title></path>
</g>
<g>
<circle cx="270" cy="408" r="10" style="stroke:#f00000;stroke-width:1;fill:#f00000;fill-opacity:0;"><title>death</title></circle>
<path d="M267 408 273 408 M270 405 270 411" style="stroke:#f00000;stroke-width:1;fill:none;"><title>nodraw</title></path>
</g>
<g>
<circle cx="198" cy="408" r="10" style="stroke:#f00000;stroke-width:1;fill:#f00000;fill-opacity:0;"><title>death</title></circle>
<path d="M195 408 201 408 M198 405 198 411" style="stroke:#f00000;stroke-width:1;fill:none;"><title>nodraw</title></path>
</g>
<g>
<circle cx="162" cy="408" r="10" style="stroke:#f00000;stroke-width:1;fill:#f00000;fill-opacity:0;"><title>death</title></circle>
<path d="M159 408 165 408 M162 405 162 411" style="stroke:#f00000;stroke-width:1;fill:none;"><title>nodraw</title></path>
</g>
<g>
<circle cx="126" cy="408" r="10" style="stroke:#f00000;stroke-width:1;fill:#f00000;fill-opacity:0;"><title>death</title></circle>
<path d="M123 408 129 408 M126 405 126 411" style="stroke:#f00000;stroke-width:1;fill:none;"><title>nodraw</title></path>
</g>
<g>
<circle cx="90" cy="408" r="10" style="stroke:#f00000;stroke-width:1;fill:#f00000;fill-opacity:0;"><title>death</title></circle>
<path d="M87 408 93 408 M90 405 90 411" style="stroke:#f00000;stroke-width:1;fill:none;"><title>nodraw</title></path>
</g>
<g>
<circle cx="54" cy="408" r="10" style="stroke:#f00000;stroke-width:1;fill:#f00000;fill-opacity:0;"><title>death</title></circle>
<path d="M51 408 57 408 M54 405 54 411" style="stroke:#f00000;stroke-width:1;fill:none;"><title>nodraw</title></path>
</g>
<g>
<circle cx="204" cy="191" r="12" style="stroke:#0040f0;stroke-width:1;fill:#0040f0;fill-opacity:0;"><title>fortress</title></circle>
<path d="M201 191 207 191 M204 188 204 194" style="stroke:#0040f0;stroke-width:1;fill:none;"><title>nodraw</title></path>
</g>
<g>
<circle cx="219" cy="216" r="12" style="stroke:#0040f0;stroke-width:1;fill:#0040f0;fill-opacity:0;"><title>fortress</title></circle>
<path d="M216 216 222 216 M219 213 219 219" style="stroke:#0040f0;stroke-width:1;fill:none;"><title>nodraw</title></path>
</g>
<g>
<circle cx="249" cy="216" r="12" style="stroke:#0040f0;stroke-width:1;fill:#0040f0;fill-opacity:0;"><title>fortress</title></circle>
<path d="M246 216 252 216 M249 213 249 219" style="stroke:#0040f0;stroke-width:1;fill:none;"><title>nodraw</title></path>
</g>
<g>
<circle cx="264" cy="191" r="12" style="stroke:#0040f0;stroke-width:1;fill:#0040f0;fill-opacity:0;"><title>fortress</title></circle>
<path d="M261 191 267 191 M264 188 264 194" style="stroke:#0040f0;stroke-width:1;fill:none;"><title>nodraw</title></path>
</g>
<g>
<circle cx="249" cy="166" r="12" style="stroke:#0040f0;stroke-width:1;fill:#0040f0;fill-opacity:0;"><title>fortress</title></circle>
<path d="M246 166 252 166 M249 163 249 169" style="stroke:#0040f0;stroke-width:1;fill:none;"><title>nodraw</title></path>
</g>
<g>
<circle cx="219" cy="166" r="12" style="stroke:#0040f0;stroke-width:1;fill:#0040f0;fill-opacity:0;"><title>fortress</title></circle>
<path d="M216 166 222 166 M219 163 219 169" style="stroke:#0040f0;stroke-width:1;fill:none;"><title>nodraw</title></path>
</g>
<g>
<circle cx="204" cy="625" r="12" style="stroke:#0040f0;stroke-width:1;fill:#0040f0;fill-opacity:0;"><title>fortress</title></circle>
<path d="M201 625 207 625 M204 622 204 628" style="stroke:#0040f0;stroke-width:1;fill:none;"><title>nodraw</title></path>
</g>
<g>
<circle cx="219" cy="600" r="12" style="stroke:#0040f0;stroke-width:1;fill:#0040f0;fill-opacity:0;"><title>fortress</title></circle>
<path d="M216 600 222 600 M219 597 219 603" style="stroke:#0040f0;stroke-width:1;fill:none;"><title>nodraw</title></path>
</g>
<g>
<circle cx="249" cy="600" r="12" style="stroke:#0040f0;stroke-width:1;fill:#0040f0;fill-opacity:0;"><title>fortress</title></circle>
<path d="M246 600 252 600 M249 597 249 603" style="stroke:#0040f0;stroke-width:1;fill:none;"><title>nodraw</title></path>
</g>
<g>
<circle cx="264" cy="625" r="12" style="stroke:#0040f0;stroke-width:1;fill:#0040f0;fill-opacity:0;"><title>fortress</title></circle>
<path d="M261 625 267 625 M264 622 264 628" style="stroke:#0040f0;stroke-width:1;fill:none;"><title>nodraw</title></path>
</g>
<g>
<circle cx="249" cy="650" r="12" style="stroke:#0040f0;stroke-width:1;fill:#0040f0;fill-opacity:0;"><title>fortress</title></circle>
<path d="M246 650 252 650 M249 647 249 653" style="stroke:#0040f0;stroke-width:1;fill:none;"><title>nodraw</title></path>
</g>
<g>
<circle cx="219" cy="650" r="12" style="stroke:#0040f0;stroke-width:1;fill:#0040f0;fill-opacity:0;"><title>fortress</title></circle>
<path d="M216 650 222 650 M219 647 219 653" style="stroke:#0040f0;stroke-width:1;fill:none;"><title>nodraw</title></path>
</g>
<path d="M27 0 27 10 36 15 63 0 63 10 72 15 81 10 81 0 108 15 135 0 135 10 144 15 153 10 153 0 180 15 207 0 207 10 216 15 225 10 225 0 252 15 279 0 279 10 288 15 297 10 297 0 324 15 351 0 351 10 360 15 369 10 369 0 396 15 423 0 423 10 432 15 441 10 441 0 468 15 468 57 459 62 459 72 468 77 468 119 459 124 459 134 468 139 468 181 459 186 459 196 468 201 468 243 459 248 459 258 468 263 468 305 459 310 459 320 468 325 468 367 459 372 459 382 468 387 468 429 459 434 459 444 468 449 468 491 459 496 459 506 468 511 468 553 459 558 459 568 468 573 468 615 459 620 459 630 468 635 468 677 459 682 459 692 468 697 468 739 459 744 459 754 468 759 468 801 441 816 441 806 432 801 405 816 405 806 396 801 387 806 387 816 360 801 333 816 333 806 324 801 315 806 315 816 288 801 261 816 261 806 252 801 243 806 243 816 216 801 189 816 189 806 180 801 171 806 171 816 144 801 117 816 117 806 108 801 99 806 99 816 72 801 45 816 45 806 36 801 27 806 27 816 0 801 0 759 9 754 9 744 0 739 0 697 9 692 9 682 0 677 0 635 9 630 9 620 0 615 0 573 9 568 9 558 0 553 0 511 9 506 9 496 0 491 0 449 9 444 9 434 0 429 0 387 9 382 9 372 0 367 0 325 9 320 9 310 0 305 0 263 9 258 9 248 0 243 0 201 9 196 9 186 0 181 0 139 9 134 9 124 0 119 0 77 9 72 9 62 0 57 0 15 Z" style="stroke:#000000;stroke-width:1;fill:none;"/>
<path d="M243 630 234 635 225 630 225 620 234 615 243 620 Z" style="stroke:#000000;stroke-width:1;fill:none;"/>
<path d="M243 186 234 181 225 186 225 196 234 201 243 196 Z" style="stroke:#000000;stroke-width:1;fill:none;"/>
<path d="M27 537 18 542 9 537 9 527 18 522 27 527 Z" style="stroke:#000000;stroke-width:1;fill:none;"/>
<path d="M27 599 18 604 9 599 9 589 18 584 27 589 Z" style="stroke:#000000;stroke-width:1;fill:none;"/>
<path d="M27 661 18 666 9 661 9 651 18 646 27 651 Z" style="stroke:#000000;stroke-width:1;fill:none;"/>
<path d="M27 723 18 728 9 723 9 713 18 708 27 713 Z" style="stroke:#000000;stroke-width:1;fill:none;"/>
<path d="M27 785 18 790 9 785 9 775 18 770 27 775 Z" style="stroke:#000000;stroke-width:1;fill:none;"/>
<path d="M63 785 54 790 45 785 45 775 54 770 63 775 Z" style="stroke:#000000;stroke-width:1;fill:none;"/>
<path d="M99 785 90 790 81 785 81 775 90 770 99 775 Z" style="stroke:#000000;stroke-width:1;fill:none;"/>
<path d="M135 785 126 790 117 785 117 775 126 770 135 775 Z" style="stroke:#000000;stroke-width:1;fill:none;"/>
<path d="M171 785 162 790 153 785 153 775 162 770 171 775 Z" style="stroke:#000000;stroke-width:1;fill:none;"/>
<path d="M207 785 198 790 189 785 189 775 198 770 207 775 Z" style="stroke:#000000;stroke-width:1;fill:none;"/>
<path d="M243 785 234 790 225 785 225 775 234 770 243 775 Z" style="stroke:#000000;stroke-width:1;fill:none;"/>
<path d="M279 785 270 790 261 785 261 775 270 770 279 775 Z" style="stroke:#000000;stroke-width:1;fill:none;"/>
<path d="M315 785 306 790 297 785 297 775 306 770 315 775 Z" style="stroke:#000000;stroke-width:1;fill:none;"/>
<path d="M351 785 342 790 333 785 333 775 342 770 351 775 Z" style="stroke:#000000;stroke-width:1;fill:none;"/>
<path d="M387 785 378 790 369 785 369 775 378 770 387 775 Z" style="stroke:#000000;stroke-width:1;fill:none;"/>
<path d="M423 785 414 790 405 785 405 775 414 770 423 775 Z" style="stroke:#000000;stroke-width:1;fill:none;"/>
<path d="M459 785 450 790 441 785 441 775 450 770 459 775 Z" style="stroke:#000000;stroke-width:1;fill:none;"/>
<path d="M441 537 450 542 459 537 459 527 450 522 441 527 Z" style="stroke:#000000;stroke-width:1;fill:none;"/>
<path d="M441 599 450 604 459 599 459 589 450 584 441 589 Z" style="stroke:#000000;stroke-width:1;fill:none;"/>
<path d="M441 661 450 666 459 661 459 651 450 646 441 651 Z" style="stroke:#000000;stroke-width:1;fill:none;"/>
<path d="M441 723 450 728 459 723 459 713 450 708 441 713 Z" style="stroke:#000000;stroke-width:1;fill:none;"/>
<path d="M27 279 18 274 9 279 9 289 18 294 27 289 Z" style="stroke:#000000;stroke-width:1;fill:none;"/>
<path d="M27 217 18 212 9 217 9 227 18 232 27 227 Z" style="stroke:#000000;stroke-width:1;fill:none;"/>
<path d="M27 155 18 150 9 155 9 165 18 170 27 165 Z" style="stroke:#000000;stroke-width:1;fill:none;"/>
<path d="M27 93 18 88 9 93 9 103 18 108 27 103 Z" style="stroke:#000000;stroke-width:1;fill:none;"/>
<path d="M27 31 18 26 9 31 9 41 18 46 27 41 Z" style="stroke:#000000;stroke-width:1;fill:none;"/>
<path d="M63 31 54 26 45 31 45 41 54 46 63 41 Z" style="stroke:#000000;stroke-width:1;fill:none;"/>
<path d="M99 31 90 26 81 31 81 41 90 46 99 41 Z" style="stroke:#000000;stroke-width:1;fill:none;"/>
<path d="M135 31 126 26 117 31 117 41 126 46 135 41 Z" style="stroke:#000000;stroke-width:1;fill:none;"/>
<path d="M171 31 162 26 153 31 153 41 162 46 171 41 Z" style="stroke:#000000;stroke-width:1;fill:none;"/>
<path d="M207 31 198 26 189 31 189 41 198 46 207 41 Z" style="stroke:#000000;stroke-width:1;fill:none;"/>
<path d="M243 31 234 26 225 31 225 41 234 46 243 41 Z" style="stroke:#000000;stroke-width:1;fill:none;"/>
<path d="M279 31 270 26 261 31 261 41 270 46 279 41 Z" style="stroke:#000000;stroke-width:1;fill:none;"/>
<path d="M315 31 306 26 297 31 297 41 306 46 315 41 Z" style="stroke:#000000;stroke-width:1;fill:none;"/>
<path d="M351 31 342 26 333 31 333 41 342 46 351 41 Z" style="stroke:#000000;stroke-width:1;fill:none;"/>
<path d="M387 31 378 26 369 31 369 41 378 46 387 41 Z" style="stroke:#000000;stroke-width:1;fill:none;"/>
<path d="M423 31 414 26 405 31 405 41 414 46 423 41 Z" style="stroke:#000000;stroke-width:1;fill:none;"/>
<path d="M459 31 450 26 441 31 441 41 450 46 459 41 Z" style="stroke:#000000;stroke-width:1;fill:none;"/>
<path d="M441 279 450 274 459 279 459 289 450 294 441 289 Z" style="stroke:#000000;stroke-width:1;fill:none;"/>
<path d="M441 217 450 212 459 217 459 227 450 232 441 227 Z" style="stroke:#000000;stroke-width:1;fill:none;"/>
<path d="M441 155 450 150 459 155 459 165 450 170 441 165 Z" style="stroke:#000000;stroke-width:1;fill:none;"/>
<path d="M441 93 450 88 459 93 459 103 450 108 441 103 Z" style="stroke:#000000;stroke-width:1;fill:none;"/>
<path d="M27 413 18 418 9 413 9 403 18 398 27 403 Z" style="stroke:#000000;stroke-width:1;fill:none;"/>
<path d="M45 444 36 449 27 444 27 434 36 429 45 434 Z" style="stroke:#000000;stroke-width:1;fill:none;"/>
<path d="M63 413 54 418 45 413 45 403 54 398 63 403 Z" style="stroke:#000000;stroke-width:1;fill:none;"/>
<path d="M81 444 72 449 63 444 63 434 72 429 81 434 Z" style="stroke:#000000;stroke-width:1;fill:none;"/>
<path d="M99 413 90 418 81 413 81 403 90 398 99 403 Z" style="stroke:#000000;stroke-width:1;fill:none;"/>
<path d="M117 444 108 449 99 444 99 434 108 429 117 434 Z" style="stroke:#000000;stroke-width:1;fill:none;"/>
<path d="M135 413 126 418 117 413 117 403 126 398 135 403 Z" style="stroke:#000000;stroke-width:1;fill:none;"/>
<path d="M153 444 144 449 135 444 135 434 144 429 153 434 Z" style="stroke:#000000;stroke-width:1;fill:none;"/>
<path d="M171 413 162 418 153 413 153 403 162 398 171 403 Z" style="stroke:#000000;stroke-width:1;fill:none;"/>
<path d="M189 444 180 449 171 444 171 434 180 429 189 434 Z" style="stroke:#000000;stroke-width:1;fill:none;"/>
<path d="M207 413 198 418 189 413 189 403 198 398 207 403 Z" style="stroke:#000000;stroke-width:1;fill:none;"/>
<path d="M225 444 216 449 207 444 207 434 216 429 225 434 Z" style="stroke:#000000;stroke-width:1;fill:none;"/>
<path d="M243 413 234 418 225 413 225 403 234 398 243 403 Z" style="stroke:#000000;stroke-width:1;fill:none;"/>
<path d="M261 444 252 449 243 444 243 434 252 429 261 434 Z" style="stroke:#000000;stroke-width:1;fill:none;"/>
<path d="M297 444 288 449 279 444 279 434 288 429 297 434 Z" style="stroke:#000000;stroke-width:1;fill:none;"/>
<path d="M279 413 270 418 261 413 261 403 270 398 279 403 Z" style="stroke:#000000;stroke-width:1;fill:none;"/>
<path d="M315 413 306 418 297 413 297 403 306 398 315 403 Z" style="stroke:#000000;stroke-width:1;fill:none;"/>
<path d="M333 444 324 449 315 444 315 434 324 429 333 434 Z" style="stroke:#000000;stroke-width:1;fill:none;"/>
<path d="M351 413 342 418 333 413 333 403 342 398 351 403 Z" style="stroke:#000000;stroke-width:1;fill:none;"/>
<path d="M369 444 360 449 351 444 351 434 360 429 369 434 Z" style="stroke:#000000;stroke-width:1;fill:none;"/>
<path d="M387 413 378 418 369 413 369 403 378 398 387 403 Z" style="stroke:#000000;stroke-width:1;fill:none;"/>
<path d="M405 444 396 449 387 444 387 434 396 429 405 434 Z" style="stroke:#000000;stroke-width:1;fill:none;"/>
<path d="M423 413 414 418 405 413 405 403 414 398 423 403 Z" style="stroke:#000000;stroke-width:1;fill:none;"/>
<path d="M441 444 432 449 423 444 423 434 432 429 441 434 Z" style="stroke:#000000;stroke-width:1;fill:none;"/>
<path d="M459 413 450 418 441 413 441 403 450 398 459 403 Z" style="stroke:#000000;stroke-width:1;fill:none;"/>
<path d="M27 351 18 356 9 351 9 341 18 336 27 341 Z" style="stroke:#000000;stroke-width:1;fill:none;"/>
<path d="M45 382 36 387 27 382 27 372 36 367 45 372 Z" style="stroke:#000000;stroke-width:1;fill:none;"/>
<path d="M63 351 54 356 45 351 45 341 54 336 63 341 Z" style="stroke:#000000;stroke-width:1;fill:none;"/>
<path d="M81 382 72 387 63 382 63 372 72 367 81 372 Z" style="stroke:#000000;stroke-width:1;fill:none;"/>
<path d="M99 351 90 356 81 351 81 341 90 336 99 341 Z" style="stroke:#000000;stroke-width:1;fill:none;"/>
<path d="M117 382 108 387 99 382 99 372 108 367 117 372 Z" style="stroke:#000000;stroke-width:1;fill:none;"/>
<path d="M135 351 126 356 117 351 117 341 126 336 135 341 Z" style="stroke:#000000;stroke-width:1;fill:none;"/>
<path d="M153 382 144 387 135 382 135 372 144 367 153 372 Z" style="stroke:#000000;stroke-width:1;fill:none;"/>
<path d="M171 351 162 356 153 351 153 341 162 336 171 341 Z" style="stroke:#000000;stroke-width:1;fill:none;"/>
<path d="M189 382 180 387 171 382 171 372 180 367 189 372 Z" style="stroke:#000000;stroke-width:1;fill:none;"/>
<path d="M207 351 198 356 189 351 189 341 198 336 207 341 Z" style="stroke:#000000;stroke-width:1;fill:none;"/>
<path d="M225 382 216 387 207 382 207 372 216 367 225 372 Z" style="stroke:#000000;stroke-width:1;fill:none;"/>
<path d="M243 351 234 356 225 351 225 341 234 336 243 341 Z" style="stroke:#000000;stroke-width:1;fill:none;"/>
<path d="M261 382 252 387 243 382 243 372 252 367 261 372 Z" style="stroke:#000000;stroke-width:1;fill:none;"/>
<path d="M297 382 288 387 279 382 279 372 288 367 297 372 Z" style="stroke:#000000;stroke-width:1;fill:none;"/>
<path d="M279 351 270 356 261 351 261 341 270 336 279 341 Z" style="stroke:#000000;stroke-width:1;fill:none;"/>
<path d="M315 351 306 356 297 351 297 341 306 336 315 341 Z" style="stroke:#000000;stroke-width:1;fill:none;"/>
<path d="M333 382 324 387 315 382 315 372 324 367 333 372 Z" style="stroke:#000000;stroke-width:1;fill:none;"/>
<path d="M351 351 342 356 333 351 333 341 342 336 351 341 Z" style="stroke:#000000;stroke-width:1;fill:none;"/>
<path d="M369 382 360 387 351 382 351 372 360 367 369 372 Z" style="stroke:#000000;stroke-width:1;fill:none;"/>
<path d="M387 351 378 356 369 351 369 341 378 336 387 341 Z" style="stroke:#000000;stroke-width:1;fill:none;"/>
<path d="M405 382 396 387 387 382 387 372 396 367 405 372 Z" style="stroke:#000000;stroke-width:1;fill:none;"/>
<path d="M423 351 414 356 405 351 405 341 414 336 423 341 Z" style="stroke:#000000;stroke-width:1;fill:none;"/>
<path d="M441 382 432 387 423 382 423 372 432 367 441 372 Z" style="stroke:#000000;stroke-width:1;fill:none;"/>
<path d="M459 351 450 356 441 351 441 341 450 336 459 341 Z" style="stroke:#000000;stroke-width:1;fill:none;"/>
<path d="M27 475 18 480 9 475 9 465 18 460 27 465 Z" style="stroke:#000000;stroke-width:1;fill:none;"/>
<path d="M63 475 54 480 45 475 45 465 54 460 63 465 Z" style="stroke:#000000;stroke-width:1;fill:none;"/>
<path d="M99 475 90 480 81 475 81 465 90 460 99 465 Z" style="stroke:#000000;stroke-width:1;fill:none;"/>
<path d="M135 475 126 480 117 475 117 465 126 460 135 465 Z" style="stroke:#000000;stroke-width:1;fill:none;"/>
<path d="M171 475 162 480 153 475 153 465 162 460 171 465 Z" style="stroke:#000000;stroke-width:1;fill:none;"/>
<path d="M207 475 198 480 189 475 189 465 198 460 207 465 Z" style="stroke:#000000;stroke-width:1;fill:none;"/>
<path d="M243 475 234 480 225 475 225 465 234 460 243 465 Z" style="stroke:#000000;stroke-width:1;fill:none;"/>
<path d="M279 475 270 480 261 475 261 465 270 460 279 465 Z" style="stroke:#000000;stroke-width:1;fill:none;"/>
<path d="M315 475 306 480 297 475 297 465 306 460 315 465 Z" style="stroke:#000000;stroke-width:1;fill:none;"/>
<path d="M351 475 342 480 333 475 333 465 342 460 351 465 Z" style="stroke:#000000;stroke-width:1;fill:none;"/>
<path d="M387 475 378 480 369 475 369 465 378 460 387 465 Z" style="stroke:#000000;stroke-width:1;fill:none;"/>
<path d="M423 475 414 480 405 475 405 465 414 460 423 465 Z" style="stroke:#000000;stroke-width:1;fill:none;"/>
<path d="M459 475 450 480 441 475 441 465 450 460 459 465 Z" style="stroke:#000000;stroke-width:1;fill:none;"/>
<path d="M231 402 231 406 232 405 233 406 233 402" style="stroke:#000000;stroke-width:1;fill:none;"/>
<path d="M234 402 234 406" style="stroke:#000000;stroke-width:1;fill:none;"/>
<path d="M235 406 235 402" style="stroke:#000000;stroke-width:1;fill:none;"/>
<path d="M237 402 235 404 237 406" style="stroke:#000000;stroke-width:1;fill:none;"/>
<path d="M230 409 231 408 232 409 232 410 230 412 232 412" style="stroke:#000000;stroke-width:1;fill:none;"/>
<path d="M236 408 236 412" style="stroke:#000000;stroke-width:1;fill:none;"/>
<path d="M237 409 238 408 239 409 238 410 239 411 238 412 237 411" style="stroke:#000000;stroke-width:1;fill:none;"/>
<path d="M233 409 234 408 235 409 235 411 234 412 233 411 Z" style="stroke:#000000;stroke-width:1;fill:none;"/>
<g>
<circle cx="234" cy="716" r="2" style="stroke:#ff8000;stroke-width:1;fill:#ff8000;"><title>nodraw</title></circle>
<path d="M234 716 239 716 239 713 242 716 239 719 239 716" style="stroke:#ff8000;stroke-width:1;fill:#ff8000;" transform="rotate(270,234,716)"><title>spawn</title></path>
</g>
<g>
<circle cx="234" cy="100" r="2" style="stroke:#ff8000;stroke-width:1;fill:#ff8000;"><title>nodraw</title></circle>
<path d="M234 100 239 100 239 97 242 100 239 103 239 100" style="stroke:#ff8000;stroke-width:1;fill:#ff8000;" transform="rotate(90,234,100)"><title>spawn</title></path>
</g>
</svg>