<?xml version="1.0"?>
<!DOCTYPE svg PUBLIC "-//W3C//DTD SVG 1.1//EN" "http://www.w3.org/Graphics/SVG/1.1/DTD/svg11.dtd">
<svg version="1.1" xmlns="http://www.w3.org/2000/svg" width="1000" height="1000">
<g>
<circle cx="500" cy="700" r="40" style="stroke:#0040f0;stroke-width:1;fill:#0040f0;fill-opacity:0;"><title>fortress</title></circle>
<path d="M497 700 503 700 M500 697 500 703" style="stroke:#0040f0;stroke-width:1;fill:none;"><title>nodraw</title></path>
</g>
<g>
<circle cx="500" cy="300" r="40" style="stroke:#0040f0;stroke-width:1;fill:#0040f0;fill-opacity:0;"><title>fortress</title></circle>
<path d="M497 300 503 300 M500 297 500 303" style="stroke:#0040f0;stroke-width:1;fill:none;"><title>nodraw</title></path>
</g>
<path d="M0 1000 1000 1000 1000 0 0 0 Z" style="stroke:#000000;stroke-width:1;fill:none;"/>
<path d="M431.4 363.6 437.9 369.6 445 374.8 452.6 379.4 460.6 383.1 468.9 386.1 477.4 388.3 486.2 389.6 495 390 495 395 485.7 394.5 476.5 393.2 467.4 390.9 458.6 387.8 450.2 383.8 442.2 379 434.7 373.4 427.8 367.2 Z" style="stroke:#000000;stroke-width:1;fill:none;"/>
<path d="M572.2 367.2 565.3 373.4 557.8 379 549.8 383.8 541.4 387.8 532.6 390.9 523.5 393.2 514.3 394.5 505 395 505 390 513.8 389.6 522.6 388.3 531.1 386.1 539.4 383.1 547.4 379.4 555 374.8 562.1 369.6 568.6 363.6 Z" style="stroke:#000000;stroke-width:1;fill:none;"/>
<path d="M495 610 486.2 610.4 477.4 611.7 468.9 613.9 460.6 616.9 452.6 620.6 445 625.2 437.9 630.4 431.4 636.4 427.8 632.8 434.7 626.6 442.2 621 450.2 616.2 458.6 612.2 467.4 609.1 476.5 606.8 485.7 605.5 495 605 Z" style="stroke:#000000;stroke-width:1;fill:none;"/>
<path d="M568.6 636.4 562.1 630.4 555 625.2 547.4 620.6 539.4 616.9 531.1 613.9 522.6 611.7 513.8 610.4 505 610 505 605 514.3 605.5 523.5 606.8 532.6 609.1 541.4 612.2 549.8 616.2 557.8 621 565.3 626.6 572.2 632.8 Z" style="stroke:#000000;stroke-width:1;fill:none;"/>
<path d="M355 260 355.8 275.7 358.1 291.2 361.9 306.4 367.2 321.2 373.9 335.4 382 348.9 391.3 361.5 401.9 373.1 398.3 376.7 387.5 364.7 377.8 351.7 369.5 337.8 362.6 323.1 357.1 307.9 353.2 292.2 350.8 276.2 350 260 Z" style="stroke:#000000;stroke-width:1;fill:none;"/>
<path d="M598.1 373.1 608.7 361.5 618 348.9 626.1 335.4 632.8 321.2 638.1 306.4 641.9 291.2 644.2 275.7 645 260 650 260 649.2 276.2 646.8 292.2 642.9 307.9 637.4 323.1 630.5 337.8 622.2 351.7 612.5 364.7 601.7 376.7 Z" style="stroke:#000000;stroke-width:1;fill:none;"/>
<path d="M401.9 626.9 391.3 638.5 382 651.1 373.9 664.6 367.2 678.8 361.9 693.6 358.1 708.8 355.8 724.3 355 740 350 740 350.8 723.8 353.2 707.8 357.1 692.1 362.6 676.9 369.5 662.2 377.8 648.3 387.5 635.3 398.3 623.3 Z" style="stroke:#000000;stroke-width:1;fill:none;"/>
<path d="M645 740 644.2 724.3 641.9 708.8 638.1 693.6 632.8 678.8 626.1 664.6 618 651.1 608.7 638.5 598.1 626.9 601.7 623.3 612.5 635.3 622.2 648.3 630.5 662.2 637.4 676.9 642.9 692.1 646.8 707.8 649.2 723.8 650 740 Z" style="stroke:#000000;stroke-width:1;fill:none;"/>
<path d="M421.9 381.9 411.3 393.5 402 406.1 393.9 419.6 387.2 433.8 381.9 448.6 378.1 463.8 375.8 479.3 375 495 370 495 370.8 478.8 373.2 462.8 377.1 447.1 382.6 431.9 389.5 417.2 397.8 403.3 407.5 390.3 418.3 378.3 Z" style="stroke:#000000;stroke-width:1;fill:none;"/>
<path d="M625 495 624.2 479.3 621.9 463.8 618.1 448.6 612.8 433.8 606.1 419.6 598 406.1 588.7 393.5 578.1 381.9 581.7 378.3 592.5 390.3 602.2 403.3 610.5 417.2 617.4 431.9 622.9 447.1 626.8 462.8 629.2 478.8 630 495 Z" style="stroke:#000000;stroke-width:1;fill:none;"/>
<path d="M375 505 375.8 520.7 378.1 536.2 381.9 551.4 387.2 566.2 393.9 580.4 402 593.9 411.3 606.5 421.9 618.1 418.3 621.7 407.5 609.7 397.8 596.7 389.5 582.8 382.6 568.1 377.1 552.9 373.2 537.2 370.8 521.2 370 505 Z" style="stroke:#000000;stroke-width:1;fill:none;"/>
<path d="M578.1 618.1 588.7 606.5 598 593.9 606.1 580.4 612.8 566.2 618.1 551.4 621.9 536.2 624.2 520.7 625 505 630 505 629.2 521.2 626.8 537.2 622.9 552.9 617.4 568.1 610.5 582.8 602.2 596.7 592.5 609.7 581.7 621.7 Z" style="stroke:#000000;stroke-width:1;fill:none;"/>
<path d="M500 490 510 500 500 510 490 500 Z" style="stroke:#000000;stroke-width:1;fill:none;"/>
<path d="M497 495 497 499 498 498 499 499 499 495" style="stroke:#000000;stroke-width:1;fill:none;"/>
<path d="M500 495 500 499" style="stroke:#000000;stroke-width:1;fill:none;"/>
<path d="M501 495 501 499" style="stroke:#000000;stroke-width:1;fill:none;"/>
<path d="M503 495 501 497 503 499" style="stroke:#000000;stroke-width:1;fill:none;"/>
<path d="M496 501 497 500 498 501 498 502 496 504 498 504" style="stroke:#000000;stroke-width:1;fill:none;"/>
<path d="M499 501 500 500 501 501 501 503 500 504 499 503 Z" style="stroke:#000000;stroke-width:1;fill:none;"/>
<path d="M502 500 502 504" style="stroke:#000000;stroke-width:1;fill:none;"/>
<path d="M503 501 504 500 505 501 504 502 505 503 504 504 503 503" style="stroke:#000000;stroke-width:1;fill:none;"/>
<g>
<circle cx="500" cy="590" r="2" style="stroke:#ff8000;stroke-width:1;fill:#ff8000;"><title>nodraw</title></circle>
<path d="M500 590 505 590 505 587 508 590 505 593 505 590" style="stroke:#ff8000;stroke-width:1;fill:#ff8000;" transform="rotate(270,500,590)"><title>spawn</title></path>
</g>
<g>
<circle cx="500" cy="410" r="2" style="stroke:#ff8000;stroke-width:1;fill:#ff8000;"><title>nodraw</title></circle>
<path d="M500 410 505 410 505 407 508 410 505 413 505 410" style="stroke:#ff8000;stroke-width:1;fill:#ff8000;" transform="rotate(90,500,410)"><title>spawn</title></path>
</g>
</svg>