<?xml version="1.0"?>
<!DOCTYPE svg PUBLIC "-//W3C//DTD SVG 1.1//EN" "http://www.w3.org/Graphics/SVG/1.1/DTD/svg11.dtd">
<svg version="1.1" xmlns="http://www.w3.org/2000/svg" width="690" height="1380">
<g>
<circle cx="345" cy="1070" r="30" style="stroke:#0040f0;stroke-width:1;fill:#0040f0;fill-opacity:0;"><title>fortress</title></circle>
<path d="M342 1070 348 1070 M345 1067 345 1073" style="stroke:#0040f0;stroke-width:1;fill:none;"><title>nodraw</title></path>
</g>
<g>
<circle cx="345" cy="345" r="50" style="stroke:#0040f0;stroke-width:1;fill:#0040f0;fill-opacity:0;"><title>fortress</title></circle>
<path d="M342 345 348 345 M345 342 345 348" style="stroke:#0040f0;stroke-width:1;fill:none;"><title>nodraw</title></path>
</g>
<path d="M0 1380 0 0 690 0 690 1380 Z" style="stroke:#000000;stroke-width:1;fill:none;"><title>1</title></path>
<path d="M255 440 250 440 250 435 255 435 255 430 250 430 250 425 255 425 255 420 250 420 250 415 255 415 255 410 250 410 250 405 255 405 255 400 250 400 250 395 255 395 255 390 250 390 250 385 295 385 295 395 305 395 305 440 300 440 300 435 295 435 295 440 290 440 290 435 285 435 285 440 280 440 280 435 275 435 275 440 270 440 270 435 265 435 265 440 260 440 260 435 255 435 Z" style="stroke:#000000;stroke-width:1;fill:none;"><title>100</title></path>
<path d="M440 435 440 440 435 440 435 435 430 435 430 440 425 440 425 435 420 435 420 440 415 440 415 435 410 435 410 440 405 440 405 435 400 435 400 440 395 440 395 435 390 435 390 440 385 440 385 395 395 395 395 385 440 385 440 390 435 390 435 395 440 395 440 400 435 400 435 405 440 405 440 410 435 410 435 415 440 415 440 420 435 420 435 425 440 425 440 430 435 430 435 435 Z" style="stroke:#000000;stroke-width:1;fill:none;"><title>100</title></path>
<path d="M435 250 440 250 440 255 435 255 435 260 440 260 440 265 435 265 435 270 440 270 440 275 435 275 435 280 440 280 440 285 435 285 435 290 440 290 440 295 435 295 435 300 440 300 440 305 395 305 395 295 385 295 385 250 390 250 390 255 395 255 395 250 400 250 400 255 405 255 405 250 410 250 410 255 415 255 415 250 420 250 420 255 425 255 425 250 430 250 430 255 435 255 Z" style="stroke:#000000;stroke-width:1;fill:none;"><title>100</title></path>
<path d="M250 255 250 250 255 250 255 255 260 255 260 250 265 250 265 255 270 255 270 250 275 250 275 255 280 255 280 250 285 250 285 255 290 255 290 250 295 250 295 255 300 255 300 250 305 250 305 295 295 295 295 305 250 305 250 300 255 300 255 295 250 295 250 290 255 290 255 285 250 285 250 280 255 280 255 275 250 275 250 270 255 270 255 265 250 265 250 260 255 260 255 255 Z" style="stroke:#000000;stroke-width:1;fill:none;"><title>100</title></path>
<path d="M250 310 255 310 255 315 250 315 Z" style="stroke:#000000;stroke-width:1;fill:none;"><title>100</title></path>
<path d="M250 320 255 320 255 325 250 325 Z" style="stroke:#000000;stroke-width:1;fill:none;"><title>100</title></path>
<path d="M250 340 255 340 255 350 250 350 240 345 Z" style="stroke:#000000;stroke-width:1;fill:none;"><title>100</title></path>
<path d="M250 330 255 330 255 335 250 335 Z" style="stroke:#000000;stroke-width:1;fill:none;"><title>100</title></path>
<path d="M250 355 255 355 255 360 250 360 Z" style="stroke:#000000;stroke-width:1;fill:none;"><title>100</title></path>
<path d="M310 250 315 250 315 255 310 255 Z" style="stroke:#000000;stroke-width:1;fill:none;"><title>100</title></path>
<path d="M250 365 255 365 255 370 250 370 Z" style="stroke:#000000;stroke-width:1;fill:none;"><title>100</title></path>
<path d="M250 375 255 375 255 380 250 380 Z" style="stroke:#000000;stroke-width:1;fill:none;"><title>100</title></path>
<path d="M320 250 325 250 325 255 320 255 Z" style="stroke:#000000;stroke-width:1;fill:none;"><title>100</title></path>
<path d="M330 250 335 250 335 255 330 255 Z" style="stroke:#000000;stroke-width:1;fill:none;"><title>100</title></path>
<path d="M375 250 380 250 380 255 375 255 Z" style="stroke:#000000;stroke-width:1;fill:none;"><title>100</title></path>
<path d="M365 250 370 250 370 255 365 255 Z" style="stroke:#000000;stroke-width:1;fill:none;"><title>100</title></path>
<path d="M355 250 360 250 360 255 355 255 Z" style="stroke:#000000;stroke-width:1;fill:none;"><title>100</title></path>
<path d="M350 255 350 250 345 240 340 250 340 255 Z" style="stroke:#000000;stroke-width:1;fill:none;"><title>100</title></path>
<path d="M310 435 315 435 315 440 310 440 Z" style="stroke:#000000;stroke-width:1;fill:none;"><title>100</title></path>
<path d="M320 435 325 435 325 440 320 440 Z" style="stroke:#000000;stroke-width:1;fill:none;"><title>100</title></path>
<path d="M330 435 335 435 335 440 330 440 Z" style="stroke:#000000;stroke-width:1;fill:none;"><title>100</title></path>
<path d="M375 435 380 435 380 440 375 440 Z" style="stroke:#000000;stroke-width:1;fill:none;"><title>100</title></path>
<path d="M365 435 370 435 370 440 365 440 Z" style="stroke:#000000;stroke-width:1;fill:none;"><title>100</title></path>
<path d="M355 435 360 435 360 440 355 440 Z" style="stroke:#000000;stroke-width:1;fill:none;"><title>100</title></path>
<path d="M350 440 350 435 340 435 340 440 345 450 Z" style="stroke:#000000;stroke-width:1;fill:none;"><title>100</title></path>
<path d="M435 310 440 310 440 315 435 315 Z" style="stroke:#000000;stroke-width:1;fill:none;"><title>100</title></path>
<path d="M435 320 440 320 440 325 435 325 Z" style="stroke:#000000;stroke-width:1;fill:none;"><title>100</title></path>
<path d="M435 340 440 340 450 345 440 350 435 350 Z" style="stroke:#000000;stroke-width:1;fill:none;"><title>100</title></path>
<path d="M435 330 440 330 440 335 435 335 Z" style="stroke:#000000;stroke-width:1;fill:none;"><title>100</title></path>
<path d="M435 355 440 355 440 360 435 360 Z" style="stroke:#000000;stroke-width:1;fill:none;"><title>100</title></path>
<path d="M435 365 440 365 440 370 435 370 Z" style="stroke:#000000;stroke-width:1;fill:none;"><title>100</title></path>
<path d="M435 375 440 375 440 380 435 380 Z" style="stroke:#000000;stroke-width:1;fill:none;"><title>100</title></path>
<path d="M405 1085 405 1095" style="stroke:#000000;stroke-width:1;fill:none;"><title>3</title></path>
<path d="M405 1065 405 1075" style="stroke:#000000;stroke-width:1;fill:none;"><title>3</title></path>
<path d="M405 1045 405 1055" style="stroke:#000000;stroke-width:1;fill:none;"><title>3</title></path>
<path d="M405 1025 405 1035" style="stroke:#000000;stroke-width:1;fill:none;"><title>3</title></path>
<path d="M405 1105 405 1115" style="stroke:#000000;stroke-width:1;fill:none;"><title>3</title></path>
<path d="M320 1010 330 1010" style="stroke:#000000;stroke-width:1;fill:none;"><title>3</title></path>
<path d="M300 1010 310 1010" style="stroke:#000000;stroke-width:1;fill:none;"><title>3</title></path>
<path d="M340 1010 350 1010" style="stroke:#000000;stroke-width:1;fill:none;"><title>3</title></path>
<path d="M360 1010 370 1010" style="stroke:#000000;stroke-width:1;fill:none;"><title>3</title></path>
<path d="M380 1010 390 1010" style="stroke:#000000;stroke-width:1;fill:none;"><title>3</title></path>
<path d="M285 1055 285 1045" style="stroke:#000000;stroke-width:1;fill:none;"><title>3</title></path>
<path d="M285 1075 285 1065" style="stroke:#000000;stroke-width:1;fill:none;"><title>3</title></path>
<path d="M285 1095 285 1085" style="stroke:#000000;stroke-width:1;fill:none;"><title>3</title></path>
<path d="M285 1115 285 1105" style="stroke:#000000;stroke-width:1;fill:none;"><title>3</title></path>
<path d="M285 1035 285 1025" style="stroke:#000000;stroke-width:1;fill:none;"><title>3</title></path>
<path d="M370 1130 360 1130" style="stroke:#000000;stroke-width:1;fill:none;"><title>3</title></path>
<path d="M390 1130 380 1130" style="stroke:#000000;stroke-width:1;fill:none;"><title>3</title></path>
<path d="M350 1130 340 1130" style="stroke:#000000;stroke-width:1;fill:none;"><title>3</title></path>
<path d="M330 1130 320 1130" style="stroke:#000000;stroke-width:1;fill:none;"><title>3</title></path>
<path d="M310 1130 300 1130" style="stroke:#000000;stroke-width:1;fill:none;"><title>3</title></path>
<path d="M407 413 407 417 408 416 409 417 409 413" style="stroke:#000000;stroke-width:1;fill:none;"><title>0.01</title></path>
<path d="M410 413 410 417" style="stroke:#000000;stroke-width:1;fill:none;"><title>0.01</title></path>
<path d="M411 413 411 417" style="stroke:#000000;stroke-width:1;fill:none;"><title>0.01</title></path>
<path d="M413 413 411 415 413 417" style="stroke:#000000;stroke-width:1;fill:none;"><title>0.01</title></path>
<path d="M415 414 416 413 417 414 417 415 415 417 417 417" style="stroke:#000000;stroke-width:1;fill:none;"><title>0.01</title></path>
<path d="M418 414 419 413 420 414 420 416 419 417 418 416 Z" style="stroke:#000000;stroke-width:1;fill:none;"><title>0.01</title></path>
<path d="M421 413 421 417" style="stroke:#000000;stroke-width:1;fill:none;"><title>0.01</title></path>
<path d="M422 414 423 413 424 414 423 415 424 416 423 417 422 416" style="stroke:#000000;stroke-width:1;fill:none;"><title>0.01</title></path>
<g>
<circle cx="345" cy="1000" r="2" style="stroke:#ff8000;stroke-width:1;fill:#ff8000;"><title>nodraw</title></circle>
<path d="M345 1000 350 1000 350 997 353 1000 350 1003 350 1000" style="stroke:#ff8000;stroke-width:1;fill:#ff8000;" transform="rotate(270,345,1000)"><title>spawn</title></path>
</g>
<g>
<circle cx="345" cy="460" r="2" style="stroke:#ff8000;stroke-width:1;fill:#ff8000;"><title>nodraw</title></circle>
<path d="M345 460 350 460 350 457 353 460 350 463 350 460" style="stroke:#ff8000;stroke-width:1;fill:#ff8000;" transform="rotate(90,345,460)"><title>spawn</title></path>
</g>
</svg>