<?xml version="1.0"?>
<!DOCTYPE svg PUBLIC "-//W3C//DTD SVG 1.1//EN" "http://www.w3.org/Graphics/SVG/1.1/DTD/svg11.dtd">
<svg version="1.1" xmlns="http://www.w3.org/2000/svg" width="390" height="570">
<g>
<circle cx="195" cy="510" r="40" style="stroke:#0040f0;stroke-width:1;fill:#0040f0;fill-opacity:0;"><title>fortress</title></circle>
<path d="M192 510 198 510 M195 507 195 513" style="stroke:#0040f0;stroke-width:1;fill:none;"><title>nodraw</title></path>
</g>
<g>
<circle cx="195" cy="65" r="40" style="stroke:#0040f0;stroke-width:1;fill:#0040f0;fill-opacity:0;"><title>fortress</title></circle>
<path d="M192 65 198 65 M195 62 195 68" style="stroke:#0040f0;stroke-width:1;fill:none;"><title>nodraw</title></path>
</g>
<path d="M0 570 390 570 390 352 365 352 365 348 390 348 390 227 365 227 365 223 390 223 390 5 0 5 0 223 25 223 25 227 0 227 0 348 25 348 25 352 0 352 Z" style="stroke:#000000;stroke-width:1;fill:none;"/>
<path d="M205 450 205 430 197 430 197 390 200 390 200 427 208 427 208 446 275 446 275 450 Z" style="stroke:#000000;stroke-width:1;fill:none;"/>
<path d="M115 450 115 446 182 446 182 427 190 427 190 390 193 390 193 430 185 430 185 450 Z" style="stroke:#000000;stroke-width:1;fill:none;"/>
<path d="M115 125 115 129 182 129 182 148 190 148 190 185 193 185 193 145 185 145 185 125 Z" style="stroke:#000000;stroke-width:1;fill:none;"/>
<path d="M205 125 205 145 197 145 197 185 200 185 200 148 208 148 208 129 275 129 275 125 Z" style="stroke:#000000;stroke-width:1;fill:none;"/>
<path d="M190 310 193 310 193 289 197 289 197 310 200 310 200 265 197 265 197 286 193 286 193 265 190 265 Z" style="stroke:#000000;stroke-width:1;fill:none;"/>
<path d="M190 340 193 340 193 360 190 360 190 352 140 352 140 348 190 348 Z" style="stroke:#000000;stroke-width:1;fill:none;"/>
<path d="M200 340 197 340 197 360 200 360 200 352 250 352 250 348 200 348 Z" style="stroke:#000000;stroke-width:1;fill:none;"/>
<path d="M190 215 193 215 193 235 190 235 190 227 140 227 140 223 190 223 Z" style="stroke:#000000;stroke-width:1;fill:none;"/>
<path d="M200 215 197 215 197 235 200 235 200 227 250 227 250 223 200 223 Z" style="stroke:#000000;stroke-width:1;fill:none;"/>
<path d="M5 446 55 446 55 450 5 450 Z" style="stroke:#000000;stroke-width:1;fill:none;"/>
<path d="M60 446 110 446 110 450 60 450 Z" style="stroke:#000000;stroke-width:1;fill:none;"/>
<path d="M280 446 330 446 330 450 280 450 Z" style="stroke:#000000;stroke-width:1;fill:none;"/>
<path d="M335 446 385 446 385 450 335 450 Z" style="stroke:#000000;stroke-width:1;fill:none;"/>
<path d="M30 348 80 348 80 352 30 352 Z" style="stroke:#000000;stroke-width:1;fill:none;"/>
<path d="M85 348 135 348 135 352 85 352 Z" style="stroke:#000000;stroke-width:1;fill:none;"/>
<path d="M255 348 305 348 305 352 255 352 Z" style="stroke:#000000;stroke-width:1;fill:none;"/>
<path d="M310 348 360 348 360 352 310 352 Z" style="stroke:#000000;stroke-width:1;fill:none;"/>
<path d="M30 223 80 223 80 227 30 227 Z" style="stroke:#000000;stroke-width:1;fill:none;"/>
<path d="M85 223 135 223 135 227 85 227 Z" style="stroke:#000000;stroke-width:1;fill:none;"/>
<path d="M255 223 305 223 305 227 255 227 Z" style="stroke:#000000;stroke-width:1;fill:none;"/>
<path d="M310 223 360 223 360 227 310 227 Z" style="stroke:#000000;stroke-width:1;fill:none;"/>
<path d="M5 129 55 129 55 125 5 125 Z" style="stroke:#000000;stroke-width:1;fill:none;"/>
<path d="M60 129 110 129 110 125 60 125 Z" style="stroke:#000000;stroke-width:1;fill:none;"/>
<path d="M280 129 330 129 330 125 280 125 Z" style="stroke:#000000;stroke-width:1;fill:none;"/>
<path d="M335 129 385 129 385 125 335 125 Z" style="stroke:#000000;stroke-width:1;fill:none;"/>
<path d="M190 385 190 365 193 365 193 385 Z" style="stroke:#000000;stroke-width:1;fill:none;"/>
<path d="M197 385 197 365 200 365 200 385 Z" style="stroke:#000000;stroke-width:1;fill:none;"/>
<path d="M190 335 190 315 193 315 193 335 Z" style="stroke:#000000;stroke-width:1;fill:none;"/>
<path d="M197 335 197 315 200 315 200 335 Z" style="stroke:#000000;stroke-width:1;fill:none;"/>
<path d="M190 260 190 240 193 240 193 260 Z" style="stroke:#000000;stroke-width:1;fill:none;"/>
<path d="M197 260 197 240 200 240 200 260 Z" style="stroke:#000000;stroke-width:1;fill:none;"/>
<path d="M190 210 190 190 193 190 193 210 Z" style="stroke:#000000;stroke-width:1;fill:none;"/>
<path d="M197 210 197 190 200 190 200 210 Z" style="stroke:#000000;stroke-width:1;fill:none;"/>
<path d="M390 4 390 0 389 1 388 0 388 4" style="stroke:#000000;stroke-width:1;fill:none;"/>
<path d="M387 4 387 0" style="stroke:#000000;stroke-width:1;fill:none;"/>
<path d="M386 4 386 0" style="stroke:#000000;stroke-width:1;fill:none;"/>
<path d="M384 4 386 2 384 0" style="stroke:#000000;stroke-width:1;fill:none;"/>
<path d="M382 3 381 4 380 3 380 2 382 0 380 0" style="stroke:#000000;stroke-width:1;fill:none;"/>
<path d="M378 4 377 3 377 1 378 0 379 1 379 3 Z" style="stroke:#000000;stroke-width:1;fill:none;"/>
<path d="M376 4 376 0" style="stroke:#000000;stroke-width:1;fill:none;"/>
<path d="M375 3 374 4 373 3 374 2 373 1 374 0 375 1" style="stroke:#000000;stroke-width:1;fill:none;"/>
<g>
<circle cx="195" cy="470" r="2" style="stroke:#ff8000;stroke-width:1;fill:#ff8000;"><title>nodraw</title></circle>
<path d="M195 470 200 470 200 467 203 470 200 473 200 470" style="stroke:#ff8000;stroke-width:1;fill:#ff8000;" transform="rotate(270,195,470)"><title>spawn</title></path>
</g>
<g>
<circle cx="195" cy="105" r="2" style="stroke:#ff8000;stroke-width:1;fill:#ff8000;"><title>nodraw</title></circle>
<path d="M195 105 200 105 200 102 203 105 200 108 200 105" style="stroke:#ff8000;stroke-width:1;fill:#ff8000;" transform="rotate(90,195,105)"><title>spawn</title></path>
</g>
</svg>