<?xml version="1.0"?>
<!DOCTYPE svg PUBLIC "-//W3C//DTD SVG 1.1//EN" "http://www.w3.org/Graphics/SVG/1.1/DTD/svg11.dtd">
<svg version="1.1" xmlns="http://www.w3.org/2000/svg" width="498" height="574">
<g>
<circle cx="249" cy="287" r="100" style="stroke:#f00000;stroke-width:1;fill:#f00000;fill-opacity:0;"><title>death</title></circle>
<path d="M246 287 252 287 M249 284 249 290" style="stroke:#f00000;stroke-width:1;fill:none;"><title>nodraw</title></path>
</g>
<g>
<circle cx="496.5" cy="429.5" r="147.5" style="stroke:#f00000;stroke-width:1;fill:#f00000;fill-opacity:0;"><title>death</title></circle>
<path d="M493.5 429.5 499.5 429.5 M496.5 426.5 496.5 432.5" style="stroke:#f00000;stroke-width:1;fill:none;"><title>nodraw</title></path>
</g>
<g>
<circle cx="496.5" cy="144.5" r="147.5" style="stroke:#f00000;stroke-width:1;fill:#f00000;fill-opacity:0;"><title>death</title></circle>
<path d="M493.5 144.5 499.5 144.5 M496.5 141.5 496.5 147.5" style="stroke:#f00000;stroke-width:1;fill:none;"><title>nodraw</title></path>
</g>
<g>
<circle cx="249" cy="2" r="147.5" style="stroke:#f00000;stroke-width:1;fill:#f00000;fill-opacity:0;"><title>death</title></circle>
<path d="M246 2 252 2 M249 -1 249 5" style="stroke:#f00000;stroke-width:1;fill:none;"><title>nodraw</title></path>
</g>
<g>
<circle cx="1.5" cy="144.5" r="147.5" style="stroke:#f00000;stroke-width:1;fill:#f00000;fill-opacity:0;"><title>death</title></circle>
<path d="M-1.5 144.5 4.5 144.5 M1.5 141.5 1.5 147.5" style="stroke:#f00000;stroke-width:1;fill:none;"><title>nodraw</title></path>
</g>
<g>
<circle cx="1.5" cy="429.5" r="147.5" style="stroke:#f00000;stroke-width:1;fill:#f00000;fill-opacity:0;"><title>death</title></circle>
<path d="M-1.5 429.5 4.5 429.5 M1.5 426.5 1.5 432.5" style="stroke:#f00000;stroke-width:1;fill:none;"><title>nodraw</title></path>
</g>
<g>
<circle cx="249" cy="572" r="147.5" style="stroke:#f00000;stroke-width:1;fill:#f00000;fill-opacity:0;"><title>death</title></circle>
<path d="M246 572 252 572 M249 569 249 575" style="stroke:#f00000;stroke-width:1;fill:none;"><title>nodraw</title></path>
</g>
<g>
<circle cx="180" cy="168" r="5" style="stroke:#f00000;stroke-width:1;fill:#f00000;fill-opacity:0;"><title>death</title></circle>
<path d="M177 168 183 168 M180 165 180 171" style="stroke:#f00000;stroke-width:1;fill:none;"><title>nodraw</title></path>
</g>
<g>
<circle cx="210" cy="168" r="5" style="stroke:#f00000;stroke-width:1;fill:#f00000;fill-opacity:0;"><title>death</title></circle>
<path d="M207 168 213 168 M210 165 210 171" style="stroke:#f00000;stroke-width:1;fill:none;"><title>nodraw</title></path>
</g>
<g>
<circle cx="236" cy="168" r="5" style="stroke:#f00000;stroke-width:1;fill:#f00000;fill-opacity:0;"><title>death</title></circle>
<path d="M233 168 239 168 M236 165 236 171" style="stroke:#f00000;stroke-width:1;fill:none;"><title>nodraw</title></path>
</g>
<g>
<circle cx="262" cy="168" r="5" style="stroke:#f00000;stroke-width:1;fill:#f00000;fill-opacity:0;"><title>death</title></circle>
<path d="M259 168 265 168 M262 165 262 171" style="stroke:#f00000;stroke-width:1;fill:none;"><title>nodraw</title></path>
</g>
<g>
<circle cx="288" cy="168" r="5" style="stroke:#f00000;stroke-width:1;fill:#f00000;fill-opacity:0;"><title>death</title></circle>
<path d="M285 168 291 168 M288 165 288 171" style="stroke:#f00000;stroke-width:1;fill:none;"><title>nodraw</title></path>
</g>
<g>
<circle cx="317" cy="168" r="5" style="stroke:#f00000;stroke-width:1;fill:#f00000;fill-opacity:0;"><title>death</title></circle>
<path d="M314 168 320 168 M317 165 317 171" style="stroke:#f00000;stroke-width:1;fill:none;"><title>nodraw</title></path>
</g>
<g>
<circle cx="210" cy="406" r="5" style="stroke:#f00000;stroke-width:1;fill:#f00000;fill-opacity:0;"><title>death</title></circle>
<path d="M207 406 213 406 M210 403 210 409" style="stroke:#f00000;stroke-width:1;fill:none;"><title>nodraw</title></path>
</g>
<g>
<circle cx="236" cy="406" r="5" style="stroke:#f00000;stroke-width:1;fill:#f00000;fill-opacity:0;"><title>death</title></circle>
<path d="M233 406 239 406 M236 403 236 409" style="stroke:#f00000;stroke-width:1;fill:none;"><title>nodraw</title></path>
</g>
<g>
<circle cx="262" cy="406" r="5" style="stroke:#f00000;stroke-width:1;fill:#f00000;fill-opacity:0;"><title>death</title></circle>
<path d="M259 406 265 406 M262 403 262 409" style="stroke:#f00000;stroke-width:1;fill:none;"><title>nodraw</title></path>
</g>
<g>
<circle cx="288" cy="406" r="5" style="stroke:#f00000;stroke-width:1;fill:#f00000;fill-opacity:0;"><title>death</title></circle>
<path d="M285 406 291 406 M288 403 288 409" style="stroke:#f00000;stroke-width:1;fill:none;"><title>nodraw</title></path>
</g>
<g>
<circle cx="126.4" cy="261.3" r="5" style="stroke:#f00000;stroke-width:1;fill:#f00000;fill-opacity:0;"><title>death</title></circle>
<path d="M123.4 261.3 129.4 261.3 M126.4 258.3 126.4 264.3" style="stroke:#f00000;stroke-width:1;fill:none;"><title>nodraw</title></path>
</g>
<g>
<circle cx="139.4" cy="238.8" r="5" style="stroke:#f00000;stroke-width:1;fill:#f00000;fill-opacity:0;"><title>death</title></circle>
<path d="M136.4 238.8 142.4 238.8 M139.4 235.8 139.4 241.8" style="stroke:#f00000;stroke-width:1;fill:none;"><title>nodraw</title></path>
</g>
<g>
<circle cx="152.4" cy="216.2" r="5" style="stroke:#f00000;stroke-width:1;fill:#f00000;fill-opacity:0;"><title>death</title></circle>
<path d="M149.4 216.2 155.4 216.2 M152.4 213.2 152.4 219.2" style="stroke:#f00000;stroke-width:1;fill:none;"><title>nodraw</title></path>
</g>
<g>
<circle cx="165.4" cy="193.7" r="5" style="stroke:#f00000;stroke-width:1;fill:#f00000;fill-opacity:0;"><title>death</title></circle>
<path d="M162.4 193.7 168.4 193.7 M165.4 190.7 165.4 196.7" style="stroke:#f00000;stroke-width:1;fill:none;"><title>nodraw</title></path>
</g>
<g>
<circle cx="332.6" cy="380.3" r="5" style="stroke:#f00000;stroke-width:1;fill:#f00000;fill-opacity:0;"><title>death</title></circle>
<path d="M329.6 380.3 335.6 380.3 M332.6 377.3 332.6 383.3" style="stroke:#f00000;stroke-width:1;fill:none;"><title>nodraw</title></path>
</g>
<g>
<circle cx="345.6" cy="357.8" r="5" style="stroke:#f00000;stroke-width:1;fill:#f00000;fill-opacity:0;"><title>death</title></circle>
<path d="M342.6 357.8 348.6 357.8 M345.6 354.8 345.6 360.8" style="stroke:#f00000;stroke-width:1;fill:none;"><title>nodraw</title></path>
</g>
<g>
<circle cx="358.6" cy="335.2" r="5" style="stroke:#f00000;stroke-width:1;fill:#f00000;fill-opacity:0;"><title>death</title></circle>
<path d="M355.6 335.2 361.6 335.2 M358.6 332.2 358.6 338.2" style="stroke:#f00000;stroke-width:1;fill:none;"><title>nodraw</title></path>
</g>
<g>
<circle cx="371.6" cy="312.7" r="5" style="stroke:#f00000;stroke-width:1;fill:#f00000;fill-opacity:0;"><title>death</title></circle>
<path d="M368.6 312.7 374.6 312.7 M371.6 309.7 371.6 315.7" style="stroke:#f00000;stroke-width:1;fill:none;"><title>nodraw</title></path>
</g>
<g>
<circle cx="371.6" cy="261.3" r="5" style="stroke:#f00000;stroke-width:1;fill:#f00000;fill-opacity:0;"><title>death</title></circle>
<path d="M368.6 261.3 374.6 261.3 M371.6 258.3 371.6 264.3" style="stroke:#f00000;stroke-width:1;fill:none;"><title>nodraw</title></path>
</g>
<g>
<circle cx="358.6" cy="238.8" r="5" style="stroke:#f00000;stroke-width:1;fill:#f00000;fill-opacity:0;"><title>death</title></circle>
<path d="M355.6 238.8 361.6 238.8 M358.6 235.8 358.6 241.8" style="stroke:#f00000;stroke-width:1;fill:none;"><title>nodraw</title></path>
</g>
<g>
<circle cx="345.6" cy="216.2" r="5" style="stroke:#f00000;stroke-width:1;fill:#f00000;fill-opacity:0;"><title>death</title></circle>
<path d="M342.6 216.2 348.6 216.2 M345.6 213.2 345.6 219.2" style="stroke:#f00000;stroke-width:1;fill:none;"><title>nodraw</title></path>
</g>
<g>
<circle cx="332.6" cy="193.7" r="5" style="stroke:#f00000;stroke-width:1;fill:#f00000;fill-opacity:0;"><title>death</title></circle>
<path d="M329.6 193.7 335.6 193.7 M332.6 190.7 332.6 196.7" style="stroke:#f00000;stroke-width:1;fill:none;"><title>nodraw</title></path>
</g>
<g>
<circle cx="165.4" cy="380.3" r="5" style="stroke:#f00000;stroke-width:1;fill:#f00000;fill-opacity:0;"><title>death</title></circle>
<path d="M162.4 380.3 168.4 380.3 M165.4 377.3 165.4 383.3" style="stroke:#f00000;stroke-width:1;fill:none;"><title>nodraw</title></path>
</g>
<g>
<circle cx="152.4" cy="357.8" r="5" style="stroke:#f00000;stroke-width:1;fill:#f00000;fill-opacity:0;"><title>death</title></circle>
<path d="M149.4 357.8 155.4 357.8 M152.4 354.8 152.4 360.8" style="stroke:#f00000;stroke-width:1;fill:none;"><title>nodraw</title></path>
</g>
<g>
<circle cx="139.4" cy="335.2" r="5" style="stroke:#f00000;stroke-width:1;fill:#f00000;fill-opacity:0;"><title>death</title></circle>
<path d="M136.4 335.2 142.4 335.2 M139.4 332.2 139.4 338.2" style="stroke:#f00000;stroke-width:1;fill:none;"><title>nodraw</title></path>
</g>
<g>
<circle cx="126.4" cy="312.7" r="5" style="stroke:#f00000;stroke-width:1;fill:#f00000;fill-opacity:0;"><title>death</title></circle>
<path d="M123.4 312.7 129.4 312.7 M126.4 309.7 126.4 315.7" style="stroke:#f00000;stroke-width:1;fill:none;"><title>nodraw</title></path>
</g>
<g>
<circle cx="112" cy="287" r="5" style="stroke:#f00000;stroke-width:1;fill:#f00000;fill-opacity:0;"><title>death</title></circle>
<path d="M109 287 115 287 M112 284 112 290" style="stroke:#f00000;stroke-width:1;fill:none;"><title>nodraw</title></path>
</g>
<g>
<circle cx="386" cy="287" r="5" style="stroke:#f00000;stroke-width:1;fill:#f00000;fill-opacity:0;"><title>death</title></circle>
<path d="M383 287 389 287 M386 284 386 290" style="stroke:#f00000;stroke-width:1;fill:none;"><title>nodraw</title></path>
</g>
<g>
<circle cx="317" cy="406" r="5" style="stroke:#f00000;stroke-width:1;fill:#f00000;fill-opacity:0;"><title>death</title></circle>
<path d="M314 406 320 406 M317 403 317 409" style="stroke:#f00000;stroke-width:1;fill:none;"><title>nodraw</title></path>
</g>
<g>
<circle cx="180" cy="406" r="5" style="stroke:#f00000;stroke-width:1;fill:#f00000;fill-opacity:0;"><title>death</title></circle>
<path d="M177 406 183 406 M180 403 180 409" style="stroke:#f00000;stroke-width:1;fill:none;"><title>nodraw</title></path>
</g>
<g>
<circle cx="249" cy="168" r="6" style="stroke:#f00000;stroke-width:1;fill:#f00000;fill-opacity:0;"><title>death</title></circle>
<path d="M246 168 252 168 M249 165 249 171" style="stroke:#f00000;stroke-width:1;fill:none;"><title>nodraw</title></path>
</g>
<g>
<circle cx="274" cy="168" r="6" style="stroke:#f00000;stroke-width:1;fill:#f00000;fill-opacity:0;"><title>death</title></circle>
<path d="M271 168 277 168 M274 165 274 171" style="stroke:#f00000;stroke-width:1;fill:none;"><title>nodraw</title></path>
</g>
<g>
<circle cx="196" cy="168" r="6" style="stroke:#f00000;stroke-width:1;fill:#f00000;fill-opacity:0;"><title>death</title></circle>
<path d="M193 168 199 168 M196 165 196 171" style="stroke:#f00000;stroke-width:1;fill:none;"><title>nodraw</title></path>
</g>
<g>
<circle cx="224" cy="168" r="6" style="stroke:#f00000;stroke-width:1;fill:#f00000;fill-opacity:0;"><title>death</title></circle>
<path d="M221 168 227 168 M224 165 224 171" style="stroke:#f00000;stroke-width:1;fill:none;"><title>nodraw</title></path>
</g>
<g>
<circle cx="302" cy="168" r="6" style="stroke:#f00000;stroke-width:1;fill:#f00000;fill-opacity:0;"><title>death</title></circle>
<path d="M299 168 305 168 M302 165 302 171" style="stroke:#f00000;stroke-width:1;fill:none;"><title>nodraw</title></path>
</g>
<g>
<circle cx="249" cy="406" r="6" style="stroke:#f00000;stroke-width:1;fill:#f00000;fill-opacity:0;"><title>death</title></circle>
<path d="M246 406 252 406 M249 403 249 409" style="stroke:#f00000;stroke-width:1;fill:none;"><title>nodraw</title></path>
</g>
<g>
<circle cx="274" cy="406" r="6" style="stroke:#f00000;stroke-width:1;fill:#f00000;fill-opacity:0;"><title>death</title></circle>
<path d="M271 406 277 406 M274 403 274 409" style="stroke:#f00000;stroke-width:1;fill:none;"><title>nodraw</title></path>
</g>
<g>
<circle cx="196" cy="406" r="6" style="stroke:#f00000;stroke-width:1;fill:#f00000;fill-opacity:0;"><title>death</title></circle>
<path d="M193 406 199 406 M196 403 196 409" style="stroke:#f00000;stroke-width:1;fill:none;"><title>nodraw</title></path>
</g>
<g>
<circle cx="224" cy="406" r="6" style="stroke:#f00000;stroke-width:1;fill:#f00000;fill-opacity:0;"><title>death</title></circle>
<path d="M221 406 227 406 M224 403 224 409" style="stroke:#f00000;stroke-width:1;fill:none;"><title>nodraw</title></path>
</g>
<g>
<circle cx="302" cy="406" r="6" style="stroke:#f00000;stroke-width:1;fill:#f00000;fill-opacity:0;"><title>death</title></circle>
<path d="M299 406 305 406 M302 403 302 409" style="stroke:#f00000;stroke-width:1;fill:none;"><title>nodraw</title></path>
</g>
<g>
<circle cx="145.7" cy="227.4" r="6" style="stroke:#f00000;stroke-width:1;fill:#f00000;fill-opacity:0;"><title>death</title></circle>
<path d="M142.7 227.4 148.7 227.4 M145.7 224.4 145.7 230.4" style="stroke:#f00000;stroke-width:1;fill:none;"><title>nodraw</title></path>
</g>
<g>
<circle cx="158.2" cy="205.7" r="6" style="stroke:#f00000;stroke-width:1;fill:#f00000;fill-opacity:0;"><title>death</title></circle>
<path d="M155.2 205.7 161.2 205.7 M158.2 202.7 158.2 208.7" style="stroke:#f00000;stroke-width:1;fill:none;"><title>nodraw</title></path>
</g>
<g>
<circle cx="119.2" cy="273.3" r="6" style="stroke:#f00000;stroke-width:1;fill:#f00000;fill-opacity:0;"><title>death</title></circle>
<path d="M116.2 273.3 122.2 273.3 M119.2 270.3 119.2 276.3" style="stroke:#f00000;stroke-width:1;fill:none;"><title>nodraw</title></path>
</g>
<g>
<circle cx="133.2" cy="249" r="6" style="stroke:#f00000;stroke-width:1;fill:#f00000;fill-opacity:0;"><title>death</title></circle>
<path d="M130.2 249 136.2 249 M133.2 246 133.2 252" style="stroke:#f00000;stroke-width:1;fill:none;"><title>nodraw</title></path>
</g>
<g>
<circle cx="172.2" cy="181.5" r="6" style="stroke:#f00000;stroke-width:1;fill:#f00000;fill-opacity:0;"><title>death</title></circle>
<path d="M169.2 181.5 175.2 181.5 M172.2 178.5 172.2 184.5" style="stroke:#f00000;stroke-width:1;fill:none;"><title>nodraw</title></path>
</g>
<g>
<circle cx="351.8" cy="346.4" r="6" style="stroke:#f00000;stroke-width:1;fill:#f00000;fill-opacity:0;"><title>death</title></circle>
<path d="M348.8 346.4 354.8 346.4 M351.8 343.4 351.8 349.4" style="stroke:#f00000;stroke-width:1;fill:none;"><title>nodraw</title></path>
</g>
<g>
<circle cx="364.3" cy="324.7" r="6" style="stroke:#f00000;stroke-width:1;fill:#f00000;fill-opacity:0;"><title>death</title></circle>
<path d="M361.3 324.7 367.3 324.7 M364.3 321.7 364.3 327.7" style="stroke:#f00000;stroke-width:1;fill:none;"><title>nodraw</title></path>
</g>
<g>
<circle cx="325.3" cy="392.3" r="6" style="stroke:#f00000;stroke-width:1;fill:#f00000;fill-opacity:0;"><title>death</title></circle>
<path d="M322.3 392.3 328.3 392.3 M325.3 389.3 325.3 395.3" style="stroke:#f00000;stroke-width:1;fill:none;"><title>nodraw</title></path>
</g>
<g>
<circle cx="339.3" cy="368" r="6" style="stroke:#f00000;stroke-width:1;fill:#f00000;fill-opacity:0;"><title>death</title></circle>
<path d="M336.3 368 342.3 368 M339.3 365 339.3 371" style="stroke:#f00000;stroke-width:1;fill:none;"><title>nodraw</title></path>
</g>
<g>
<circle cx="378.3" cy="300.5" r="6" style="stroke:#f00000;stroke-width:1;fill:#f00000;fill-opacity:0;"><title>death</title></circle>
<path d="M375.3 300.5 381.3 300.5 M378.3 297.5 378.3 303.5" style="stroke:#f00000;stroke-width:1;fill:none;"><title>nodraw</title></path>
</g>
<g>
<circle cx="352.3" cy="227.4" r="6" style="stroke:#f00000;stroke-width:1;fill:#f00000;fill-opacity:0;"><title>death</title></circle>
<path d="M349.3 227.4 355.3 227.4 M352.3 224.4 352.3 230.4" style="stroke:#f00000;stroke-width:1;fill:none;"><title>nodraw</title></path>
</g>
<g>
<circle cx="339.8" cy="205.7" r="6" style="stroke:#f00000;stroke-width:1;fill:#f00000;fill-opacity:0;"><title>death</title></circle>
<path d="M336.8 205.7 342.8 205.7 M339.8 202.7 339.8 208.7" style="stroke:#f00000;stroke-width:1;fill:none;"><title>nodraw</title></path>
</g>
<g>
<circle cx="378.8" cy="273.3" r="6" style="stroke:#f00000;stroke-width:1;fill:#f00000;fill-opacity:0;"><title>death</title></circle>
<path d="M375.8 273.3 381.8 273.3 M378.8 270.3 378.8 276.3" style="stroke:#f00000;stroke-width:1;fill:none;"><title>nodraw</title></path>
</g>
<g>
<circle cx="364.8" cy="249" r="6" style="stroke:#f00000;stroke-width:1;fill:#f00000;fill-opacity:0;"><title>death</title></circle>
<path d="M361.8 249 367.8 249 M364.8 246 364.8 252" style="stroke:#f00000;stroke-width:1;fill:none;"><title>nodraw</title></path>
</g>
<g>
<circle cx="325.8" cy="181.5" r="6" style="stroke:#f00000;stroke-width:1;fill:#f00000;fill-opacity:0;"><title>death</title></circle>
<path d="M322.8 181.5 328.8 181.5 M325.8 178.5 325.8 184.5" style="stroke:#f00000;stroke-width:1;fill:none;"><title>nodraw</title></path>
</g>
<g>
<circle cx="146.2" cy="346.4" r="6" style="stroke:#f00000;stroke-width:1;fill:#f00000;fill-opacity:0;"><title>death</title></circle>
<path d="M143.2 346.4 149.2 346.4 M146.2 343.4 146.2 349.4" style="stroke:#f00000;stroke-width:1;fill:none;"><title>nodraw</title></path>
</g>
<g>
<circle cx="133.7" cy="324.7" r="6" style="stroke:#f00000;stroke-width:1;fill:#f00000;fill-opacity:0;"><title>death</title></circle>
<path d="M130.7 324.7 136.7 324.7 M133.7 321.7 133.7 327.7" style="stroke:#f00000;stroke-width:1;fill:none;"><title>nodraw</title></path>
</g>
<g>
<circle cx="172.7" cy="392.3" r="6" style="stroke:#f00000;stroke-width:1;fill:#f00000;fill-opacity:0;"><title>death</title></circle>
<path d="M169.7 392.3 175.7 392.3 M172.7 389.3 172.7 395.3" style="stroke:#f00000;stroke-width:1;fill:none;"><title>nodraw</title></path>
</g>
<g>
<circle cx="158.7" cy="368" r="6" style="stroke:#f00000;stroke-width:1;fill:#f00000;fill-opacity:0;"><title>death</title></circle>
<path d="M155.7 368 161.7 368 M158.7 365 158.7 371" style="stroke:#f00000;stroke-width:1;fill:none;"><title>nodraw</title></path>
</g>
<g>
<circle cx="119.7" cy="300.5" r="6" style="stroke:#f00000;stroke-width:1;fill:#f00000;fill-opacity:0;"><title>death</title></circle>
<path d="M116.7 300.5 122.7 300.5 M119.7 297.5 119.7 303.5" style="stroke:#f00000;stroke-width:1;fill:none;"><title>nodraw</title></path>
</g>
<g>
<circle cx="249" cy="168" r="1" style="stroke:#0040f0;stroke-width:1;fill:#0040f0;fill-opacity:0;"><title>fortress</title></circle>
<path d="M246 168 252 168 M249 165 249 171" style="stroke:#0040f0;stroke-width:1;fill:none;"><title>nodraw</title></path>
</g>
<g>
<circle cx="274" cy="168" r="1" style="stroke:#0040f0;stroke-width:1;fill:#0040f0;fill-opacity:0;"><title>fortress</title></circle>
<path d="M271 168 277 168 M274 165 274 171" style="stroke:#0040f0;stroke-width:1;fill:none;"><title>nodraw</title></path>
</g>
<g>
<circle cx="196" cy="168" r="1" style="stroke:#0040f0;stroke-width:1;fill:#0040f0;fill-opacity:0;"><title>fortress</title></circle>
<path d="M193 168 199 168 M196 165 196 171" style="stroke:#0040f0;stroke-width:1;fill:none;"><title>nodraw</title></path>
</g>
<g>
<circle cx="224" cy="168" r="1" style="stroke:#0040f0;stroke-width:1;fill:#0040f0;fill-opacity:0;"><title>fortress</title></circle>
<path d="M221 168 227 168 M224 165 224 171" style="stroke:#0040f0;stroke-width:1;fill:none;"><title>nodraw</title></path>
</g>
<g>
<circle cx="302" cy="168" r="1" style="stroke:#0040f0;stroke-width:1;fill:#0040f0;fill-opacity:0;"><title>fortress</title></circle>
<path d="M299 168 305 168 M302 165 302 171" style="stroke:#0040f0;stroke-width:1;fill:none;"><title>nodraw</title></path>
</g>
<g>
<circle cx="249" cy="406" r="1" style="stroke:#0040f0;stroke-width:1;fill:#0040f0;fill-opacity:0;"><title>fortress</title></circle>
<path d="M246 406 252 406 M249 403 249 409" style="stroke:#0040f0;stroke-width:1;fill:none;"><title>nodraw</title></path>
</g>
<g>
<circle cx="274" cy="406" r="1" style="stroke:#0040f0;stroke-width:1;fill:#0040f0;fill-opacity:0;"><title>fortress</title></circle>
<path d="M271 406 277 406 M274 403 274 409" style="stroke:#0040f0;stroke-width:1;fill:none;"><title>nodraw</title></path>
</g>
<g>
<circle cx="196" cy="406" r="1" style="stroke:#0040f0;stroke-width:1;fill:#0040f0;fill-opacity:0;"><title>fortress</title></circle>
<path d="M193 406 199 406 M196 403 196 409" style="stroke:#0040f0;stroke-width:1;fill:none;"><title>nodraw</title></path>
</g>
<g>
<circle cx="224" cy="406" r="1" style="stroke:#0040f0;stroke-width:1;fill:#0040f0;fill-opacity:0;"><title>fortress</title></circle>
<path d="M221 406 227 406 M224 403 224 409" style="stroke:#0040f0;stroke-width:1;fill:none;"><title>nodraw</title></path>
</g>
<g>
<circle cx="302" cy="406" r="1" style="stroke:#0040f0;stroke-width:1;fill:#0040f0;fill-opacity:0;"><title>fortress</title></circle>
<path d="M299 406 305 406 M302 403 302 409" style="stroke:#0040f0;stroke-width:1;fill:none;"><title>nodraw</title></path>
</g>
<g>
<circle cx="145.7" cy="227.4" r="1" style="stroke:#0040f0;stroke-width:1;fill:#0040f0;fill-opacity:0;"><title>fortress</title></circle>
<path d="M142.7 227.4 148.7 227.4 M145.7 224.4 145.7 230.4" style="stroke:#0040f0;stroke-width:1;fill:none;"><title>nodraw</title></path>
</g>
<g>
<circle cx="158.2" cy="205.7" r="1" style="stroke:#0040f0;stroke-width:1;fill:#0040f0;fill-opacity:0;"><title>fortress</title></circle>
<path d="M155.2 205.7 161.2 205.7 M158.2 202.7 158.2 208.7" style="stroke:#0040f0;stroke-width:1;fill:none;"><title>nodraw</title></path>
</g>
<g>
<circle cx="119.2" cy="273.3" r="1" style="stroke:#0040f0;stroke-width:1;fill:#0040f0;fill-opacity:0;"><title>fortress</title></circle>
<path d="M116.2 273.3 122.2 273.3 M119.2 270.3 119.2 276.3" style="stroke:#0040f0;stroke-width:1;fill:none;"><title>nodraw</title></path>
</g>
<g>
<circle cx="133.2" cy="249" r="1" style="stroke:#0040f0;stroke-width:1;fill:#0040f0;fill-opacity:0;"><title>fortress</title></circle>
<path d="M130.2 249 136.2 249 M133.2 246 133.2 252" style="stroke:#0040f0;stroke-width:1;fill:none;"><title>nodraw</title></path>
</g>
<g>
<circle cx="172.2" cy="181.5" r="1" style="stroke:#0040f0;stroke-width:1;fill:#0040f0;fill-opacity:0;"><title>fortress</title></circle>
<path d="M169.2 181.5 175.2 181.5 M172.2 178.5 172.2 184.5" style="stroke:#0040f0;stroke-width:1;fill:none;"><title>nodraw</title></path>
</g>
<g>
<circle cx="351.8" cy="346.4" r="1" style="stroke:#0040f0;stroke-width:1;fill:#0040f0;fill-opacity:0;"><title>fortress</title></circle>
<path d="M348.8 346.4 354.8 346.4 M351.8 343.4 351.8 349.4" style="stroke:#0040f0;stroke-width:1;fill:none;"><title>nodraw</title></path>
</g>
<g>
<circle cx="364.3" cy="324.7" r="1" style="stroke:#0040f0;stroke-width:1;fill:#0040f0;fill-opacity:0;"><title>fortress</title></circle>
<path d="M361.3 324.7 367.3 324.7 M364.3 321.7 364.3 327.7" style="stroke:#0040f0;stroke-width:1;fill:none;"><title>nodraw</title></path>
</g>
<g>
<circle cx="325.3" cy="392.3" r="1" style="stroke:#0040f0;stroke-width:1;fill:#0040f0;fill-opacity:0;"><title>fortress</title></circle>
<path d="M322.3 392.3 328.3 392.3 M325.3 389.3 325.3 395.3" style="stroke:#0040f0;stroke-width:1;fill:none;"><title>nodraw</title></path>
</g>
<g>
<circle cx="339.3" cy="368" r="1" style="stroke:#0040f0;stroke-width:1;fill:#0040f0;fill-opacity:0;"><title>fortress</title></circle>
<path d="M336.3 368 342.3 368 M339.3 365 339.3 371" style="stroke:#0040f0;stroke-width:1;fill:none;"><title>nodraw</title></path>
</g>
<g>
<circle cx="378.3" cy="300.5" r="1" style="stroke:#0040f0;stroke-width:1;fill:#0040f0;fill-opacity:0;"><title>fortress</title></circle>
<path d="M375.3 300.5 381.3 300.5 M378.3 297.5 378.3 303.5" style="stroke:#0040f0;stroke-width:1;fill:none;"><title>nodraw</title></path>
</g>
<g>
<circle cx="352.3" cy="227.4" r="1" style="stroke:#0040f0;stroke-width:1;fill:#0040f0;fill-opacity:0;"><title>fortress</title></circle>
<path d="M349.3 227.4 355.3 227.4 M352.3 224.4 352.3 230.4" style="stroke:#0040f0;stroke-width:1;fill:none;"><title>nodraw</title></path>
</g>
<g>
<circle cx="339.8" cy="205.7" r="1" style="stroke:#0040f0;stroke-width:1;fill:#0040f0;fill-opacity:0;"><title>fortress</title></circle>
<path d="M336.8 205.7 342.8 205.7 M339.8 202.7 339.8 208.7" style="stroke:#0040f0;stroke-width:1;fill:none;"><title>nodraw</title></path>
</g>
<g>
<circle cx="378.8" cy="273.3" r="1" style="stroke:#0040f0;stroke-width:1;fill:#0040f0;fill-opacity:0;"><title>fortress</title></circle>
<path d="M375.8 273.3 381.8 273.3 M378.8 270.3 378.8 276.3" style="stroke:#0040f0;stroke-width:1;fill:none;"><title>nodraw</title></path>
</g>
<g>
<circle cx="364.8" cy="249" r="1" style="stroke:#0040f0;stroke-width:1;fill:#0040f0;fill-opacity:0;"><title>fortress</title></circle>
<path d="M361.8 249 367.8 249 M364.8 246 364.8 252" style="stroke:#0040f0;stroke-width:1;fill:none;"><title>nodraw</title></path>
</g>
<g>
<circle cx="325.8" cy="181.5" r="1" style="stroke:#0040f0;stroke-width:1;fill:#0040f0;fill-opacity:0;"><title>fortress</title></circle>
<path d="M322.8 181.5 328.8 181.5 M325.8 178.5 325.8 184.5" style="stroke:#0040f0;stroke-width:1;fill:none;"><title>nodraw</title></path>
</g>
<g>
<circle cx="146.2" cy="346.4" r="1" style="stroke:#0040f0;stroke-width:1;fill:#0040f0;fill-opacity:0;"><title>fortress</title></circle>
<path d="M143.2 346.4 149.2 346.4 M146.2 343.4 146.2 349.4" style="stroke:#0040f0;stroke-width:1;fill:none;"><title>nodraw</title></path>
</g>
<g>
<circle cx="133.7" cy="324.7" r="1" style="stroke:#0040f0;stroke-width:1;fill:#0040f0;fill-opacity:0;"><title>fortress</title></circle>
<path d="M130.7 324.7 136.7 324.7 M133.7 321.7 133.7 327.7" style="stroke:#0040f0;stroke-width:1;fill:none;"><title>nodraw</title></path>
</g>
<g>
<circle cx="172.7" cy="392.3" r="1" style="stroke:#0040f0;stroke-width:1;fill:#0040f0;fill-opacity:0;"><title>fortress</title></circle>
<path d="M169.7 392.3 175.7 392.3 M172.7 389.3 172.7 395.3" style="stroke:#0040f0;stroke-width:1;fill:none;"><title>nodraw</title></path>
</g>
<g>
<circle cx="158.7" cy="368" r="1" style="stroke:#0040f0;stroke-width:1;fill:#0040f0;fill-opacity:0;"><title>fortress</title></circle>
<path d="M155.7 368 161.7 368 M158.7 365 158.7 371" style="stroke:#0040f0;stroke-width:1;fill:none;"><title>nodraw</title></path>
</g>
<g>
<circle cx="119.7" cy="300.5" r="1" style="stroke:#0040f0;stroke-width:1;fill:#0040f0;fill-opacity:0;"><title>fortress</title></circle>
<path d="M116.7 300.5 122.7 300.5 M119.7 297.5 119.7 303.5" style="stroke:#0040f0;stroke-width:1;fill:none;"><title>nodraw</title></path>
</g>
<path d="M304 382 194 382 139 287 194 192 304 192 359 287 Z" style="stroke:#000000;stroke-width:1;fill:none;"/>
<path d="M331.5 429.5 166.5 429.5 84 287 166.5 144.5 331.5 144.5 414 287 Z" style="stroke:#000000;stroke-width:1;fill:none;"/>
<path d="M2 143 2 145 0 145 0 143 Z" style="stroke:#000000;stroke-width:1;fill:none;"><title>100</title></path>
<path d="M250 0 250 2 248 2 248 0 Z" style="stroke:#000000;stroke-width:1;fill:none;"><title>100</title></path>
<path d="M250 572 250 574 248 574 248 572 Z" style="stroke:#000000;stroke-width:1;fill:none;"><title>100</title></path>
<path d="M498 143 498 145 496 145 496 143 Z" style="stroke:#000000;stroke-width:1;fill:none;"><title>100</title></path>
<path d="M2 431 2 429 0 429 0 431 Z" style="stroke:#000000;stroke-width:1;fill:none;"><title>100</title></path>
<path d="M498 431 498 429 496 429 496 431 Z" style="stroke:#000000;stroke-width:1;fill:none;"><title>100</title></path>
<path d="M241 285 241 289 242 288 243 289 243 285" style="stroke:#000000;stroke-width:1;fill:none;"><title>0.01</title></path>
<path d="M244 285 244 289" style="stroke:#000000;stroke-width:1;fill:none;"><title>0.01</title></path>
<path d="M245 285 245 289" style="stroke:#000000;stroke-width:1;fill:none;"><title>0.01</title></path>
<path d="M247 285 245 287 247 289" style="stroke:#000000;stroke-width:1;fill:none;"><title>0.01</title></path>
<path d="M249 286 250 285 251 286 251 287 249 289 251 289" style="stroke:#000000;stroke-width:1;fill:none;"><title>0.01</title></path>
<path d="M253 285 254 286 254 288 253 289 252 288 252 286 Z" style="stroke:#000000;stroke-width:1;fill:none;"><title>0.01</title></path>
<path d="M255 285 255 289" style="stroke:#000000;stroke-width:1;fill:none;"><title>0.01</title></path>
<path d="M257 285 256 288 258 288" style="stroke:#000000;stroke-width:1;fill:none;"><title>0.01</title></path>
<path d="M257 287 257 289" style="stroke:#000000;stroke-width:1;fill:none;"><title>0.01</title></path>
<g>
<circle cx="189" cy="392" r="2" style="stroke:#ff8000;stroke-width:1;fill:#ff8000;"><title>nodraw</title></circle>
<path d="M189 392 194 392 194 389 197 392 194 395 194 392" style="stroke:#ff8000;stroke-width:1;fill:#ff8000;" transform="rotate(0,189,392)"><title>spawn</title></path>
</g>
<g>
<circle cx="309" cy="182" r="2" style="stroke:#ff8000;stroke-width:1;fill:#ff8000;"><title>nodraw</title></circle>
<path d="M309 182 314 182 314 179 317 182 314 185 314 182" style="stroke:#ff8000;stroke-width:1;fill:#ff8000;" transform="rotate(180,309,182)"><title>spawn</title></path>
</g>
</svg>