<?xml version="1.0"?>
<!DOCTYPE svg PUBLIC "-//W3C//DTD SVG 1.1//EN" "http://www.w3.org/Graphics/SVG/1.1/DTD/svg11.dtd">
<svg version="1.1" xmlns="http://www.w3.org/2000/svg" width="615" height="730">
<g>
<circle cx="215" cy="670" r="40" style="stroke:#0040f0;stroke-width:1;fill:#0040f0;fill-opacity:0;"><title>fortress</title></circle>
<path d="M212 670 218 670 M215 667 215 673" style="stroke:#0040f0;stroke-width:1;fill:none;"><title>nodraw</title></path>
</g>
<g>
<circle cx="175" cy="670" r="20" style="stroke:#0040f0;stroke-width:1;fill:#0040f0;fill-opacity:0;"><title>fortress</title></circle>
<path d="M172 670 178 670 M175 667 175 673" style="stroke:#0040f0;stroke-width:1;fill:none;"><title>nodraw</title></path>
</g>
<g>
<circle cx="255" cy="670" r="20" style="stroke:#0040f0;stroke-width:1;fill:#0040f0;fill-opacity:0;"><title>fortress</title></circle>
<path d="M252 670 258 670 M255 667 255 673" style="stroke:#0040f0;stroke-width:1;fill:none;"><title>nodraw</title></path>
</g>
<g>
<circle cx="215" cy="60" r="40" style="stroke:#0040f0;stroke-width:1;fill:#0040f0;fill-opacity:0;"><title>fortress</title></circle>
<path d="M212 60 218 60 M215 57 215 63" style="stroke:#0040f0;stroke-width:1;fill:none;"><title>nodraw</title></path>
</g>
<g>
<circle cx="175" cy="60" r="20" style="stroke:#0040f0;stroke-width:1;fill:#0040f0;fill-opacity:0;"><title>fortress</title></circle>
<path d="M172 60 178 60 M175 57 175 63" style="stroke:#0040f0;stroke-width:1;fill:none;"><title>nodraw</title></path>
</g>
<g>
<circle cx="255" cy="60" r="20" style="stroke:#0040f0;stroke-width:1;fill:#0040f0;fill-opacity:0;"><title>fortress</title></circle>
<path d="M252 60 258 60 M255 57 255 63" style="stroke:#0040f0;stroke-width:1;fill:none;"><title>nodraw</title></path>
</g>
<path d="M615 365 395 585 435 625 330 730 100 730 0 630 265 365 0 100 100 0 330 0 435 105 395 145 Z" style="stroke:#000000;stroke-width:1;fill:none;"/>
<path d="M490 260 445 215 400 260 445 305 Z" style="stroke:#000000;stroke-width:1;fill:none;"/>
<path d="M265 475 245 455 195 455 145 505 190 550 Z" style="stroke:#000000;stroke-width:1;fill:none;"/>
<path d="M205 555 245 555 295 505 275 485 Z" style="stroke:#000000;stroke-width:1;fill:none;"/>
<path d="M315 555 335 575 385 575 435 525 390 480 Z" style="stroke:#000000;stroke-width:1;fill:none;"/>
<path d="M375 475 335 475 285 525 305 545 Z" style="stroke:#000000;stroke-width:1;fill:none;"/>
<path d="M265 255 245 275 195 275 145 225 190 180 Z" style="stroke:#000000;stroke-width:1;fill:none;"/>
<path d="M205 175 245 175 295 225 275 245 Z" style="stroke:#000000;stroke-width:1;fill:none;"/>
<path d="M315 175 335 155 385 155 435 205 390 250 Z" style="stroke:#000000;stroke-width:1;fill:none;"/>
<path d="M375 255 335 255 285 205 305 185 Z" style="stroke:#000000;stroke-width:1;fill:none;"/>
<path d="M490 470 445 425 400 470 445 515 Z" style="stroke:#000000;stroke-width:1;fill:none;"/>
<path d="M595 365 550 320 505 365 550 410 Z" style="stroke:#000000;stroke-width:1;fill:none;"/>
<path d="M385 365 340 320 295 365 340 410 Z" style="stroke:#000000;stroke-width:1;fill:none;"/>
<path d="M542 361 542 365 543 364 544 365 544 361" style="stroke:#000000;stroke-width:1;fill:none;"/>
<path d="M545 361 545 365" style="stroke:#000000;stroke-width:1;fill:none;"/>
<path d="M546 361 546 365" style="stroke:#000000;stroke-width:1;fill:none;"/>
<path d="M548 361 546 363 548 365" style="stroke:#000000;stroke-width:1;fill:none;"/>
<path d="M550 362 551 361 552 362 552 363 550 365 552 365" style="stroke:#000000;stroke-width:1;fill:none;"/>
<path d="M554 361 555 362 555 364 554 365 553 364 553 362 Z" style="stroke:#000000;stroke-width:1;fill:none;"/>
<path d="M556 361 556 365" style="stroke:#000000;stroke-width:1;fill:none;"/>
<path d="M557 362 558 361 559 362 558 363 559 364 558 365 557 364" style="stroke:#000000;stroke-width:1;fill:none;"/>
<g>
<circle cx="135" cy="670" r="2" style="stroke:#ff8000;stroke-width:1;fill:#ff8000;"><title>nodraw</title></circle>
<path d="M135 670 140 670 140 667 143 670 140 673 140 670" style="stroke:#ff8000;stroke-width:1;fill:#ff8000;" transform="rotate(315,135,670)"><title>spawn</title></path>
</g>
<g>
<circle cx="135" cy="60" r="2" style="stroke:#ff8000;stroke-width:1;fill:#ff8000;"><title>nodraw</title></circle>
<path d="M135 60 140 60 140 57 143 60 140 63 140 60" style="stroke:#ff8000;stroke-width:1;fill:#ff8000;" transform="rotate(45,135,60)"><title>spawn</title></path>
</g>
</svg>