<?xml version="1.0"?>
<!DOCTYPE svg PUBLIC "-//W3C//DTD SVG 1.1//EN" "http://www.w3.org/Graphics/SVG/1.1/DTD/svg11.dtd">
<svg version="1.1" xmlns="http://www.w3.org/2000/svg" width="1299" height="1356">
<g>
<circle cx="597" cy="800" r="280" style="stroke:#f00000;stroke-width:1;fill:#f00000;fill-opacity:0;"><title>death</title></circle>
<path d="M594 800 600 800 M597 797 597 803" style="stroke:#f00000;stroke-width:1;fill:none;"><title>nodraw</title></path>
</g>
<g>
<circle cx="367" cy="576" r="40" style="stroke:#0040f0;stroke-width:1;fill:#0040f0;fill-opacity:0;"><title>fortress</title></circle>
<path d="M364 576 370 576 M367 573 367 579" style="stroke:#0040f0;stroke-width:1;fill:none;"><title>nodraw</title></path>
</g>
<g>
<circle cx="827" cy="576" r="40" style="stroke:#0040f0;stroke-width:1;fill:#0040f0;fill-opacity:0;"><title>fortress</title></circle>
<path d="M824 576 830 576 M827 573 827 579" style="stroke:#0040f0;stroke-width:1;fill:none;"><title>nodraw</title></path>
</g>
<g>
<circle cx="562" cy="1030" r="40" style="stroke:#0040f0;stroke-width:1;fill:#0040f0;fill-opacity:0;"><title>fortress</title></circle>
<path d="M559 1030 565 1030 M562 1027 562 1033" style="stroke:#0040f0;stroke-width:1;fill:none;"><title>nodraw</title></path>
</g>
<g>
<circle cx="632" cy="1030" r="40" style="stroke:#0040f0;stroke-width:1;fill:#0040f0;fill-opacity:0;"><title>fortress</title></circle>
<path d="M629 1030 635 1030 M632 1027 632 1033" style="stroke:#0040f0;stroke-width:1;fill:none;"><title>nodraw</title></path>
</g>
<path d="M0 1356 1299 1356 1299 0 0 0 Z" style="stroke:#000000;stroke-width:1;fill:none;"><title>1</title></path>
<path d="M473 706 480.6 689.3 488.7 669.7 497.2 647.6 506 623.1 515 596.6 524.1 568.3 533.2 538.6 542.2 507.6 550.9 475.8 559.3 443.2 567.3 410.3 574.7 377.4 581.5 344.6 587.6 312.2 592.8 280.6 597 250 601.3 280.6 606.5 312.2 612.6 344.6 619.4 377.4 626.8 410.3 634.8 443.2 643.2 475.8 651.9 507.6 660.9 538.6 669.9 568.3 679 596.6 688 623.1 696.8 647.6 705.3 669.7 713.4 689.3 721 706 597 904 Z" style="stroke:#000000;stroke-width:1;fill:none;"><title>100</title></path>
<path d="M272 1106 283 1088.4 295 1071.7 308.1 1055.9 322.2 1041 337.3 1027 353.6 1014.1 371 1002.3 389.5 991.5 409.2 981.9 430.2 973.4 452.3 966.1 475.7 960 500.3 955.3 526.2 951.8 553.5 949.7 582 949 451 740 437.7 760.1 421.6 779.3 403.5 797.8 384 816 363.7 834.2 343.2 852.5 323.3 871.2 304.5 890.7 287.5 911.3 272.9 933.1 261.4 956.4 253.6 981.6 250.1 1008.9 251.6 1038.5 258.7 1070.8 Z" style="stroke:#000000;stroke-width:1;fill:none;"><title>100</title></path>
<path d="M612 949 635.7 950.3 660.3 953.9 685.9 959.1 712.4 965.3 739.5 971.9 767.2 978.4 795.3 984.1 823.8 988.4 852.5 990.7 881.2 990.5 910 987 938.6 979.8 966.9 968.2 994.8 951.6 1022.2 929.4 1049 901 1025.8 901.3 1003.2 900.6 981.3 898.8 960 895.8 939.3 891.6 919.2 886.1 899.7 879.2 880.7 870.7 862.1 860.8 844 849.1 826.3 835.8 809 820.6 792 803.5 775.4 784.4 759.1 763.3 743 740 Z" style="stroke:#000000;stroke-width:1;fill:none;"><title>100</title></path>
<path d="M590 798 590 802 591 801 592 802 592 798" style="stroke:#000000;stroke-width:1;fill:none;"><title>0.01</title></path>
<path d="M593 798 593 802" style="stroke:#000000;stroke-width:1;fill:none;"><title>0.01</title></path>
<path d="M594 798 594 802" style="stroke:#000000;stroke-width:1;fill:none;"><title>0.01</title></path>
<path d="M596 798 594 800 596 802" style="stroke:#000000;stroke-width:1;fill:none;"><title>0.01</title></path>
<path d="M598 799 599 798 600 799 600 800 598 802 600 802" style="stroke:#000000;stroke-width:1;fill:none;"><title>0.01</title></path>
<path d="M602 798 603 799 603 801 602 802 601 801 601 799 Z" style="stroke:#000000;stroke-width:1;fill:none;"><title>0.01</title></path>
<path d="M604 798 604 802" style="stroke:#000000;stroke-width:1;fill:none;"><title>0.01</title></path>
<path d="M606 798 607 799 607 801 606 802 605 801 605 799 Z" style="stroke:#000000;stroke-width:1;fill:none;"><title>0.01</title></path>
<g>
<circle cx="907" cy="800" r="2" style="stroke:#ff8000;stroke-width:1;fill:#ff8000;"><title>nodraw</title></circle>
<path d="M907 800 912 800 912 797 915 800 912 803 912 800" style="stroke:#ff8000;stroke-width:1;fill:#ff8000;" transform="rotate(270,907,800)"><title>spawn</title></path>
</g>
<g>
<circle cx="287" cy="800" r="2" style="stroke:#ff8000;stroke-width:1;fill:#ff8000;"><title>nodraw</title></circle>
<path d="M287 800 292 800 292 797 295 800 292 803 292 800" style="stroke:#ff8000;stroke-width:1;fill:#ff8000;" transform="rotate(270,287,800)"><title>spawn</title></path>
</g>
</svg>