<?xml version="1.0"?>
<!DOCTYPE svg PUBLIC "-//W3C//DTD SVG 1.1//EN" "http://www.w3.org/Graphics/SVG/1.1/DTD/svg11.dtd">
<svg version="1.1" xmlns="http://www.w3.org/2000/svg" width="1000" height="1000">
<g>
<circle cx="500" cy="500" r="30" style="stroke:#f00000;stroke-width:1;fill:#f00000;fill-opacity:0;"><title>death</title></circle>
<path d="M497 500 503 500 M500 497 500 503" style="stroke:#f00000;stroke-width:1;fill:none;"><title>nodraw</title></path>
</g>
<g>
<circle cx="0" cy="500" r="10" style="stroke:#f00000;stroke-width:1;fill:#f00000;fill-opacity:0;"><title>death</title></circle>
<path d="M-3 500 3 500 M0 497 0 503" style="stroke:#f00000;stroke-width:1;fill:none;"><title>nodraw</title></path>
</g>
<g>
<circle cx="30" cy="500" r="10" style="stroke:#f00000;stroke-width:1;fill:#f00000;fill-opacity:0;"><title>death</title></circle>
<path d="M27 500 33 500 M30 497 30 503" style="stroke:#f00000;stroke-width:1;fill:none;"><title>nodraw</title></path>
</g>
<g>
<circle cx="60" cy="500" r="10" style="stroke:#f00000;stroke-width:1;fill:#f00000;fill-opacity:0;"><title>death</title></circle>
<path d="M57 500 63 500 M60 497 60 503" style="stroke:#f00000;stroke-width:1;fill:none;"><title>nodraw</title></path>
</g>
<g>
<circle cx="90" cy="500" r="10" style="stroke:#f00000;stroke-width:1;fill:#f00000;fill-opacity:0;"><title>death</title></circle>
<path d="M87 500 93 500 M90 497 90 503" style="stroke:#f00000;stroke-width:1;fill:none;"><title>nodraw</title></path>
</g>
<g>
<circle cx="120" cy="500" r="10" style="stroke:#f00000;stroke-width:1;fill:#f00000;fill-opacity:0;"><title>death</title></circle>
<path d="M117 500 123 500 M120 497 120 503" style="stroke:#f00000;stroke-width:1;fill:none;"><title>nodraw</title></path>
</g>
<g>
<circle cx="150" cy="500" r="10" style="stroke:#f00000;stroke-width:1;fill:#f00000;fill-opacity:0;"><title>death</title></circle>
<path d="M147 500 153 500 M150 497 150 503" style="stroke:#f00000;stroke-width:1;fill:none;"><title>nodraw</title></path>
</g>
<g>
<circle cx="180" cy="500" r="10" style="stroke:#f00000;stroke-width:1;fill:#f00000;fill-opacity:0;"><title>death</title></circle>
<path d="M177 500 183 500 M180 497 180 503" style="stroke:#f00000;stroke-width:1;fill:none;"><title>nodraw</title></path>
</g>
<g>
<circle cx="210" cy="500" r="10" style="stroke:#f00000;stroke-width:1;fill:#f00000;fill-opacity:0;"><title>death</title></circle>
<path d="M207 500 213 500 M210 497 210 503" style="stroke:#f00000;stroke-width:1;fill:none;"><title>nodraw</title></path>
</g>
<g>
<circle cx="240" cy="500" r="10" style="stroke:#f00000;stroke-width:1;fill:#f00000;fill-opacity:0;"><title>death</title></circle>
<path d="M237 500 243 500 M240 497 240 503" style="stroke:#f00000;stroke-width:1;fill:none;"><title>nodraw</title></path>
</g>
<g>
<circle cx="270" cy="500" r="10" style="stroke:#f00000;stroke-width:1;fill:#f00000;fill-opacity:0;"><title>death</title></circle>
<path d="M267 500 273 500 M270 497 270 503" style="stroke:#f00000;stroke-width:1;fill:none;"><title>nodraw</title></path>
</g>
<g>
<circle cx="300" cy="500" r="10" style="stroke:#f00000;stroke-width:1;fill:#f00000;fill-opacity:0;"><title>death</title></circle>
<path d="M297 500 303 500 M300 497 300 503" style="stroke:#f00000;stroke-width:1;fill:none;"><title>nodraw</title></path>
</g>
<g>
<circle cx="330" cy="500" r="10" style="stroke:#f00000;stroke-width:1;fill:#f00000;fill-opacity:0;"><title>death</title></circle>
<path d="M327 500 333 500 M330 497 330 503" style="stroke:#f00000;stroke-width:1;fill:none;"><title>nodraw</title></path>
</g>
<g>
<circle cx="360" cy="500" r="10" style="stroke:#f00000;stroke-width:1;fill:#f00000;fill-opacity:0;"><title>death</title></circle>
<path d="M357 500 363 500 M360 497 360 503" style="stroke:#f00000;stroke-width:1;fill:none;"><title>nodraw</title></path>
</g>
<g>
<circle cx="390" cy="500" r="10" style="stroke:#f00000;stroke-width:1;fill:#f00000;fill-opacity:0;"><title>death</title></circle>
<path d="M387 500 393 500 M390 497 390 503" style="stroke:#f00000;stroke-width:1;fill:none;"><title>nodraw</title></path>
</g>
<g>
<circle cx="420" cy="500" r="10" style="stroke:#f00000;stroke-width:1;fill:#f00000;fill-opacity:0;"><title>death</title></circle>
<path d="M417 500 423 500 M420 497 420 503" style="stroke:#f00000;stroke-width:1;fill:none;"><title>nodraw</title></path>
</g>
<g>
<circle cx="450" cy="500" r="10" style="stroke:#f00000;stroke-width:1;fill:#f00000;fill-opacity:0;"><title>death</title></circle>
<path d="M447 500 453 500 M450 497 450 503" style="stroke:#f00000;stroke-width:1;fill:none;"><title>nodraw</title></path>
</g>
<g>
<circle cx="550" cy="500" r="10" style="stroke:#f00000;stroke-width:1;fill:#f00000;fill-opacity:0;"><title>death</title></circle>
<path d="M547 500 553 500 M550 497 550 503" style="stroke:#f00000;stroke-width:1;fill:none;"><title>nodraw</title></path>
</g>
<g>
<circle cx="580" cy="500" r="10" style="stroke:#f00000;stroke-width:1;fill:#f00000;fill-opacity:0;"><title>death</title></circle>
<path d="M577 500 583 500 M580 497 580 503" style="stroke:#f00000;stroke-width:1;fill:none;"><title>nodraw</title></path>
</g>
<g>
<circle cx="610" cy="500" r="10" style="stroke:#f00000;stroke-width:1;fill:#f00000;fill-opacity:0;"><title>death</title></circle>
<path d="M607 500 613 500 M610 497 610 503" style="stroke:#f00000;stroke-width:1;fill:none;"><title>nodraw</title></path>
</g>
<g>
<circle cx="640" cy="500" r="10" style="stroke:#f00000;stroke-width:1;fill:#f00000;fill-opacity:0;"><title>death</title></circle>
<path d="M637 500 643 500 M640 497 640 503" style="stroke:#f00000;stroke-width:1;fill:none;"><title>nodraw</title></path>
</g>
<g>
<circle cx="670" cy="500" r="10" style="stroke:#f00000;stroke-width:1;fill:#f00000;fill-opacity:0;"><title>death</title></circle>
<path d="M667 500 673 500 M670 497 670 503" style="stroke:#f00000;stroke-width:1;fill:none;"><title>nodraw</title></path>
</g>
<g>
<circle cx="700" cy="500" r="10" style="stroke:#f00000;stroke-width:1;fill:#f00000;fill-opacity:0;"><title>death</title></circle>
<path d="M697 500 703 500 M700 497 700 503" style="stroke:#f00000;stroke-width:1;fill:none;"><title>nodraw</title></path>
</g>
<g>
<circle cx="730" cy="500" r="10" style="stroke:#f00000;stroke-width:1;fill:#f00000;fill-opacity:0;"><title>death</title></circle>
<path d="M727 500 733 500 M730 497 730 503" style="stroke:#f00000;stroke-width:1;fill:none;"><title>nodraw</title></path>
</g>
<g>
<circle cx="760" cy="500" r="10" style="stroke:#f00000;stroke-width:1;fill:#f00000;fill-opacity:0;"><title>death</title></circle>
<path d="M757 500 763 500 M760 497 760 503" style="stroke:#f00000;stroke-width:1;fill:none;"><title>nodraw</title></path>
</g>
<g>
<circle cx="790" cy="500" r="10" style="stroke:#f00000;stroke-width:1;fill:#f00000;fill-opacity:0;"><title>death</title></circle>
<path d="M787 500 793 500 M790 497 790 503" style="stroke:#f00000;stroke-width:1;fill:none;"><title>nodraw</title></path>
</g>
<g>
<circle cx="820" cy="500" r="10" style="stroke:#f00000;stroke-width:1;fill:#f00000;fill-opacity:0;"><title>death</title></circle>
<path d="M817 500 823 500 M820 497 820 503" style="stroke:#f00000;stroke-width:1;fill:none;"><title>nodraw</title></path>
</g>
<g>
<circle cx="850" cy="500" r="10" style="stroke:#f00000;stroke-width:1;fill:#f00000;fill-opacity:0;"><title>death</title></circle>
<path d="M847 500 853 500 M850 497 850 503" style="stroke:#f00000;stroke-width:1;fill:none;"><title>nodraw</title></path>
</g>
<g>
<circle cx="880" cy="500" r="10" style="stroke:#f00000;stroke-width:1;fill:#f00000;fill-opacity:0;"><title>death</title></circle>
<path d="M877 500 883 500 M880 497 880 503" style="stroke:#f00000;stroke-width:1;fill:none;"><title>nodraw</title></path>
</g>
<g>
<circle cx="910" cy="500" r="10" style="stroke:#f00000;stroke-width:1;fill:#f00000;fill-opacity:0;"><title>death</title></circle>
<path d="M907 500 913 500 M910 497 910 503" style="stroke:#f00000;stroke-width:1;fill:none;"><title>nodraw</title></path>
</g>
<g>
<circle cx="940" cy="500" r="10" style="stroke:#f00000;stroke-width:1;fill:#f00000;fill-opacity:0;"><title>death</title></circle>
<path d="M937 500 943 500 M940 497 940 503" style="stroke:#f00000;stroke-width:1;fill:none;"><title>nodraw</title></path>
</g>
<g>
<circle cx="970" cy="500" r="10" style="stroke:#f00000;stroke-width:1;fill:#f00000;fill-opacity:0;"><title>death</title></circle>
<path d="M967 500 973 500 M970 497 970 503" style="stroke:#f00000;stroke-width:1;fill:none;"><title>nodraw</title></path>
</g>
<g>
<circle cx="1000" cy="500" r="10" style="stroke:#f00000;stroke-width:1;fill:#f00000;fill-opacity:0;"><title>death</title></circle>
<path d="M997 500 1003 500 M1000 497 1000 503" style="stroke:#f00000;stroke-width:1;fill:none;"><title>nodraw</title></path>
</g>
<g>
<circle cx="500" cy="1000" r="10" style="stroke:#f00000;stroke-width:1;fill:#f00000;fill-opacity:0;"><title>death</title></circle>
<path d="M497 1000 503 1000 M500 997 500 1003" style="stroke:#f00000;stroke-width:1;fill:none;"><title>nodraw</title></path>
</g>
<g>
<circle cx="500" cy="970" r="10" style="stroke:#f00000;stroke-width:1;fill:#f00000;fill-opacity:0;"><title>death</title></circle>
<path d="M497 970 503 970 M500 967 500 973" style="stroke:#f00000;stroke-width:1;fill:none;"><title>nodraw</title></path>
</g>
<g>
<circle cx="500" cy="940" r="10" style="stroke:#f00000;stroke-width:1;fill:#f00000;fill-opacity:0;"><title>death</title></circle>
<path d="M497 940 503 940 M500 937 500 943" style="stroke:#f00000;stroke-width:1;fill:none;"><title>nodraw</title></path>
</g>
<g>
<circle cx="500" cy="910" r="10" style="stroke:#f00000;stroke-width:1;fill:#f00000;fill-opacity:0;"><title>death</title></circle>
<path d="M497 910 503 910 M500 907 500 913" style="stroke:#f00000;stroke-width:1;fill:none;"><title>nodraw</title></path>
</g>
<g>
<circle cx="500" cy="880" r="10" style="stroke:#f00000;stroke-width:1;fill:#f00000;fill-opacity:0;"><title>death</title></circle>
<path d="M497 880 503 880 M500 877 500 883" style="stroke:#f00000;stroke-width:1;fill:none;"><title>nodraw</title></path>
</g>
<g>
<circle cx="500" cy="850" r="10" style="stroke:#f00000;stroke-width:1;fill:#f00000;fill-opacity:0;"><title>death</title></circle>
<path d="M497 850 503 850 M500 847 500 853" style="stroke:#f00000;stroke-width:1;fill:none;"><title>nodraw</title></path>
</g>
<g>
<circle cx="500" cy="820" r="10" style="stroke:#f00000;stroke-width:1;fill:#f00000;fill-opacity:0;"><title>death</title></circle>
<path d="M497 820 503 820 M500 817 500 823" style="stroke:#f00000;stroke-width:1;fill:none;"><title>nodraw</title></path>
</g>
<g>
<circle cx="500" cy="790" r="10" style="stroke:#f00000;stroke-width:1;fill:#f00000;fill-opacity:0;"><title>death</title></circle>
<path d="M497 790 503 790 M500 787 500 793" style="stroke:#f00000;stroke-width:1;fill:none;"><title>nodraw</title></path>
</g>
<g>
<circle cx="500" cy="760" r="10" style="stroke:#f00000;stroke-width:1;fill:#f00000;fill-opacity:0;"><title>death</title></circle>
<path d="M497 760 503 760 M500 757 500 763" style="stroke:#f00000;stroke-width:1;fill:none;"><title>nodraw</title></path>
</g>
<g>
<circle cx="500" cy="730" r="10" style="stroke:#f00000;stroke-width:1;fill:#f00000;fill-opacity:0;"><title>death</title></circle>
<path d="M497 730 503 730 M500 727 500 733" style="stroke:#f00000;stroke-width:1;fill:none;"><title>nodraw</title></path>
</g>
<g>
<circle cx="500" cy="700" r="10" style="stroke:#f00000;stroke-width:1;fill:#f00000;fill-opacity:0;"><title>death</title></circle>
<path d="M497 700 503 700 M500 697 500 703" style="stroke:#f00000;stroke-width:1;fill:none;"><title>nodraw</title></path>
</g>
<g>
<circle cx="500" cy="670" r="10" style="stroke:#f00000;stroke-width:1;fill:#f00000;fill-opacity:0;"><title>death</title></circle>
<path d="M497 670 503 670 M500 667 500 673" style="stroke:#f00000;stroke-width:1;fill:none;"><title>nodraw</title></path>
</g>
<g>
<circle cx="500" cy="640" r="10" style="stroke:#f00000;stroke-width:1;fill:#f00000;fill-opacity:0;"><title>death</title></circle>
<path d="M497 640 503 640 M500 637 500 643" style="stroke:#f00000;stroke-width:1;fill:none;"><title>nodraw</title></path>
</g>
<g>
<circle cx="500" cy="610" r="10" style="stroke:#f00000;stroke-width:1;fill:#f00000;fill-opacity:0;"><title>death</title></circle>
<path d="M497 610 503 610 M500 607 500 613" style="stroke:#f00000;stroke-width:1;fill:none;"><title>nodraw</title></path>
</g>
<g>
<circle cx="500" cy="580" r="10" style="stroke:#f00000;stroke-width:1;fill:#f00000;fill-opacity:0;"><title>death</title></circle>
<path d="M497 580 503 580 M500 577 500 583" style="stroke:#f00000;stroke-width:1;fill:none;"><title>nodraw</title></path>
</g>
<g>
<circle cx="500" cy="550" r="10" style="stroke:#f00000;stroke-width:1;fill:#f00000;fill-opacity:0;"><title>death</title></circle>
<path d="M497 550 503 550 M500 547 500 553" style="stroke:#f00000;stroke-width:1;fill:none;"><title>nodraw</title></path>
</g>
<g>
<circle cx="500" cy="450" r="10" style="stroke:#f00000;stroke-width:1;fill:#f00000;fill-opacity:0;"><title>death</title></circle>
<path d="M497 450 503 450 M500 447 500 453" style="stroke:#f00000;stroke-width:1;fill:none;"><title>nodraw</title></path>
</g>
<g>
<circle cx="500" cy="420" r="10" style="stroke:#f00000;stroke-width:1;fill:#f00000;fill-opacity:0;"><title>death</title></circle>
<path d="M497 420 503 420 M500 417 500 423" style="stroke:#f00000;stroke-width:1;fill:none;"><title>nodraw</title></path>
</g>
<g>
<circle cx="500" cy="390" r="10" style="stroke:#f00000;stroke-width:1;fill:#f00000;fill-opacity:0;"><title>death</title></circle>
<path d="M497 390 503 390 M500 387 500 393" style="stroke:#f00000;stroke-width:1;fill:none;"><title>nodraw</title></path>
</g>
<g>
<circle cx="500" cy="360" r="10" style="stroke:#f00000;stroke-width:1;fill:#f00000;fill-opacity:0;"><title>death</title></circle>
<path d="M497 360 503 360 M500 357 500 363" style="stroke:#f00000;stroke-width:1;fill:none;"><title>nodraw</title></path>
</g>
<g>
<circle cx="500" cy="330" r="10" style="stroke:#f00000;stroke-width:1;fill:#f00000;fill-opacity:0;"><title>death</title></circle>
<path d="M497 330 503 330 M500 327 500 333" style="stroke:#f00000;stroke-width:1;fill:none;"><title>nodraw</title></path>
</g>
<g>
<circle cx="500" cy="300" r="10" style="stroke:#f00000;stroke-width:1;fill:#f00000;fill-opacity:0;"><title>death</title></circle>
<path d="M497 300 503 300 M500 297 500 303" style="stroke:#f00000;stroke-width:1;fill:none;"><title>nodraw</title></path>
</g>
<g>
<circle cx="500" cy="270" r="10" style="stroke:#f00000;stroke-width:1;fill:#f00000;fill-opacity:0;"><title>death</title></circle>
<path d="M497 270 503 270 M500 267 500 273" style="stroke:#f00000;stroke-width:1;fill:none;"><title>nodraw</title></path>
</g>
<g>
<circle cx="500" cy="240" r="10" style="stroke:#f00000;stroke-width:1;fill:#f00000;fill-opacity:0;"><title>death</title></circle>
<path d="M497 240 503 240 M500 237 500 243" style="stroke:#f00000;stroke-width:1;fill:none;"><title>nodraw</title></path>
</g>
<g>
<circle cx="500" cy="210" r="10" style="stroke:#f00000;stroke-width:1;fill:#f00000;fill-opacity:0;"><title>death</title></circle>
<path d="M497 210 503 210 M500 207 500 213" style="stroke:#f00000;stroke-width:1;fill:none;"><title>nodraw</title></path>
</g>
<g>
<circle cx="500" cy="180" r="10" style="stroke:#f00000;stroke-width:1;fill:#f00000;fill-opacity:0;"><title>death</title></circle>
<path d="M497 180 503 180 M500 177 500 183" style="stroke:#f00000;stroke-width:1;fill:none;"><title>nodraw</title></path>
</g>
<g>
<circle cx="500" cy="150" r="10" style="stroke:#f00000;stroke-width:1;fill:#f00000;fill-opacity:0;"><title>death</title></circle>
<path d="M497 150 503 150 M500 147 500 153" style="stroke:#f00000;stroke-width:1;fill:none;"><title>nodraw</title></path>
</g>
<g>
<circle cx="500" cy="120" r="10" style="stroke:#f00000;stroke-width:1;fill:#f00000;fill-opacity:0;"><title>death</title></circle>
<path d="M497 120 503 120 M500 117 500 123" style="stroke:#f00000;stroke-width:1;fill:none;"><title>nodraw</title></path>
</g>
<g>
<circle cx="500" cy="90" r="10" style="stroke:#f00000;stroke-width:1;fill:#f00000;fill-opacity:0;"><title>death</title></circle>
<path d="M497 90 503 90 M500 87 500 93" style="stroke:#f00000;stroke-width:1;fill:none;"><title>nodraw</title></path>
</g>
<g>
<circle cx="500" cy="60" r="10" style="stroke:#f00000;stroke-width:1;fill:#f00000;fill-opacity:0;"><title>death</title></circle>
<path d="M497 60 503 60 M500 57 500 63" style="stroke:#f00000;stroke-width:1;fill:none;"><title>nodraw</title></path>
</g>
<g>
<circle cx="500" cy="30" r="10" style="stroke:#f00000;stroke-width:1;fill:#f00000;fill-opacity:0;"><title>death</title></circle>
<path d="M497 30 503 30 M500 27 500 33" style="stroke:#f00000;stroke-width:1;fill:none;"><title>nodraw</title></path>
</g>
<g>
<circle cx="500" cy="0" r="10" style="stroke:#f00000;stroke-width:1;fill:#f00000;fill-opacity:0;"><title>death</title></circle>
<path d="M497 0 503 0 M500 -3 500 3" style="stroke:#f00000;stroke-width:1;fill:none;"><title>nodraw</title></path>
</g>
<g>
<circle cx="435" cy="375" r="3" style="stroke:#0040f0;stroke-width:1;fill:#0040f0;fill-opacity:0;"><title>fortress</title></circle>
<path d="M432 375 438 375 M435 372 435 378" style="stroke:#0040f0;stroke-width:1;fill:none;"><title>nodraw</title></path>
</g>
<g>
<circle cx="435" cy="435" r="3" style="stroke:#0040f0;stroke-width:1;fill:#0040f0;fill-opacity:0;"><title>fortress</title></circle>
<path d="M432 435 438 435 M435 432 435 438" style="stroke:#0040f0;stroke-width:1;fill:none;"><title>nodraw</title></path>
</g>
<g>
<circle cx="435" cy="315" r="3" style="stroke:#0040f0;stroke-width:1;fill:#0040f0;fill-opacity:0;"><title>fortress</title></circle>
<path d="M432 315 438 315 M435 312 435 318" style="stroke:#0040f0;stroke-width:1;fill:none;"><title>nodraw</title></path>
</g>
<g>
<circle cx="435" cy="255" r="3" style="stroke:#0040f0;stroke-width:1;fill:#0040f0;fill-opacity:0;"><title>fortress</title></circle>
<path d="M432 255 438 255 M435 252 435 258" style="stroke:#0040f0;stroke-width:1;fill:none;"><title>nodraw</title></path>
</g>
<g>
<circle cx="435" cy="195" r="3" style="stroke:#0040f0;stroke-width:1;fill:#0040f0;fill-opacity:0;"><title>fortress</title></circle>
<path d="M432 195 438 195 M435 192 435 198" style="stroke:#0040f0;stroke-width:1;fill:none;"><title>nodraw</title></path>
</g>
<g>
<circle cx="435" cy="135" r="3" style="stroke:#0040f0;stroke-width:1;fill:#0040f0;fill-opacity:0;"><title>fortress</title></circle>
<path d="M432 135 438 135 M435 132 435 138" style="stroke:#0040f0;stroke-width:1;fill:none;"><title>nodraw</title></path>
</g>
<g>
<circle cx="435" cy="75" r="3" style="stroke:#0040f0;stroke-width:1;fill:#0040f0;fill-opacity:0;"><title>fortress</title></circle>
<path d="M432 75 438 75 M435 72 435 78" style="stroke:#0040f0;stroke-width:1;fill:none;"><title>nodraw</title></path>
</g>
<g>
<circle cx="435" cy="15" r="3" style="stroke:#0040f0;stroke-width:1;fill:#0040f0;fill-opacity:0;"><title>fortress</title></circle>
<path d="M432 15 438 15 M435 12 435 18" style="stroke:#0040f0;stroke-width:1;fill:none;"><title>nodraw</title></path>
</g>
<g>
<circle cx="375" cy="375" r="3" style="stroke:#0040f0;stroke-width:1;fill:#0040f0;fill-opacity:0;"><title>fortress</title></circle>
<path d="M372 375 378 375 M375 372 375 378" style="stroke:#0040f0;stroke-width:1;fill:none;"><title>nodraw</title></path>
</g>
<g>
<circle cx="375" cy="435" r="3" style="stroke:#0040f0;stroke-width:1;fill:#0040f0;fill-opacity:0;"><title>fortress</title></circle>
<path d="M372 435 378 435 M375 432 375 438" style="stroke:#0040f0;stroke-width:1;fill:none;"><title>nodraw</title></path>
</g>
<g>
<circle cx="375" cy="315" r="3" style="stroke:#0040f0;stroke-width:1;fill:#0040f0;fill-opacity:0;"><title>fortress</title></circle>
<path d="M372 315 378 315 M375 312 375 318" style="stroke:#0040f0;stroke-width:1;fill:none;"><title>nodraw</title></path>
</g>
<g>
<circle cx="375" cy="255" r="3" style="stroke:#0040f0;stroke-width:1;fill:#0040f0;fill-opacity:0;"><title>fortress</title></circle>
<path d="M372 255 378 255 M375 252 375 258" style="stroke:#0040f0;stroke-width:1;fill:none;"><title>nodraw</title></path>
</g>
<g>
<circle cx="375" cy="195" r="3" style="stroke:#0040f0;stroke-width:1;fill:#0040f0;fill-opacity:0;"><title>fortress</title></circle>
<path d="M372 195 378 195 M375 192 375 198" style="stroke:#0040f0;stroke-width:1;fill:none;"><title>nodraw</title></path>
</g>
<g>
<circle cx="375" cy="135" r="3" style="stroke:#0040f0;stroke-width:1;fill:#0040f0;fill-opacity:0;"><title>fortress</title></circle>
<path d="M372 135 378 135 M375 132 375 138" style="stroke:#0040f0;stroke-width:1;fill:none;"><title>nodraw</title></path>
</g>
<g>
<circle cx="375" cy="75" r="3" style="stroke:#0040f0;stroke-width:1;fill:#0040f0;fill-opacity:0;"><title>fortress</title></circle>
<path d="M372 75 378 75 M375 72 375 78" style="stroke:#0040f0;stroke-width:1;fill:none;"><title>nodraw</title></path>
</g>
<g>
<circle cx="375" cy="15" r="3" style="stroke:#0040f0;stroke-width:1;fill:#0040f0;fill-opacity:0;"><title>fortress</title></circle>
<path d="M372 15 378 15 M375 12 375 18" style="stroke:#0040f0;stroke-width:1;fill:none;"><title>nodraw</title></path>
</g>
<g>
<circle cx="315" cy="375" r="3" style="stroke:#0040f0;stroke-width:1;fill:#0040f0;fill-opacity:0;"><title>fortress</title></circle>
<path d="M312 375 318 375 M315 372 315 378" style="stroke:#0040f0;stroke-width:1;fill:none;"><title>nodraw</title></path>
</g>
<g>
<circle cx="315" cy="435" r="3" style="stroke:#0040f0;stroke-width:1;fill:#0040f0;fill-opacity:0;"><title>fortress</title></circle>
<path d="M312 435 318 435 M315 432 315 438" style="stroke:#0040f0;stroke-width:1;fill:none;"><title>nodraw</title></path>
</g>
<g>
<circle cx="315" cy="315" r="3" style="stroke:#0040f0;stroke-width:1;fill:#0040f0;fill-opacity:0;"><title>fortress</title></circle>
<path d="M312 315 318 315 M315 312 315 318" style="stroke:#0040f0;stroke-width:1;fill:none;"><title>nodraw</title></path>
</g>
<g>
<circle cx="315" cy="255" r="3" style="stroke:#0040f0;stroke-width:1;fill:#0040f0;fill-opacity:0;"><title>fortress</title></circle>
<path d="M312 255 318 255 M315 252 315 258" style="stroke:#0040f0;stroke-width:1;fill:none;"><title>nodraw</title></path>
</g>
<g>
<circle cx="315" cy="195" r="3" style="stroke:#0040f0;stroke-width:1;fill:#0040f0;fill-opacity:0;"><title>fortress</title></circle>
<path d="M312 195 318 195 M315 192 315 198" style="stroke:#0040f0;stroke-width:1;fill:none;"><title>nodraw</title></path>
</g>
<g>
<circle cx="315" cy="135" r="3" style="stroke:#0040f0;stroke-width:1;fill:#0040f0;fill-opacity:0;"><title>fortress</title></circle>
<path d="M312 135 318 135 M315 132 315 138" style="stroke:#0040f0;stroke-width:1;fill:none;"><title>nodraw</title></path>
</g>
<g>
<circle cx="315" cy="75" r="3" style="stroke:#0040f0;stroke-width:1;fill:#0040f0;fill-opacity:0;"><title>fortress</title></circle>
<path d="M312 75 318 75 M315 72 315 78" style="stroke:#0040f0;stroke-width:1;fill:none;"><title>nodraw</title></path>
</g>
<g>
<circle cx="315" cy="15" r="3" style="stroke:#0040f0;stroke-width:1;fill:#0040f0;fill-opacity:0;"><title>fortress</title></circle>
<path d="M312 15 318 15 M315 12 315 18" style="stroke:#0040f0;stroke-width:1;fill:none;"><title>nodraw</title></path>
</g>
<g>
<circle cx="255" cy="375" r="3" style="stroke:#0040f0;stroke-width:1;fill:#0040f0;fill-opacity:0;"><title>fortress</title></circle>
<path d="M252 375 258 375 M255 372 255 378" style="stroke:#0040f0;stroke-width:1;fill:none;"><title>nodraw</title></path>
</g>
<g>
<circle cx="255" cy="435" r="3" style="stroke:#0040f0;stroke-width:1;fill:#0040f0;fill-opacity:0;"><title>fortress</title></circle>
<path d="M252 435 258 435 M255 432 255 438" style="stroke:#0040f0;stroke-width:1;fill:none;"><title>nodraw</title></path>
</g>
<g>
<circle cx="255" cy="315" r="3" style="stroke:#0040f0;stroke-width:1;fill:#0040f0;fill-opacity:0;"><title>fortress</title></circle>
<path d="M252 315 258 315 M255 312 255 318" style="stroke:#0040f0;stroke-width:1;fill:none;"><title>nodraw</title></path>
</g>
<g>
<circle cx="255" cy="255" r="3" style="stroke:#0040f0;stroke-width:1;fill:#0040f0;fill-opacity:0;"><title>fortress</title></circle>
<path d="M252 255 258 255 M255 252 255 258" style="stroke:#0040f0;stroke-width:1;fill:none;"><title>nodraw</title></path>
</g>
<g>
<circle cx="255" cy="195" r="3" style="stroke:#0040f0;stroke-width:1;fill:#0040f0;fill-opacity:0;"><title>fortress</title></circle>
<path d="M252 195 258 195 M255 192 255 198" style="stroke:#0040f0;stroke-width:1;fill:none;"><title>nodraw</title></path>
</g>
<g>
<circle cx="255" cy="135" r="3" style="stroke:#0040f0;stroke-width:1;fill:#0040f0;fill-opacity:0;"><title>fortress</title></circle>
<path d="M252 135 258 135 M255 132 255 138" style="stroke:#0040f0;stroke-width:1;fill:none;"><title>nodraw</title></path>
</g>
<g>
<circle cx="255" cy="75" r="3" style="stroke:#0040f0;stroke-width:1;fill:#0040f0;fill-opacity:0;"><title>fortress</title></circle>
<path d="M252 75 258 75 M255 72 255 78" style="stroke:#0040f0;stroke-width:1;fill:none;"><title>nodraw</title></path>
</g>
<g>
<circle cx="135" cy="195" r="3" style="stroke:#0040f0;stroke-width:1;fill:#0040f0;fill-opacity:0;"><title>fortress</title></circle>
<path d="M132 195 138 195 M135 192 135 198" style="stroke:#0040f0;stroke-width:1;fill:none;"><title>nodraw</title></path>
</g>
<g>
<circle cx="195" cy="435" r="3" style="stroke:#0040f0;stroke-width:1;fill:#0040f0;fill-opacity:0;"><title>fortress</title></circle>
<path d="M192 435 198 435 M195 432 195 438" style="stroke:#0040f0;stroke-width:1;fill:none;"><title>nodraw</title></path>
</g>
<g>
<circle cx="195" cy="375" r="3" style="stroke:#0040f0;stroke-width:1;fill:#0040f0;fill-opacity:0;"><title>fortress</title></circle>
<path d="M192 375 198 375 M195 372 195 378" style="stroke:#0040f0;stroke-width:1;fill:none;"><title>nodraw</title></path>
</g>
<g>
<circle cx="195" cy="315" r="3" style="stroke:#0040f0;stroke-width:1;fill:#0040f0;fill-opacity:0;"><title>fortress</title></circle>
<path d="M192 315 198 315 M195 312 195 318" style="stroke:#0040f0;stroke-width:1;fill:none;"><title>nodraw</title></path>
</g>
<g>
<circle cx="195" cy="255" r="3" style="stroke:#0040f0;stroke-width:1;fill:#0040f0;fill-opacity:0;"><title>fortress</title></circle>
<path d="M192 255 198 255 M195 252 195 258" style="stroke:#0040f0;stroke-width:1;fill:none;"><title>nodraw</title></path>
</g>
<g>
<circle cx="195" cy="195" r="3" style="stroke:#0040f0;stroke-width:1;fill:#0040f0;fill-opacity:0;"><title>fortress</title></circle>
<path d="M192 195 198 195 M195 192 195 198" style="stroke:#0040f0;stroke-width:1;fill:none;"><title>nodraw</title></path>
</g>
<g>
<circle cx="195" cy="135" r="3" style="stroke:#0040f0;stroke-width:1;fill:#0040f0;fill-opacity:0;"><title>fortress</title></circle>
<path d="M192 135 198 135 M195 132 195 138" style="stroke:#0040f0;stroke-width:1;fill:none;"><title>nodraw</title></path>
</g>
<g>
<circle cx="135" cy="435" r="3" style="stroke:#0040f0;stroke-width:1;fill:#0040f0;fill-opacity:0;"><title>fortress</title></circle>
<path d="M132 435 138 435 M135 432 135 438" style="stroke:#0040f0;stroke-width:1;fill:none;"><title>nodraw</title></path>
</g>
<g>
<circle cx="135" cy="375" r="3" style="stroke:#0040f0;stroke-width:1;fill:#0040f0;fill-opacity:0;"><title>fortress</title></circle>
<path d="M132 375 138 375 M135 372 135 378" style="stroke:#0040f0;stroke-width:1;fill:none;"><title>nodraw</title></path>
</g>
<g>
<circle cx="135" cy="315" r="3" style="stroke:#0040f0;stroke-width:1;fill:#0040f0;fill-opacity:0;"><title>fortress</title></circle>
<path d="M132 315 138 315 M135 312 135 318" style="stroke:#0040f0;stroke-width:1;fill:none;"><title>nodraw</title></path>
</g>
<g>
<circle cx="135" cy="255" r="3" style="stroke:#0040f0;stroke-width:1;fill:#0040f0;fill-opacity:0;"><title>fortress</title></circle>
<path d="M132 255 138 255 M135 252 135 258" style="stroke:#0040f0;stroke-width:1;fill:none;"><title>nodraw</title></path>
</g>
<g>
<circle cx="75" cy="435" r="3" style="stroke:#0040f0;stroke-width:1;fill:#0040f0;fill-opacity:0;"><title>fortress</title></circle>
<path d="M72 435 78 435 M75 432 75 438" style="stroke:#0040f0;stroke-width:1;fill:none;"><title>nodraw</title></path>
</g>
<g>
<circle cx="75" cy="375" r="3" style="stroke:#0040f0;stroke-width:1;fill:#0040f0;fill-opacity:0;"><title>fortress</title></circle>
<path d="M72 375 78 375 M75 372 75 378" style="stroke:#0040f0;stroke-width:1;fill:none;"><title>nodraw</title></path>
</g>
<g>
<circle cx="75" cy="315" r="3" style="stroke:#0040f0;stroke-width:1;fill:#0040f0;fill-opacity:0;"><title>fortress</title></circle>
<path d="M72 315 78 315 M75 312 75 318" style="stroke:#0040f0;stroke-width:1;fill:none;"><title>nodraw</title></path>
</g>
<g>
<circle cx="75" cy="255" r="3" style="stroke:#0040f0;stroke-width:1;fill:#0040f0;fill-opacity:0;"><title>fortress</title></circle>
<path d="M72 255 78 255 M75 252 75 258" style="stroke:#0040f0;stroke-width:1;fill:none;"><title>nodraw</title></path>
</g>
<g>
<circle cx="15" cy="435" r="3" style="stroke:#0040f0;stroke-width:1;fill:#0040f0;fill-opacity:0;"><title>fortress</title></circle>
<path d="M12 435 18 435 M15 432 15 438" style="stroke:#0040f0;stroke-width:1;fill:none;"><title>nodraw</title></path>
</g>
<g>
<circle cx="15" cy="375" r="3" style="stroke:#0040f0;stroke-width:1;fill:#0040f0;fill-opacity:0;"><title>fortress</title></circle>
<path d="M12 375 18 375 M15 372 15 378" style="stroke:#0040f0;stroke-width:1;fill:none;"><title>nodraw</title></path>
</g>
<g>
<circle cx="15" cy="315" r="3" style="stroke:#0040f0;stroke-width:1;fill:#0040f0;fill-opacity:0;"><title>fortress</title></circle>
<path d="M12 315 18 315 M15 312 15 318" style="stroke:#0040f0;stroke-width:1;fill:none;"><title>nodraw</title></path>
</g>
<g>
<circle cx="565" cy="625" r="3" style="stroke:#0040f0;stroke-width:1;fill:#0040f0;fill-opacity:0;"><title>fortress</title></circle>
<path d="M562 625 568 625 M565 622 565 628" style="stroke:#0040f0;stroke-width:1;fill:none;"><title>nodraw</title></path>
</g>
<g>
<circle cx="565" cy="565" r="3" style="stroke:#0040f0;stroke-width:1;fill:#0040f0;fill-opacity:0;"><title>fortress</title></circle>
<path d="M562 565 568 565 M565 562 565 568" style="stroke:#0040f0;stroke-width:1;fill:none;"><title>nodraw</title></path>
</g>
<g>
<circle cx="565" cy="685" r="3" style="stroke:#0040f0;stroke-width:1;fill:#0040f0;fill-opacity:0;"><title>fortress</title></circle>
<path d="M562 685 568 685 M565 682 565 688" style="stroke:#0040f0;stroke-width:1;fill:none;"><title>nodraw</title></path>
</g>
<g>
<circle cx="565" cy="745" r="3" style="stroke:#0040f0;stroke-width:1;fill:#0040f0;fill-opacity:0;"><title>fortress</title></circle>
<path d="M562 745 568 745 M565 742 565 748" style="stroke:#0040f0;stroke-width:1;fill:none;"><title>nodraw</title></path>
</g>
<g>
<circle cx="565" cy="805" r="3" style="stroke:#0040f0;stroke-width:1;fill:#0040f0;fill-opacity:0;"><title>fortress</title></circle>
<path d="M562 805 568 805 M565 802 565 808" style="stroke:#0040f0;stroke-width:1;fill:none;"><title>nodraw</title></path>
</g>
<g>
<circle cx="565" cy="865" r="3" style="stroke:#0040f0;stroke-width:1;fill:#0040f0;fill-opacity:0;"><title>fortress</title></circle>
<path d="M562 865 568 865 M565 862 565 868" style="stroke:#0040f0;stroke-width:1;fill:none;"><title>nodraw</title></path>
</g>
<g>
<circle cx="565" cy="925" r="3" style="stroke:#0040f0;stroke-width:1;fill:#0040f0;fill-opacity:0;"><title>fortress</title></circle>
<path d="M562 925 568 925 M565 922 565 928" style="stroke:#0040f0;stroke-width:1;fill:none;"><title>nodraw</title></path>
</g>
<g>
<circle cx="565" cy="985" r="3" style="stroke:#0040f0;stroke-width:1;fill:#0040f0;fill-opacity:0;"><title>fortress</title></circle>
<path d="M562 985 568 985 M565 982 565 988" style="stroke:#0040f0;stroke-width:1;fill:none;"><title>nodraw</title></path>
</g>
<g>
<circle cx="625" cy="625" r="3" style="stroke:#0040f0;stroke-width:1;fill:#0040f0;fill-opacity:0;"><title>fortress</title></circle>
<path d="M622 625 628 625 M625 622 625 628" style="stroke:#0040f0;stroke-width:1;fill:none;"><title>nodraw</title></path>
</g>
<g>
<circle cx="625" cy="565" r="3" style="stroke:#0040f0;stroke-width:1;fill:#0040f0;fill-opacity:0;"><title>fortress</title></circle>
<path d="M622 565 628 565 M625 562 625 568" style="stroke:#0040f0;stroke-width:1;fill:none;"><title>nodraw</title></path>
</g>
<g>
<circle cx="625" cy="685" r="3" style="stroke:#0040f0;stroke-width:1;fill:#0040f0;fill-opacity:0;"><title>fortress</title></circle>
<path d="M622 685 628 685 M625 682 625 688" style="stroke:#0040f0;stroke-width:1;fill:none;"><title>nodraw</title></path>
</g>
<g>
<circle cx="625" cy="745" r="3" style="stroke:#0040f0;stroke-width:1;fill:#0040f0;fill-opacity:0;"><title>fortress</title></circle>
<path d="M622 745 628 745 M625 742 625 748" style="stroke:#0040f0;stroke-width:1;fill:none;"><title>nodraw</title></path>
</g>
<g>
<circle cx="625" cy="805" r="3" style="stroke:#0040f0;stroke-width:1;fill:#0040f0;fill-opacity:0;"><title>fortress</title></circle>
<path d="M622 805 628 805 M625 802 625 808" style="stroke:#0040f0;stroke-width:1;fill:none;"><title>nodraw</title></path>
</g>
<g>
<circle cx="625" cy="865" r="3" style="stroke:#0040f0;stroke-width:1;fill:#0040f0;fill-opacity:0;"><title>fortress</title></circle>
<path d="M622 865 628 865 M625 862 625 868" style="stroke:#0040f0;stroke-width:1;fill:none;"><title>nodraw</title></path>
</g>
<g>
<circle cx="625" cy="925" r="3" style="stroke:#0040f0;stroke-width:1;fill:#0040f0;fill-opacity:0;"><title>fortress</title></circle>
<path d="M622 925 628 925 M625 922 625 928" style="stroke:#0040f0;stroke-width:1;fill:none;"><title>nodraw</title></path>
</g>
<g>
<circle cx="625" cy="985" r="3" style="stroke:#0040f0;stroke-width:1;fill:#0040f0;fill-opacity:0;"><title>fortress</title></circle>
<path d="M622 985 628 985 M625 982 625 988" style="stroke:#0040f0;stroke-width:1;fill:none;"><title>nodraw</title></path>
</g>
<g>
<circle cx="685" cy="625" r="3" style="stroke:#0040f0;stroke-width:1;fill:#0040f0;fill-opacity:0;"><title>fortress</title></circle>
<path d="M682 625 688 625 M685 622 685 628" style="stroke:#0040f0;stroke-width:1;fill:none;"><title>nodraw</title></path>
</g>
<g>
<circle cx="685" cy="565" r="3" style="stroke:#0040f0;stroke-width:1;fill:#0040f0;fill-opacity:0;"><title>fortress</title></circle>
<path d="M682 565 688 565 M685 562 685 568" style="stroke:#0040f0;stroke-width:1;fill:none;"><title>nodraw</title></path>
</g>
<g>
<circle cx="685" cy="685" r="3" style="stroke:#0040f0;stroke-width:1;fill:#0040f0;fill-opacity:0;"><title>fortress</title></circle>
<path d="M682 685 688 685 M685 682 685 688" style="stroke:#0040f0;stroke-width:1;fill:none;"><title>nodraw</title></path>
</g>
<g>
<circle cx="685" cy="745" r="3" style="stroke:#0040f0;stroke-width:1;fill:#0040f0;fill-opacity:0;"><title>fortress</title></circle>
<path d="M682 745 688 745 M685 742 685 748" style="stroke:#0040f0;stroke-width:1;fill:none;"><title>nodraw</title></path>
</g>
<g>
<circle cx="685" cy="805" r="3" style="stroke:#0040f0;stroke-width:1;fill:#0040f0;fill-opacity:0;"><title>fortress</title></circle>
<path d="M682 805 688 805 M685 802 685 808" style="stroke:#0040f0;stroke-width:1;fill:none;"><title>nodraw</title></path>
</g>
<g>
<circle cx="685" cy="865" r="3" style="stroke:#0040f0;stroke-width:1;fill:#0040f0;fill-opacity:0;"><title>fortress</title></circle>
<path d="M682 865 688 865 M685 862 685 868" style="stroke:#0040f0;stroke-width:1;fill:none;"><title>nodraw</title></path>
</g>
<g>
<circle cx="685" cy="925" r="3" style="stroke:#0040f0;stroke-width:1;fill:#0040f0;fill-opacity:0;"><title>fortress</title></circle>
<path d="M682 925 688 925 M685 922 685 928" style="stroke:#0040f0;stroke-width:1;fill:none;"><title>nodraw</title></path>
</g>
<g>
<circle cx="685" cy="985" r="3" style="stroke:#0040f0;stroke-width:1;fill:#0040f0;fill-opacity:0;"><title>fortress</title></circle>
<path d="M682 985 688 985 M685 982 685 988" style="stroke:#0040f0;stroke-width:1;fill:none;"><title>nodraw</title></path>
</g>
<g>
<circle cx="745" cy="625" r="3" style="stroke:#0040f0;stroke-width:1;fill:#0040f0;fill-opacity:0;"><title>fortress</title></circle>
<path d="M742 625 748 625 M745 622 745 628" style="stroke:#0040f0;stroke-width:1;fill:none;"><title>nodraw</title></path>
</g>
<g>
<circle cx="745" cy="565" r="3" style="stroke:#0040f0;stroke-width:1;fill:#0040f0;fill-opacity:0;"><title>fortress</title></circle>
<path d="M742 565 748 565 M745 562 745 568" style="stroke:#0040f0;stroke-width:1;fill:none;"><title>nodraw</title></path>
</g>
<g>
<circle cx="745" cy="685" r="3" style="stroke:#0040f0;stroke-width:1;fill:#0040f0;fill-opacity:0;"><title>fortress</title></circle>
<path d="M742 685 748 685 M745 682 745 688" style="stroke:#0040f0;stroke-width:1;fill:none;"><title>nodraw</title></path>
</g>
<g>
<circle cx="745" cy="745" r="3" style="stroke:#0040f0;stroke-width:1;fill:#0040f0;fill-opacity:0;"><title>fortress</title></circle>
<path d="M742 745 748 745 M745 742 745 748" style="stroke:#0040f0;stroke-width:1;fill:none;"><title>nodraw</title></path>
</g>
<g>
<circle cx="745" cy="805" r="3" style="stroke:#0040f0;stroke-width:1;fill:#0040f0;fill-opacity:0;"><title>fortress</title></circle>
<path d="M742 805 748 805 M745 802 745 808" style="stroke:#0040f0;stroke-width:1;fill:none;"><title>nodraw</title></path>
</g>
<g>
<circle cx="745" cy="865" r="3" style="stroke:#0040f0;stroke-width:1;fill:#0040f0;fill-opacity:0;"><title>fortress</title></circle>
<path d="M742 865 748 865 M745 862 745 868" style="stroke:#0040f0;stroke-width:1;fill:none;"><title>nodraw</title></path>
</g>
<g>
<circle cx="745" cy="925" r="3" style="stroke:#0040f0;stroke-width:1;fill:#0040f0;fill-opacity:0;"><title>fortress</title></circle>
<path d="M742 925 748 925 M745 922 745 928" style="stroke:#0040f0;stroke-width:1;fill:none;"><title>nodraw</title></path>
</g>
<g>
<circle cx="865" cy="805" r="3" style="stroke:#0040f0;stroke-width:1;fill:#0040f0;fill-opacity:0;"><title>fortress</title></circle>
<path d="M862 805 868 805 M865 802 865 808" style="stroke:#0040f0;stroke-width:1;fill:none;"><title>nodraw</title></path>
</g>
<g>
<circle cx="805" cy="565" r="3" style="stroke:#0040f0;stroke-width:1;fill:#0040f0;fill-opacity:0;"><title>fortress</title></circle>
<path d="M802 565 808 565 M805 562 805 568" style="stroke:#0040f0;stroke-width:1;fill:none;"><title>nodraw</title></path>
</g>
<g>
<circle cx="805" cy="625" r="3" style="stroke:#0040f0;stroke-width:1;fill:#0040f0;fill-opacity:0;"><title>fortress</title></circle>
<path d="M802 625 808 625 M805 622 805 628" style="stroke:#0040f0;stroke-width:1;fill:none;"><title>nodraw</title></path>
</g>
<g>
<circle cx="805" cy="685" r="3" style="stroke:#0040f0;stroke-width:1;fill:#0040f0;fill-opacity:0;"><title>fortress</title></circle>
<path d="M802 685 808 685 M805 682 805 688" style="stroke:#0040f0;stroke-width:1;fill:none;"><title>nodraw</title></path>
</g>
<g>
<circle cx="805" cy="745" r="3" style="stroke:#0040f0;stroke-width:1;fill:#0040f0;fill-opacity:0;"><title>fortress</title></circle>
<path d="M802 745 808 745 M805 742 805 748" style="stroke:#0040f0;stroke-width:1;fill:none;"><title>nodraw</title></path>
</g>
<g>
<circle cx="805" cy="805" r="3" style="stroke:#0040f0;stroke-width:1;fill:#0040f0;fill-opacity:0;"><title>fortress</title></circle>
<path d="M802 805 808 805 M805 802 805 808" style="stroke:#0040f0;stroke-width:1;fill:none;"><title>nodraw</title></path>
</g>
<g>
<circle cx="805" cy="865" r="3" style="stroke:#0040f0;stroke-width:1;fill:#0040f0;fill-opacity:0;"><title>fortress</title></circle>
<path d="M802 865 808 865 M805 862 805 868" style="stroke:#0040f0;stroke-width:1;fill:none;"><title>nodraw</title></path>
</g>
<g>
<circle cx="865" cy="565" r="3" style="stroke:#0040f0;stroke-width:1;fill:#0040f0;fill-opacity:0;"><title>fortress</title></circle>
<path d="M862 565 868 565 M865 562 865 568" style="stroke:#0040f0;stroke-width:1;fill:none;"><title>nodraw</title></path>
</g>
<g>
<circle cx="865" cy="625" r="3" style="stroke:#0040f0;stroke-width:1;fill:#0040f0;fill-opacity:0;"><title>fortress</title></circle>
<path d="M862 625 868 625 M865 622 865 628" style="stroke:#0040f0;stroke-width:1;fill:none;"><title>nodraw</title></path>
</g>
<g>
<circle cx="865" cy="685" r="3" style="stroke:#0040f0;stroke-width:1;fill:#0040f0;fill-opacity:0;"><title>fortress</title></circle>
<path d="M862 685 868 685 M865 682 865 688" style="stroke:#0040f0;stroke-width:1;fill:none;"><title>nodraw</title></path>
</g>
<g>
<circle cx="865" cy="745" r="3" style="stroke:#0040f0;stroke-width:1;fill:#0040f0;fill-opacity:0;"><title>fortress</title></circle>
<path d="M862 745 868 745 M865 742 865 748" style="stroke:#0040f0;stroke-width:1;fill:none;"><title>nodraw</title></path>
</g>
<g>
<circle cx="925" cy="565" r="3" style="stroke:#0040f0;stroke-width:1;fill:#0040f0;fill-opacity:0;"><title>fortress</title></circle>
<path d="M922 565 928 565 M925 562 925 568" style="stroke:#0040f0;stroke-width:1;fill:none;"><title>nodraw</title></path>
</g>
<g>
<circle cx="925" cy="625" r="3" style="stroke:#0040f0;stroke-width:1;fill:#0040f0;fill-opacity:0;"><title>fortress</title></circle>
<path d="M922 625 928 625 M925 622 925 628" style="stroke:#0040f0;stroke-width:1;fill:none;"><title>nodraw</title></path>
</g>
<g>
<circle cx="925" cy="685" r="3" style="stroke:#0040f0;stroke-width:1;fill:#0040f0;fill-opacity:0;"><title>fortress</title></circle>
<path d="M922 685 928 685 M925 682 925 688" style="stroke:#0040f0;stroke-width:1;fill:none;"><title>nodraw</title></path>
</g>
<g>
<circle cx="925" cy="745" r="3" style="stroke:#0040f0;stroke-width:1;fill:#0040f0;fill-opacity:0;"><title>fortress</title></circle>
<path d="M922 745 928 745 M925 742 925 748" style="stroke:#0040f0;stroke-width:1;fill:none;"><title>nodraw</title></path>
</g>
<g>
<circle cx="985" cy="565" r="3" style="stroke:#0040f0;stroke-width:1;fill:#0040f0;fill-opacity:0;"><title>fortress</title></circle>
<path d="M982 565 988 565 M985 562 985 568" style="stroke:#0040f0;stroke-width:1;fill:none;"><title>nodraw</title></path>
</g>
<g>
<circle cx="985" cy="625" r="3" style="stroke:#0040f0;stroke-width:1;fill:#0040f0;fill-opacity:0;"><title>fortress</title></circle>
<path d="M982 625 988 625 M985 622 985 628" style="stroke:#0040f0;stroke-width:1;fill:none;"><title>nodraw</title></path>
</g>
<g>
<circle cx="985" cy="685" r="3" style="stroke:#0040f0;stroke-width:1;fill:#0040f0;fill-opacity:0;"><title>fortress</title></circle>
<path d="M982 685 988 685 M985 682 985 688" style="stroke:#0040f0;stroke-width:1;fill:none;"><title>nodraw</title></path>
</g>
<g>
<circle cx="565" cy="375" r="3" style="stroke:#0040f0;stroke-width:1;fill:#0040f0;fill-opacity:0;"><title>fortress</title></circle>
<path d="M562 375 568 375 M565 372 565 378" style="stroke:#0040f0;stroke-width:1;fill:none;"><title>nodraw</title></path>
</g>
<g>
<circle cx="565" cy="315" r="3" style="stroke:#0040f0;stroke-width:1;fill:#0040f0;fill-opacity:0;"><title>fortress</title></circle>
<path d="M562 315 568 315 M565 312 565 318" style="stroke:#0040f0;stroke-width:1;fill:none;"><title>nodraw</title></path>
</g>
<g>
<circle cx="565" cy="255" r="3" style="stroke:#0040f0;stroke-width:1;fill:#0040f0;fill-opacity:0;"><title>fortress</title></circle>
<path d="M562 255 568 255 M565 252 565 258" style="stroke:#0040f0;stroke-width:1;fill:none;"><title>nodraw</title></path>
</g>
<g>
<circle cx="565" cy="195" r="3" style="stroke:#0040f0;stroke-width:1;fill:#0040f0;fill-opacity:0;"><title>fortress</title></circle>
<path d="M562 195 568 195 M565 192 565 198" style="stroke:#0040f0;stroke-width:1;fill:none;"><title>nodraw</title></path>
</g>
<g>
<circle cx="565" cy="135" r="3" style="stroke:#0040f0;stroke-width:1;fill:#0040f0;fill-opacity:0;"><title>fortress</title></circle>
<path d="M562 135 568 135 M565 132 565 138" style="stroke:#0040f0;stroke-width:1;fill:none;"><title>nodraw</title></path>
</g>
<g>
<circle cx="565" cy="75" r="3" style="stroke:#0040f0;stroke-width:1;fill:#0040f0;fill-opacity:0;"><title>fortress</title></circle>
<path d="M562 75 568 75 M565 72 565 78" style="stroke:#0040f0;stroke-width:1;fill:none;"><title>nodraw</title></path>
</g>
<g>
<circle cx="565" cy="15" r="3" style="stroke:#0040f0;stroke-width:1;fill:#0040f0;fill-opacity:0;"><title>fortress</title></circle>
<path d="M562 15 568 15 M565 12 565 18" style="stroke:#0040f0;stroke-width:1;fill:none;"><title>nodraw</title></path>
</g>
<g>
<circle cx="625" cy="435" r="3" style="stroke:#0040f0;stroke-width:1;fill:#0040f0;fill-opacity:0;"><title>fortress</title></circle>
<path d="M622 435 628 435 M625 432 625 438" style="stroke:#0040f0;stroke-width:1;fill:none;"><title>nodraw</title></path>
</g>
<g>
<circle cx="625" cy="315" r="3" style="stroke:#0040f0;stroke-width:1;fill:#0040f0;fill-opacity:0;"><title>fortress</title></circle>
<path d="M622 315 628 315 M625 312 625 318" style="stroke:#0040f0;stroke-width:1;fill:none;"><title>nodraw</title></path>
</g>
<g>
<circle cx="625" cy="255" r="3" style="stroke:#0040f0;stroke-width:1;fill:#0040f0;fill-opacity:0;"><title>fortress</title></circle>
<path d="M622 255 628 255 M625 252 625 258" style="stroke:#0040f0;stroke-width:1;fill:none;"><title>nodraw</title></path>
</g>
<g>
<circle cx="625" cy="195" r="3" style="stroke:#0040f0;stroke-width:1;fill:#0040f0;fill-opacity:0;"><title>fortress</title></circle>
<path d="M622 195 628 195 M625 192 625 198" style="stroke:#0040f0;stroke-width:1;fill:none;"><title>nodraw</title></path>
</g>
<g>
<circle cx="625" cy="135" r="3" style="stroke:#0040f0;stroke-width:1;fill:#0040f0;fill-opacity:0;"><title>fortress</title></circle>
<path d="M622 135 628 135 M625 132 625 138" style="stroke:#0040f0;stroke-width:1;fill:none;"><title>nodraw</title></path>
</g>
<g>
<circle cx="625" cy="75" r="3" style="stroke:#0040f0;stroke-width:1;fill:#0040f0;fill-opacity:0;"><title>fortress</title></circle>
<path d="M622 75 628 75 M625 72 625 78" style="stroke:#0040f0;stroke-width:1;fill:none;"><title>nodraw</title></path>
</g>
<g>
<circle cx="625" cy="15" r="3" style="stroke:#0040f0;stroke-width:1;fill:#0040f0;fill-opacity:0;"><title>fortress</title></circle>
<path d="M622 15 628 15 M625 12 625 18" style="stroke:#0040f0;stroke-width:1;fill:none;"><title>nodraw</title></path>
</g>
<g>
<circle cx="685" cy="375" r="3" style="stroke:#0040f0;stroke-width:1;fill:#0040f0;fill-opacity:0;"><title>fortress</title></circle>
<path d="M682 375 688 375 M685 372 685 378" style="stroke:#0040f0;stroke-width:1;fill:none;"><title>nodraw</title></path>
</g>
<g>
<circle cx="685" cy="435" r="3" style="stroke:#0040f0;stroke-width:1;fill:#0040f0;fill-opacity:0;"><title>fortress</title></circle>
<path d="M682 435 688 435 M685 432 685 438" style="stroke:#0040f0;stroke-width:1;fill:none;"><title>nodraw</title></path>
</g>
<g>
<circle cx="685" cy="255" r="3" style="stroke:#0040f0;stroke-width:1;fill:#0040f0;fill-opacity:0;"><title>fortress</title></circle>
<path d="M682 255 688 255 M685 252 685 258" style="stroke:#0040f0;stroke-width:1;fill:none;"><title>nodraw</title></path>
</g>
<g>
<circle cx="685" cy="195" r="3" style="stroke:#0040f0;stroke-width:1;fill:#0040f0;fill-opacity:0;"><title>fortress</title></circle>
<path d="M682 195 688 195 M685 192 685 198" style="stroke:#0040f0;stroke-width:1;fill:none;"><title>nodraw</title></path>
</g>
<g>
<circle cx="685" cy="135" r="3" style="stroke:#0040f0;stroke-width:1;fill:#0040f0;fill-opacity:0;"><title>fortress</title></circle>
<path d="M682 135 688 135 M685 132 685 138" style="stroke:#0040f0;stroke-width:1;fill:none;"><title>nodraw</title></path>
</g>
<g>
<circle cx="685" cy="75" r="3" style="stroke:#0040f0;stroke-width:1;fill:#0040f0;fill-opacity:0;"><title>fortress</title></circle>
<path d="M682 75 688 75 M685 72 685 78" style="stroke:#0040f0;stroke-width:1;fill:none;"><title>nodraw</title></path>
</g>
<g>
<circle cx="685" cy="15" r="3" style="stroke:#0040f0;stroke-width:1;fill:#0040f0;fill-opacity:0;"><title>fortress</title></circle>
<path d="M682 15 688 15 M685 12 685 18" style="stroke:#0040f0;stroke-width:1;fill:none;"><title>nodraw</title></path>
</g>
<g>
<circle cx="745" cy="375" r="3" style="stroke:#0040f0;stroke-width:1;fill:#0040f0;fill-opacity:0;"><title>fortress</title></circle>
<path d="M742 375 748 375 M745 372 745 378" style="stroke:#0040f0;stroke-width:1;fill:none;"><title>nodraw</title></path>
</g>
<g>
<circle cx="745" cy="435" r="3" style="stroke:#0040f0;stroke-width:1;fill:#0040f0;fill-opacity:0;"><title>fortress</title></circle>
<path d="M742 435 748 435 M745 432 745 438" style="stroke:#0040f0;stroke-width:1;fill:none;"><title>nodraw</title></path>
</g>
<g>
<circle cx="745" cy="315" r="3" style="stroke:#0040f0;stroke-width:1;fill:#0040f0;fill-opacity:0;"><title>fortress</title></circle>
<path d="M742 315 748 315 M745 312 745 318" style="stroke:#0040f0;stroke-width:1;fill:none;"><title>nodraw</title></path>
</g>
<g>
<circle cx="745" cy="195" r="3" style="stroke:#0040f0;stroke-width:1;fill:#0040f0;fill-opacity:0;"><title>fortress</title></circle>
<path d="M742 195 748 195 M745 192 745 198" style="stroke:#0040f0;stroke-width:1;fill:none;"><title>nodraw</title></path>
</g>
<g>
<circle cx="745" cy="135" r="3" style="stroke:#0040f0;stroke-width:1;fill:#0040f0;fill-opacity:0;"><title>fortress</title></circle>
<path d="M742 135 748 135 M745 132 745 138" style="stroke:#0040f0;stroke-width:1;fill:none;"><title>nodraw</title></path>
</g>
<g>
<circle cx="745" cy="75" r="3" style="stroke:#0040f0;stroke-width:1;fill:#0040f0;fill-opacity:0;"><title>fortress</title></circle>
<path d="M742 75 748 75 M745 72 745 78" style="stroke:#0040f0;stroke-width:1;fill:none;"><title>nodraw</title></path>
</g>
<g>
<circle cx="865" cy="195" r="3" style="stroke:#0040f0;stroke-width:1;fill:#0040f0;fill-opacity:0;"><title>fortress</title></circle>
<path d="M862 195 868 195 M865 192 865 198" style="stroke:#0040f0;stroke-width:1;fill:none;"><title>nodraw</title></path>
</g>
<g>
<circle cx="805" cy="435" r="3" style="stroke:#0040f0;stroke-width:1;fill:#0040f0;fill-opacity:0;"><title>fortress</title></circle>
<path d="M802 435 808 435 M805 432 805 438" style="stroke:#0040f0;stroke-width:1;fill:none;"><title>nodraw</title></path>
</g>
<g>
<circle cx="805" cy="375" r="3" style="stroke:#0040f0;stroke-width:1;fill:#0040f0;fill-opacity:0;"><title>fortress</title></circle>
<path d="M802 375 808 375 M805 372 805 378" style="stroke:#0040f0;stroke-width:1;fill:none;"><title>nodraw</title></path>
</g>
<g>
<circle cx="805" cy="315" r="3" style="stroke:#0040f0;stroke-width:1;fill:#0040f0;fill-opacity:0;"><title>fortress</title></circle>
<path d="M802 315 808 315 M805 312 805 318" style="stroke:#0040f0;stroke-width:1;fill:none;"><title>nodraw</title></path>
</g>
<g>
<circle cx="805" cy="255" r="3" style="stroke:#0040f0;stroke-width:1;fill:#0040f0;fill-opacity:0;"><title>fortress</title></circle>
<path d="M802 255 808 255 M805 252 805 258" style="stroke:#0040f0;stroke-width:1;fill:none;"><title>nodraw</title></path>
</g>
<g>
<circle cx="805" cy="135" r="3" style="stroke:#0040f0;stroke-width:1;fill:#0040f0;fill-opacity:0;"><title>fortress</title></circle>
<path d="M802 135 808 135 M805 132 805 138" style="stroke:#0040f0;stroke-width:1;fill:none;"><title>nodraw</title></path>
</g>
<g>
<circle cx="865" cy="435" r="3" style="stroke:#0040f0;stroke-width:1;fill:#0040f0;fill-opacity:0;"><title>fortress</title></circle>
<path d="M862 435 868 435 M865 432 865 438" style="stroke:#0040f0;stroke-width:1;fill:none;"><title>nodraw</title></path>
</g>
<g>
<circle cx="865" cy="375" r="3" style="stroke:#0040f0;stroke-width:1;fill:#0040f0;fill-opacity:0;"><title>fortress</title></circle>
<path d="M862 375 868 375 M865 372 865 378" style="stroke:#0040f0;stroke-width:1;fill:none;"><title>nodraw</title></path>
</g>
<g>
<circle cx="865" cy="315" r="3" style="stroke:#0040f0;stroke-width:1;fill:#0040f0;fill-opacity:0;"><title>fortress</title></circle>
<path d="M862 315 868 315 M865 312 865 318" style="stroke:#0040f0;stroke-width:1;fill:none;"><title>nodraw</title></path>
</g>
<g>
<circle cx="865" cy="255" r="3" style="stroke:#0040f0;stroke-width:1;fill:#0040f0;fill-opacity:0;"><title>fortress</title></circle>
<path d="M862 255 868 255 M865 252 865 258" style="stroke:#0040f0;stroke-width:1;fill:none;"><title>nodraw</title></path>
</g>
<g>
<circle cx="925" cy="435" r="3" style="stroke:#0040f0;stroke-width:1;fill:#0040f0;fill-opacity:0;"><title>fortress</title></circle>
<path d="M922 435 928 435 M925 432 925 438" style="stroke:#0040f0;stroke-width:1;fill:none;"><title>nodraw</title></path>
</g>
<g>
<circle cx="925" cy="375" r="3" style="stroke:#0040f0;stroke-width:1;fill:#0040f0;fill-opacity:0;"><title>fortress</title></circle>
<path d="M922 375 928 375 M925 372 925 378" style="stroke:#0040f0;stroke-width:1;fill:none;"><title>nodraw</title></path>
</g>
<g>
<circle cx="925" cy="315" r="3" style="stroke:#0040f0;stroke-width:1;fill:#0040f0;fill-opacity:0;"><title>fortress</title></circle>
<path d="M922 315 928 315 M925 312 925 318" style="stroke:#0040f0;stroke-width:1;fill:none;"><title>nodraw</title></path>
</g>
<g>
<circle cx="925" cy="255" r="3" style="stroke:#0040f0;stroke-width:1;fill:#0040f0;fill-opacity:0;"><title>fortress</title></circle>
<path d="M922 255 928 255 M925 252 925 258" style="stroke:#0040f0;stroke-width:1;fill:none;"><title>nodraw</title></path>
</g>
<g>
<circle cx="985" cy="435" r="3" style="stroke:#0040f0;stroke-width:1;fill:#0040f0;fill-opacity:0;"><title>fortress</title></circle>
<path d="M982 435 988 435 M985 432 985 438" style="stroke:#0040f0;stroke-width:1;fill:none;"><title>nodraw</title></path>
</g>
<g>
<circle cx="985" cy="375" r="3" style="stroke:#0040f0;stroke-width:1;fill:#0040f0;fill-opacity:0;"><title>fortress</title></circle>
<path d="M982 375 988 375 M985 372 985 378" style="stroke:#0040f0;stroke-width:1;fill:none;"><title>nodraw</title></path>
</g>
<g>
<circle cx="985" cy="315" r="3" style="stroke:#0040f0;stroke-width:1;fill:#0040f0;fill-opacity:0;"><title>fortress</title></circle>
<path d="M982 315 988 315 M985 312 985 318" style="stroke:#0040f0;stroke-width:1;fill:none;"><title>nodraw</title></path>
</g>
<g>
<circle cx="435" cy="625" r="3" style="stroke:#0040f0;stroke-width:1;fill:#0040f0;fill-opacity:0;"><title>fortress</title></circle>
<path d="M432 625 438 625 M435 622 435 628" style="stroke:#0040f0;stroke-width:1;fill:none;"><title>nodraw</title></path>
</g>
<g>
<circle cx="435" cy="685" r="3" style="stroke:#0040f0;stroke-width:1;fill:#0040f0;fill-opacity:0;"><title>fortress</title></circle>
<path d="M432 685 438 685 M435 682 435 688" style="stroke:#0040f0;stroke-width:1;fill:none;"><title>nodraw</title></path>
</g>
<g>
<circle cx="435" cy="745" r="3" style="stroke:#0040f0;stroke-width:1;fill:#0040f0;fill-opacity:0;"><title>fortress</title></circle>
<path d="M432 745 438 745 M435 742 435 748" style="stroke:#0040f0;stroke-width:1;fill:none;"><title>nodraw</title></path>
</g>
<g>
<circle cx="435" cy="805" r="3" style="stroke:#0040f0;stroke-width:1;fill:#0040f0;fill-opacity:0;"><title>fortress</title></circle>
<path d="M432 805 438 805 M435 802 435 808" style="stroke:#0040f0;stroke-width:1;fill:none;"><title>nodraw</title></path>
</g>
<g>
<circle cx="435" cy="865" r="3" style="stroke:#0040f0;stroke-width:1;fill:#0040f0;fill-opacity:0;"><title>fortress</title></circle>
<path d="M432 865 438 865 M435 862 435 868" style="stroke:#0040f0;stroke-width:1;fill:none;"><title>nodraw</title></path>
</g>
<g>
<circle cx="435" cy="925" r="3" style="stroke:#0040f0;stroke-width:1;fill:#0040f0;fill-opacity:0;"><title>fortress</title></circle>
<path d="M432 925 438 925 M435 922 435 928" style="stroke:#0040f0;stroke-width:1;fill:none;"><title>nodraw</title></path>
</g>
<g>
<circle cx="435" cy="985" r="3" style="stroke:#0040f0;stroke-width:1;fill:#0040f0;fill-opacity:0;"><title>fortress</title></circle>
<path d="M432 985 438 985 M435 982 435 988" style="stroke:#0040f0;stroke-width:1;fill:none;"><title>nodraw</title></path>
</g>
<g>
<circle cx="375" cy="565" r="3" style="stroke:#0040f0;stroke-width:1;fill:#0040f0;fill-opacity:0;"><title>fortress</title></circle>
<path d="M372 565 378 565 M375 562 375 568" style="stroke:#0040f0;stroke-width:1;fill:none;"><title>nodraw</title></path>
</g>
<g>
<circle cx="375" cy="685" r="3" style="stroke:#0040f0;stroke-width:1;fill:#0040f0;fill-opacity:0;"><title>fortress</title></circle>
<path d="M372 685 378 685 M375 682 375 688" style="stroke:#0040f0;stroke-width:1;fill:none;"><title>nodraw</title></path>
</g>
<g>
<circle cx="375" cy="745" r="3" style="stroke:#0040f0;stroke-width:1;fill:#0040f0;fill-opacity:0;"><title>fortress</title></circle>
<path d="M372 745 378 745 M375 742 375 748" style="stroke:#0040f0;stroke-width:1;fill:none;"><title>nodraw</title></path>
</g>
<g>
<circle cx="375" cy="805" r="3" style="stroke:#0040f0;stroke-width:1;fill:#0040f0;fill-opacity:0;"><title>fortress</title></circle>
<path d="M372 805 378 805 M375 802 375 808" style="stroke:#0040f0;stroke-width:1;fill:none;"><title>nodraw</title></path>
</g>
<g>
<circle cx="375" cy="865" r="3" style="stroke:#0040f0;stroke-width:1;fill:#0040f0;fill-opacity:0;"><title>fortress</title></circle>
<path d="M372 865 378 865 M375 862 375 868" style="stroke:#0040f0;stroke-width:1;fill:none;"><title>nodraw</title></path>
</g>
<g>
<circle cx="375" cy="925" r="3" style="stroke:#0040f0;stroke-width:1;fill:#0040f0;fill-opacity:0;"><title>fortress</title></circle>
<path d="M372 925 378 925 M375 922 375 928" style="stroke:#0040f0;stroke-width:1;fill:none;"><title>nodraw</title></path>
</g>
<g>
<circle cx="375" cy="985" r="3" style="stroke:#0040f0;stroke-width:1;fill:#0040f0;fill-opacity:0;"><title>fortress</title></circle>
<path d="M372 985 378 985 M375 982 375 988" style="stroke:#0040f0;stroke-width:1;fill:none;"><title>nodraw</title></path>
</g>
<g>
<circle cx="315" cy="625" r="3" style="stroke:#0040f0;stroke-width:1;fill:#0040f0;fill-opacity:0;"><title>fortress</title></circle>
<path d="M312 625 318 625 M315 622 315 628" style="stroke:#0040f0;stroke-width:1;fill:none;"><title>nodraw</title></path>
</g>
<g>
<circle cx="315" cy="565" r="3" style="stroke:#0040f0;stroke-width:1;fill:#0040f0;fill-opacity:0;"><title>fortress</title></circle>
<path d="M312 565 318 565 M315 562 315 568" style="stroke:#0040f0;stroke-width:1;fill:none;"><title>nodraw</title></path>
</g>
<g>
<circle cx="315" cy="745" r="3" style="stroke:#0040f0;stroke-width:1;fill:#0040f0;fill-opacity:0;"><title>fortress</title></circle>
<path d="M312 745 318 745 M315 742 315 748" style="stroke:#0040f0;stroke-width:1;fill:none;"><title>nodraw</title></path>
</g>
<g>
<circle cx="315" cy="805" r="3" style="stroke:#0040f0;stroke-width:1;fill:#0040f0;fill-opacity:0;"><title>fortress</title></circle>
<path d="M312 805 318 805 M315 802 315 808" style="stroke:#0040f0;stroke-width:1;fill:none;"><title>nodraw</title></path>
</g>
<g>
<circle cx="315" cy="865" r="3" style="stroke:#0040f0;stroke-width:1;fill:#0040f0;fill-opacity:0;"><title>fortress</title></circle>
<path d="M312 865 318 865 M315 862 315 868" style="stroke:#0040f0;stroke-width:1;fill:none;"><title>nodraw</title></path>
</g>
<g>
<circle cx="315" cy="925" r="3" style="stroke:#0040f0;stroke-width:1;fill:#0040f0;fill-opacity:0;"><title>fortress</title></circle>
<path d="M312 925 318 925 M315 922 315 928" style="stroke:#0040f0;stroke-width:1;fill:none;"><title>nodraw</title></path>
</g>
<g>
<circle cx="315" cy="985" r="3" style="stroke:#0040f0;stroke-width:1;fill:#0040f0;fill-opacity:0;"><title>fortress</title></circle>
<path d="M312 985 318 985 M315 982 315 988" style="stroke:#0040f0;stroke-width:1;fill:none;"><title>nodraw</title></path>
</g>
<g>
<circle cx="255" cy="625" r="3" style="stroke:#0040f0;stroke-width:1;fill:#0040f0;fill-opacity:0;"><title>fortress</title></circle>
<path d="M252 625 258 625 M255 622 255 628" style="stroke:#0040f0;stroke-width:1;fill:none;"><title>nodraw</title></path>
</g>
<g>
<circle cx="255" cy="565" r="3" style="stroke:#0040f0;stroke-width:1;fill:#0040f0;fill-opacity:0;"><title>fortress</title></circle>
<path d="M252 565 258 565 M255 562 255 568" style="stroke:#0040f0;stroke-width:1;fill:none;"><title>nodraw</title></path>
</g>
<g>
<circle cx="255" cy="685" r="3" style="stroke:#0040f0;stroke-width:1;fill:#0040f0;fill-opacity:0;"><title>fortress</title></circle>
<path d="M252 685 258 685 M255 682 255 688" style="stroke:#0040f0;stroke-width:1;fill:none;"><title>nodraw</title></path>
</g>
<g>
<circle cx="255" cy="805" r="3" style="stroke:#0040f0;stroke-width:1;fill:#0040f0;fill-opacity:0;"><title>fortress</title></circle>
<path d="M252 805 258 805 M255 802 255 808" style="stroke:#0040f0;stroke-width:1;fill:none;"><title>nodraw</title></path>
</g>
<g>
<circle cx="255" cy="865" r="3" style="stroke:#0040f0;stroke-width:1;fill:#0040f0;fill-opacity:0;"><title>fortress</title></circle>
<path d="M252 865 258 865 M255 862 255 868" style="stroke:#0040f0;stroke-width:1;fill:none;"><title>nodraw</title></path>
</g>
<g>
<circle cx="255" cy="925" r="3" style="stroke:#0040f0;stroke-width:1;fill:#0040f0;fill-opacity:0;"><title>fortress</title></circle>
<path d="M252 925 258 925 M255 922 255 928" style="stroke:#0040f0;stroke-width:1;fill:none;"><title>nodraw</title></path>
</g>
<g>
<circle cx="135" cy="805" r="3" style="stroke:#0040f0;stroke-width:1;fill:#0040f0;fill-opacity:0;"><title>fortress</title></circle>
<path d="M132 805 138 805 M135 802 135 808" style="stroke:#0040f0;stroke-width:1;fill:none;"><title>nodraw</title></path>
</g>
<g>
<circle cx="195" cy="565" r="3" style="stroke:#0040f0;stroke-width:1;fill:#0040f0;fill-opacity:0;"><title>fortress</title></circle>
<path d="M192 565 198 565 M195 562 195 568" style="stroke:#0040f0;stroke-width:1;fill:none;"><title>nodraw</title></path>
</g>
<g>
<circle cx="195" cy="625" r="3" style="stroke:#0040f0;stroke-width:1;fill:#0040f0;fill-opacity:0;"><title>fortress</title></circle>
<path d="M192 625 198 625 M195 622 195 628" style="stroke:#0040f0;stroke-width:1;fill:none;"><title>nodraw</title></path>
</g>
<g>
<circle cx="195" cy="685" r="3" style="stroke:#0040f0;stroke-width:1;fill:#0040f0;fill-opacity:0;"><title>fortress</title></circle>
<path d="M192 685 198 685 M195 682 195 688" style="stroke:#0040f0;stroke-width:1;fill:none;"><title>nodraw</title></path>
</g>
<g>
<circle cx="195" cy="745" r="3" style="stroke:#0040f0;stroke-width:1;fill:#0040f0;fill-opacity:0;"><title>fortress</title></circle>
<path d="M192 745 198 745 M195 742 195 748" style="stroke:#0040f0;stroke-width:1;fill:none;"><title>nodraw</title></path>
</g>
<g>
<circle cx="195" cy="865" r="3" style="stroke:#0040f0;stroke-width:1;fill:#0040f0;fill-opacity:0;"><title>fortress</title></circle>
<path d="M192 865 198 865 M195 862 195 868" style="stroke:#0040f0;stroke-width:1;fill:none;"><title>nodraw</title></path>
</g>
<g>
<circle cx="135" cy="565" r="3" style="stroke:#0040f0;stroke-width:1;fill:#0040f0;fill-opacity:0;"><title>fortress</title></circle>
<path d="M132 565 138 565 M135 562 135 568" style="stroke:#0040f0;stroke-width:1;fill:none;"><title>nodraw</title></path>
</g>
<g>
<circle cx="135" cy="625" r="3" style="stroke:#0040f0;stroke-width:1;fill:#0040f0;fill-opacity:0;"><title>fortress</title></circle>
<path d="M132 625 138 625 M135 622 135 628" style="stroke:#0040f0;stroke-width:1;fill:none;"><title>nodraw</title></path>
</g>
<g>
<circle cx="135" cy="685" r="3" style="stroke:#0040f0;stroke-width:1;fill:#0040f0;fill-opacity:0;"><title>fortress</title></circle>
<path d="M132 685 138 685 M135 682 135 688" style="stroke:#0040f0;stroke-width:1;fill:none;"><title>nodraw</title></path>
</g>
<g>
<circle cx="135" cy="745" r="3" style="stroke:#0040f0;stroke-width:1;fill:#0040f0;fill-opacity:0;"><title>fortress</title></circle>
<path d="M132 745 138 745 M135 742 135 748" style="stroke:#0040f0;stroke-width:1;fill:none;"><title>nodraw</title></path>
</g>
<g>
<circle cx="75" cy="565" r="3" style="stroke:#0040f0;stroke-width:1;fill:#0040f0;fill-opacity:0;"><title>fortress</title></circle>
<path d="M72 565 78 565 M75 562 75 568" style="stroke:#0040f0;stroke-width:1;fill:none;"><title>nodraw</title></path>
</g>
<g>
<circle cx="75" cy="625" r="3" style="stroke:#0040f0;stroke-width:1;fill:#0040f0;fill-opacity:0;"><title>fortress</title></circle>
<path d="M72 625 78 625 M75 622 75 628" style="stroke:#0040f0;stroke-width:1;fill:none;"><title>nodraw</title></path>
</g>
<g>
<circle cx="75" cy="685" r="3" style="stroke:#0040f0;stroke-width:1;fill:#0040f0;fill-opacity:0;"><title>fortress</title></circle>
<path d="M72 685 78 685 M75 682 75 688" style="stroke:#0040f0;stroke-width:1;fill:none;"><title>nodraw</title></path>
</g>
<g>
<circle cx="75" cy="745" r="3" style="stroke:#0040f0;stroke-width:1;fill:#0040f0;fill-opacity:0;"><title>fortress</title></circle>
<path d="M72 745 78 745 M75 742 75 748" style="stroke:#0040f0;stroke-width:1;fill:none;"><title>nodraw</title></path>
</g>
<g>
<circle cx="15" cy="565" r="3" style="stroke:#0040f0;stroke-width:1;fill:#0040f0;fill-opacity:0;"><title>fortress</title></circle>
<path d="M12 565 18 565 M15 562 15 568" style="stroke:#0040f0;stroke-width:1;fill:none;"><title>nodraw</title></path>
</g>
<g>
<circle cx="15" cy="625" r="3" style="stroke:#0040f0;stroke-width:1;fill:#0040f0;fill-opacity:0;"><title>fortress</title></circle>
<path d="M12 625 18 625 M15 622 15 628" style="stroke:#0040f0;stroke-width:1;fill:none;"><title>nodraw</title></path>
</g>
<g>
<circle cx="15" cy="685" r="3" style="stroke:#0040f0;stroke-width:1;fill:#0040f0;fill-opacity:0;"><title>fortress</title></circle>
<path d="M12 685 18 685 M15 682 15 688" style="stroke:#0040f0;stroke-width:1;fill:none;"><title>nodraw</title></path>
</g>
<g>
<circle cx="195" cy="805" r="3" style="stroke:#0040f0;stroke-width:1;fill:#0040f0;fill-opacity:0;"><title>fortress</title></circle>
<path d="M192 805 198 805 M195 802 195 808" style="stroke:#0040f0;stroke-width:1;fill:none;"><title>nodraw</title></path>
</g>
<g>
<circle cx="255" cy="745" r="3" style="stroke:#0040f0;stroke-width:1;fill:#0040f0;fill-opacity:0;"><title>fortress</title></circle>
<path d="M252 745 258 745 M255 742 255 748" style="stroke:#0040f0;stroke-width:1;fill:none;"><title>nodraw</title></path>
</g>
<g>
<circle cx="315" cy="685" r="3" style="stroke:#0040f0;stroke-width:1;fill:#0040f0;fill-opacity:0;"><title>fortress</title></circle>
<path d="M312 685 318 685 M315 682 315 688" style="stroke:#0040f0;stroke-width:1;fill:none;"><title>nodraw</title></path>
</g>
<g>
<circle cx="375" cy="625" r="3" style="stroke:#0040f0;stroke-width:1;fill:#0040f0;fill-opacity:0;"><title>fortress</title></circle>
<path d="M372 625 378 625 M375 622 375 628" style="stroke:#0040f0;stroke-width:1;fill:none;"><title>nodraw</title></path>
</g>
<g>
<circle cx="435" cy="565" r="3" style="stroke:#0040f0;stroke-width:1;fill:#0040f0;fill-opacity:0;"><title>fortress</title></circle>
<path d="M432 565 438 565 M435 562 435 568" style="stroke:#0040f0;stroke-width:1;fill:none;"><title>nodraw</title></path>
</g>
<g>
<circle cx="565" cy="435" r="3" style="stroke:#0040f0;stroke-width:1;fill:#0040f0;fill-opacity:0;"><title>fortress</title></circle>
<path d="M562 435 568 435 M565 432 565 438" style="stroke:#0040f0;stroke-width:1;fill:none;"><title>nodraw</title></path>
</g>
<g>
<circle cx="625" cy="375" r="3" style="stroke:#0040f0;stroke-width:1;fill:#0040f0;fill-opacity:0;"><title>fortress</title></circle>
<path d="M622 375 628 375 M625 372 625 378" style="stroke:#0040f0;stroke-width:1;fill:none;"><title>nodraw</title></path>
</g>
<g>
<circle cx="685" cy="315" r="3" style="stroke:#0040f0;stroke-width:1;fill:#0040f0;fill-opacity:0;"><title>fortress</title></circle>
<path d="M682 315 688 315 M685 312 685 318" style="stroke:#0040f0;stroke-width:1;fill:none;"><title>nodraw</title></path>
</g>
<g>
<circle cx="745" cy="255" r="3" style="stroke:#0040f0;stroke-width:1;fill:#0040f0;fill-opacity:0;"><title>fortress</title></circle>
<path d="M742 255 748 255 M745 252 745 258" style="stroke:#0040f0;stroke-width:1;fill:none;"><title>nodraw</title></path>
</g>
<g>
<circle cx="805" cy="195" r="3" style="stroke:#0040f0;stroke-width:1;fill:#0040f0;fill-opacity:0;"><title>fortress</title></circle>
<path d="M802 195 808 195 M805 192 805 198" style="stroke:#0040f0;stroke-width:1;fill:none;"><title>nodraw</title></path>
</g>
<path d="M175 100 170 100 170 120 290 0 495 0 495 5 505 5 505 0 710 0 1000 290 1000 495 995 495 995 505 1000 505 1000 710 915 795 915 900 920 900 920 795 1000 715 1000 1000 715 1000 825 890 825 900 830 900 830 880 710 1000 505 1000 505 995 495 995 495 1000 290 1000 0 710 0 505 5 505 5 495 0 495 0 290 85 205 85 100 80 100 80 205 0 285 0 0 285 0 175 110 Z" style="stroke:#000000;stroke-width:1;fill:none;"/>
<path d="M90 100 95 100 95 195 90 200 Z" style="stroke:#000000;stroke-width:1;fill:none;"/>
<path d="M100 100 105 100 105 185 100 190 Z" style="stroke:#000000;stroke-width:1;fill:none;"/>
<path d="M110 100 115 100 115 175 110 180 Z" style="stroke:#000000;stroke-width:1;fill:none;"/>
<path d="M120 100 125 100 125 165 120 170 Z" style="stroke:#000000;stroke-width:1;fill:none;"/>
<path d="M130 100 135 100 135 155 130 160 Z" style="stroke:#000000;stroke-width:1;fill:none;"/>
<path d="M140 100 145 100 145 145 140 150 Z" style="stroke:#000000;stroke-width:1;fill:none;"/>
<path d="M150 100 155 100 155 135 150 140 Z" style="stroke:#000000;stroke-width:1;fill:none;"/>
<path d="M160 100 165 100 165 125 160 130 Z" style="stroke:#000000;stroke-width:1;fill:none;"/>
<path d="M910 900 905 900 905 805 910 800 Z" style="stroke:#000000;stroke-width:1;fill:none;"/>
<path d="M900 900 895 900 895 815 900 810 Z" style="stroke:#000000;stroke-width:1;fill:none;"/>
<path d="M890 900 885 900 885 825 890 820 Z" style="stroke:#000000;stroke-width:1;fill:none;"/>
<path d="M880 900 875 900 875 835 880 830 Z" style="stroke:#000000;stroke-width:1;fill:none;"/>
<path d="M870 900 865 900 865 845 870 840 Z" style="stroke:#000000;stroke-width:1;fill:none;"/>
<path d="M860 900 855 900 855 855 860 850 Z" style="stroke:#000000;stroke-width:1;fill:none;"/>
<path d="M850 900 845 900 845 865 850 860 Z" style="stroke:#000000;stroke-width:1;fill:none;"/>
<path d="M840 900 835 900 835 875 840 870 Z" style="stroke:#000000;stroke-width:1;fill:none;"/>
<path d="M25 495 35 495 35 505 25 505 Z" style="stroke:#000000;stroke-width:1;fill:none;"/>
<path d="M55 495 65 495 65 505 55 505 Z" style="stroke:#000000;stroke-width:1;fill:none;"/>
<path d="M85 495 95 495 95 505 85 505 Z" style="stroke:#000000;stroke-width:1;fill:none;"/>
<path d="M115 495 125 495 125 505 115 505 Z" style="stroke:#000000;stroke-width:1;fill:none;"/>
<path d="M145 495 155 495 155 505 145 505 Z" style="stroke:#000000;stroke-width:1;fill:none;"/>
<path d="M175 495 185 495 185 505 175 505 Z" style="stroke:#000000;stroke-width:1;fill:none;"/>
<path d="M205 495 215 495 215 505 205 505 Z" style="stroke:#000000;stroke-width:1;fill:none;"/>
<path d="M235 495 245 495 245 505 235 505 Z" style="stroke:#000000;stroke-width:1;fill:none;"/>
<path d="M265 495 275 495 275 505 265 505 Z" style="stroke:#000000;stroke-width:1;fill:none;"/>
<path d="M295 495 305 495 305 505 295 505 Z" style="stroke:#000000;stroke-width:1;fill:none;"/>
<path d="M325 495 335 495 335 505 325 505 Z" style="stroke:#000000;stroke-width:1;fill:none;"/>
<path d="M355 495 365 495 365 505 355 505 Z" style="stroke:#000000;stroke-width:1;fill:none;"/>
<path d="M385 495 395 495 395 505 385 505 Z" style="stroke:#000000;stroke-width:1;fill:none;"/>
<path d="M415 495 425 495 425 505 415 505 Z" style="stroke:#000000;stroke-width:1;fill:none;"/>
<path d="M445 495 455 495 455 505 445 505 Z" style="stroke:#000000;stroke-width:1;fill:none;"/>
<path d="M545 495 555 495 555 505 545 505 Z" style="stroke:#000000;stroke-width:1;fill:none;"/>
<path d="M575 495 585 495 585 505 575 505 Z" style="stroke:#000000;stroke-width:1;fill:none;"/>
<path d="M605 495 615 495 615 505 605 505 Z" style="stroke:#000000;stroke-width:1;fill:none;"/>
<path d="M635 495 645 495 645 505 635 505 Z" style="stroke:#000000;stroke-width:1;fill:none;"/>
<path d="M665 495 675 495 675 505 665 505 Z" style="stroke:#000000;stroke-width:1;fill:none;"/>
<path d="M695 495 705 495 705 505 695 505 Z" style="stroke:#000000;stroke-width:1;fill:none;"/>
<path d="M725 495 735 495 735 505 725 505 Z" style="stroke:#000000;stroke-width:1;fill:none;"/>
<path d="M755 495 765 495 765 505 755 505 Z" style="stroke:#000000;stroke-width:1;fill:none;"/>
<path d="M785 495 795 495 795 505 785 505 Z" style="stroke:#000000;stroke-width:1;fill:none;"/>
<path d="M815 495 825 495 825 505 815 505 Z" style="stroke:#000000;stroke-width:1;fill:none;"/>
<path d="M845 495 855 495 855 505 845 505 Z" style="stroke:#000000;stroke-width:1;fill:none;"/>
<path d="M875 495 885 495 885 505 875 505 Z" style="stroke:#000000;stroke-width:1;fill:none;"/>
<path d="M905 495 915 495 915 505 905 505 Z" style="stroke:#000000;stroke-width:1;fill:none;"/>
<path d="M935 495 945 495 945 505 935 505 Z" style="stroke:#000000;stroke-width:1;fill:none;"/>
<path d="M965 495 975 495 975 505 965 505 Z" style="stroke:#000000;stroke-width:1;fill:none;"/>
<path d="M495 455 495 445 505 445 505 455 Z" style="stroke:#000000;stroke-width:1;fill:none;"/>
<path d="M495 425 495 415 505 415 505 425 Z" style="stroke:#000000;stroke-width:1;fill:none;"/>
<path d="M495 395 495 385 505 385 505 395 Z" style="stroke:#000000;stroke-width:1;fill:none;"/>
<path d="M495 365 495 355 505 355 505 365 Z" style="stroke:#000000;stroke-width:1;fill:none;"/>
<path d="M495 335 495 325 505 325 505 335 Z" style="stroke:#000000;stroke-width:1;fill:none;"/>
<path d="M495 305 495 295 505 295 505 305 Z" style="stroke:#000000;stroke-width:1;fill:none;"/>
<path d="M495 275 495 265 505 265 505 275 Z" style="stroke:#000000;stroke-width:1;fill:none;"/>
<path d="M495 245 495 235 505 235 505 245 Z" style="stroke:#000000;stroke-width:1;fill:none;"/>
<path d="M495 215 495 205 505 205 505 215 Z" style="stroke:#000000;stroke-width:1;fill:none;"/>
<path d="M495 185 495 175 505 175 505 185 Z" style="stroke:#000000;stroke-width:1;fill:none;"/>
<path d="M495 155 495 145 505 145 505 155 Z" style="stroke:#000000;stroke-width:1;fill:none;"/>
<path d="M495 125 495 115 505 115 505 125 Z" style="stroke:#000000;stroke-width:1;fill:none;"/>
<path d="M495 95 495 85 505 85 505 95 Z" style="stroke:#000000;stroke-width:1;fill:none;"/>
<path d="M495 65 495 55 505 55 505 65 Z" style="stroke:#000000;stroke-width:1;fill:none;"/>
<path d="M495 35 495 25 505 25 505 35 Z" style="stroke:#000000;stroke-width:1;fill:none;"/>
<path d="M495 975 495 965 505 965 505 975 Z" style="stroke:#000000;stroke-width:1;fill:none;"/>
<path d="M495 945 495 935 505 935 505 945 Z" style="stroke:#000000;stroke-width:1;fill:none;"/>
<path d="M495 915 495 905 505 905 505 915 Z" style="stroke:#000000;stroke-width:1;fill:none;"/>
<path d="M495 885 495 875 505 875 505 885 Z" style="stroke:#000000;stroke-width:1;fill:none;"/>
<path d="M495 855 495 845 505 845 505 855 Z" style="stroke:#000000;stroke-width:1;fill:none;"/>
<path d="M495 825 495 815 505 815 505 825 Z" style="stroke:#000000;stroke-width:1;fill:none;"/>
<path d="M495 795 495 785 505 785 505 795 Z" style="stroke:#000000;stroke-width:1;fill:none;"/>
<path d="M495 765 495 755 505 755 505 765 Z" style="stroke:#000000;stroke-width:1;fill:none;"/>
<path d="M495 735 495 725 505 725 505 735 Z" style="stroke:#000000;stroke-width:1;fill:none;"/>
<path d="M495 705 495 695 505 695 505 705 Z" style="stroke:#000000;stroke-width:1;fill:none;"/>
<path d="M495 675 495 665 505 665 505 675 Z" style="stroke:#000000;stroke-width:1;fill:none;"/>
<path d="M495 645 495 635 505 635 505 645 Z" style="stroke:#000000;stroke-width:1;fill:none;"/>
<path d="M495 615 495 605 505 605 505 615 Z" style="stroke:#000000;stroke-width:1;fill:none;"/>
<path d="M495 585 495 575 505 575 505 585 Z" style="stroke:#000000;stroke-width:1;fill:none;"/>
<path d="M495 555 495 545 505 545 505 555 Z" style="stroke:#000000;stroke-width:1;fill:none;"/>
<path d="M475 490 490 475 510 475 525 490 525 510 510 525 490 525 475 510 Z" style="stroke:#000000;stroke-width:1;fill:none;"/>
<path d="M492 498 492 502 493 501 494 502 494 498" style="stroke:#000000;stroke-width:1;fill:none;"/>
<path d="M495 498 495 502" style="stroke:#000000;stroke-width:1;fill:none;"/>
<path d="M496 498 496 502" style="stroke:#000000;stroke-width:1;fill:none;"/>
<path d="M498 498 496 500 498 502" style="stroke:#000000;stroke-width:1;fill:none;"/>
<path d="M500 499 501 498 502 499 502 500 500 502 502 502" style="stroke:#000000;stroke-width:1;fill:none;"/>
<path d="M503 499 504 498 505 499 505 501 504 502 503 501 Z" style="stroke:#000000;stroke-width:1;fill:none;"/>
<path d="M506 498 506 502" style="stroke:#000000;stroke-width:1;fill:none;"/>
<path d="M507 499 508 498 509 499 508 500 509 501 508 502 507 501" style="stroke:#000000;stroke-width:1;fill:none;"/>
<g>
<circle cx="127.5" cy="30" r="2" style="stroke:#ff8000;stroke-width:1;fill:#ff8000;"><title>nodraw</title></circle>
<path d="M127.5 30 132.5 30 132.5 27 135.5 30 132.5 33 132.5 30" style="stroke:#ff8000;stroke-width:1;fill:#ff8000;" transform="rotate(90,127.5,30)"><title>spawn</title></path>
</g>
<g>
<circle cx="872.5" cy="970" r="2" style="stroke:#ff8000;stroke-width:1;fill:#ff8000;"><title>nodraw</title></circle>
<path d="M872.5 970 877.5 970 877.5 967 880.5 970 877.5 973 877.5 970" style="stroke:#ff8000;stroke-width:1;fill:#ff8000;" transform="rotate(270,872.5,970)"><title>spawn</title></path>
</g>
</svg>