<?xml version="1.0"?>
<!DOCTYPE svg PUBLIC "-//W3C//DTD SVG 1.1//EN" "http://www.w3.org/Graphics/SVG/1.1/DTD/svg11.dtd">
<svg version="1.1" xmlns="http://www.w3.org/2000/svg" width="500" height="505">
<g>
<circle cx="250" cy="450" r="0" style="stroke:#f00000;stroke-width:1;fill:#f00000;fill-opacity:0;"><title>death</title></circle>
<path d="M247 450 253 450 M250 447 250 453" style="stroke:#f00000;stroke-width:1;fill:none;"><title>nodraw</title></path>
</g>
<g>
<circle cx="250" cy="50" r="0" style="stroke:#f00000;stroke-width:1;fill:#f00000;fill-opacity:0;"><title>death</title></circle>
<path d="M247 50 253 50 M250 47 250 53" style="stroke:#f00000;stroke-width:1;fill:none;"><title>nodraw</title></path>
</g>
<g>
<circle cx="250" cy="450" r="40" style="stroke:#0040f0;stroke-width:1;fill:#0040f0;fill-opacity:0;"><title>fortress</title></circle>
<path d="M247 450 253 450 M250 447 250 453" style="stroke:#0040f0;stroke-width:1;fill:none;"><title>nodraw</title></path>
</g>
<g>
<circle cx="250" cy="50" r="40" style="stroke:#0040f0;stroke-width:1;fill:#0040f0;fill-opacity:0;"><title>fortress</title></circle>
<path d="M247 50 253 50 M250 47 250 53" style="stroke:#0040f0;stroke-width:1;fill:none;"><title>nodraw</title></path>
</g>
<path d="M0 500 0 0 500 0 500 500 Z" style="stroke:#000000;stroke-width:1;fill:none;"/>
<path d="M0 501 0 505 1 504 2 505 2 501" style="stroke:#000000;stroke-width:1;fill:none;"/>
<path d="M3 501 3 505" style="stroke:#000000;stroke-width:1;fill:none;"/>
<path d="M4 501 4 505" style="stroke:#000000;stroke-width:1;fill:none;"/>
<path d="M6 501 4 503 6 505" style="stroke:#000000;stroke-width:1;fill:none;"/>
<path d="M8 502 9 501 10 502 10 503 8 505 10 505" style="stroke:#000000;stroke-width:1;fill:none;"/>
<path d="M12 501 13 502 13 504 12 505 11 504 11 502 Z" style="stroke:#000000;stroke-width:1;fill:none;"/>
<path d="M14 501 14 505" style="stroke:#000000;stroke-width:1;fill:none;"/>
<path d="M15 502 16 501 17 502 17 503 15 505 17 505" style="stroke:#000000;stroke-width:1;fill:none;"/>
<g>
<circle cx="251" cy="450" r="2" style="stroke:#ff8000;stroke-width:1;fill:#ff8000;"><title>nodraw</title></circle>
<path d="M251 450 256 450 256 447 259 450 256 453 256 450" style="stroke:#ff8000;stroke-width:1;fill:#ff8000;" transform="rotate(270,251,450)"><title>spawn</title></path>
</g>
<g>
<circle cx="249" cy="50" r="2" style="stroke:#ff8000;stroke-width:1;fill:#ff8000;"><title>nodraw</title></circle>
<path d="M249 50 254 50 254 47 257 50 254 53 254 50" style="stroke:#ff8000;stroke-width:1;fill:#ff8000;" transform="rotate(90,249,50)"><title>spawn</title></path>
</g>
</svg>