<?xml version="1.0"?>
<!DOCTYPE svg PUBLIC "-//W3C//DTD SVG 1.1//EN" "http://www.w3.org/Graphics/SVG/1.1/DTD/svg11.dtd">
<svg version="1.1" xmlns="http://www.w3.org/2000/svg" width="500" height="960">
<g>
<circle cx="250" cy="480" r="50" style="stroke:#f00000;stroke-width:1;fill:#f00000;fill-opacity:0;"><title>death</title></circle>
<path d="M247 480 253 480 M250 477 250 483" style="stroke:#f00000;stroke-width:1;fill:none;"><title>nodraw</title></path>
</g>
<g>
<circle cx="250" cy="770" r="40" style="stroke:#0040f0;stroke-width:1;fill:#0040f0;fill-opacity:0;"><title>fortress</title></circle>
<path d="M247 770 253 770 M250 767 250 773" style="stroke:#0040f0;stroke-width:1;fill:none;"><title>nodraw</title></path>
</g>
<g>
<circle cx="250" cy="190" r="40" style="stroke:#0040f0;stroke-width:1;fill:#0040f0;fill-opacity:0;"><title>fortress</title></circle>
<path d="M247 190 253 190 M250 187 250 193" style="stroke:#0040f0;stroke-width:1;fill:none;"><title>nodraw</title></path>
</g>
<path d="M20 460 0 480 20 500 20 730 250 960 480 730 480 500 500 480 480 460 480 230 250 0 20 230 Z" style="stroke:#000000;stroke-width:1;fill:none;"/>
<path d="M210 450 200 465 200 495 210 510 205 510 175 480 205 450 Z" style="stroke:#000000;stroke-width:1;fill:none;"/>
<path d="M180 460 160 480 180 500 175 500 155 480 175 460 Z" style="stroke:#000000;stroke-width:1;fill:none;"/>
<path d="M160 460 140 480 160 500 155 500 135 480 155 460 Z" style="stroke:#000000;stroke-width:1;fill:none;"/>
<path d="M140 460 120 480 140 500 135 500 115 480 135 460 Z" style="stroke:#000000;stroke-width:1;fill:none;"/>
<path d="M120 460 100 480 120 500 115 500 95 480 115 460 Z" style="stroke:#000000;stroke-width:1;fill:none;"/>
<path d="M100 460 80 480 100 500 95 500 75 480 95 460 Z" style="stroke:#000000;stroke-width:1;fill:none;"/>
<path d="M80 460 60 480 80 500 75 500 55 480 75 460 Z" style="stroke:#000000;stroke-width:1;fill:none;"/>
<path d="M60 460 40 480 60 500 55 500 35 480 55 460 Z" style="stroke:#000000;stroke-width:1;fill:none;"/>
<path d="M40 460 20 480 40 500 35 500 15 480 35 460 Z" style="stroke:#000000;stroke-width:1;fill:none;"/>
<path d="M290 450 300 465 300 495 290 510 295 510 325 480 295 450 Z" style="stroke:#000000;stroke-width:1;fill:none;"/>
<path d="M320 460 340 480 320 500 325 500 345 480 325 460 Z" style="stroke:#000000;stroke-width:1;fill:none;"/>
<path d="M340 460 360 480 340 500 345 500 365 480 345 460 Z" style="stroke:#000000;stroke-width:1;fill:none;"/>
<path d="M360 460 380 480 360 500 365 500 385 480 365 460 Z" style="stroke:#000000;stroke-width:1;fill:none;"/>
<path d="M380 460 400 480 380 500 385 500 405 480 385 460 Z" style="stroke:#000000;stroke-width:1;fill:none;"/>
<path d="M400 460 420 480 400 500 405 500 425 480 405 460 Z" style="stroke:#000000;stroke-width:1;fill:none;"/>
<path d="M420 460 440 480 420 500 425 500 445 480 425 460 Z" style="stroke:#000000;stroke-width:1;fill:none;"/>
<path d="M440 460 460 480 440 500 445 500 465 480 445 460 Z" style="stroke:#000000;stroke-width:1;fill:none;"/>
<path d="M460 460 480 480 460 500 465 500 485 480 465 460 Z" style="stroke:#000000;stroke-width:1;fill:none;"/>
<path d="M195 488 199 488 198 487 199 486 195 486" style="stroke:#000000;stroke-width:1;fill:none;"/>
<path d="M195 485 199 485" style="stroke:#000000;stroke-width:1;fill:none;"/>
<path d="M195 484 199 484" style="stroke:#000000;stroke-width:1;fill:none;"/>
<path d="M195 482 197 484 199 482" style="stroke:#000000;stroke-width:1;fill:none;"/>
<path d="M196 480 195 479 196 478 197 478 199 480 199 478" style="stroke:#000000;stroke-width:1;fill:none;"/>
<path d="M196 475 198 475 199 476 198 477 196 477 195 476 Z" style="stroke:#000000;stroke-width:1;fill:none;"/>
<path d="M195 474 199 474" style="stroke:#000000;stroke-width:1;fill:none;"/>
<path d="M196 473 195 472 196 471 197 472 198 471 199 472 198 473" style="stroke:#000000;stroke-width:1;fill:none;"/>
<g>
<circle cx="250" cy="860" r="2" style="stroke:#ff8000;stroke-width:1;fill:#ff8000;"><title>nodraw</title></circle>
<path d="M250 860 255 860 255 857 258 860 255 863 255 860" style="stroke:#ff8000;stroke-width:1;fill:#ff8000;" transform="rotate(270,250,860)"><title>spawn</title></path>
</g>
<g>
<circle cx="250" cy="100" r="2" style="stroke:#ff8000;stroke-width:1;fill:#ff8000;"><title>nodraw</title></circle>
<path d="M250 100 255 100 255 97 258 100 255 103 255 100" style="stroke:#ff8000;stroke-width:1;fill:#ff8000;" transform="rotate(90,250,100)"><title>spawn</title></path>
</g>
</svg>