<?xml version="1.0"?>
<!DOCTYPE svg PUBLIC "-//W3C//DTD SVG 1.1//EN" "http://www.w3.org/Graphics/SVG/1.1/DTD/svg11.dtd">
<svg version="1.1" xmlns="http://www.w3.org/2000/svg" width="503.8" height="162.2">
<path d="M331.8 95.1 331.4 97.4 329.4 105.2 326.6 112.7 323.2 119.8 319.1 126.4 314.5 132.7 309.2 138.4 303.5 143.7 297.2 148.3 290.6 152.4 283.5 155.8 276 158.6 268.2 160.6 260.2 161.8 251.9 162.2 243.6 161.8 235.6 160.6 227.8 158.6 220.3 155.8 213.2 152.4 206.6 148.3 200.3 143.7 194.6 138.4 189.3 132.7 184.7 126.4 180.6 119.8 177.2 112.7 174.4 105.2 172.4 97.4 172 95.1 161 95.1 160.6 97.4 158.6 105.2 155.8 112.7 152.4 119.8 148.3 126.4 143.7 132.7 138.4 138.4 132.7 143.7 126.4 148.3 119.8 152.4 112.7 155.8 105.2 158.6 97.4 160.6 89.4 161.8 81.1 162.2 72.8 161.8 64.8 160.6 57 158.6 49.5 155.8 42.4 152.4 35.8 148.3 29.5 143.7 23.8 138.4 18.5 132.7 13.9 126.4 9.8 119.8 6.4 112.7 3.6 105.2 1.6 97.4 0.4 89.4 0 81.1 0.4 72.8 1.6 64.8 3.6 57 6.4 49.5 9.8 42.4 13.9 35.8 18.5 29.5 23.8 23.8 29.5 18.5 35.8 13.9 42.4 9.8 49.5 6.4 57 3.6 64.8 1.6 72.8 0.39999999999998 81.1 0 89.4 0.39999999999998 97.4 1.6 105.2 3.6 112.7 6.4 119.8 9.8 126.4 13.9 132.7 18.5 138.4 23.8 143.7 29.5 148.3 35.8 152.4 42.4 155.8 49.5 158.6 57 160.6 64.8 161 67.1 172 67.1 172.4 64.8 174.4 57 177.2 49.5 180.6 42.4 184.7 35.8 189.3 29.5 194.6 23.8 200.3 18.5 206.6 13.9 213.2 9.8 220.3 6.4 227.8 3.6 235.6 1.6 243.6 0.39999999999998 251.9 0 260.2 0.39999999999998 268.2 1.6 276 3.6 283.5 6.4 290.6 9.8 297.2 13.9 303.5 18.5 309.2 23.8 314.5 29.5 319.1 35.8 323.2 42.4 326.6 49.5 329.4 57 331.4 64.8 331.8 67.1 342.8 67.1 343.2 64.8 345.2 57 348 49.5 351.4 42.4 355.5 35.8 360.1 29.5 365.4 23.8 371.1 18.5 377.4 13.9 384 9.8 391.1 6.4 398.6 3.6 406.4 1.6 414.4 0.39999999999998 422.7 0 431 0.39999999999998 439 1.6 446.8 3.6 454.3 6.4 461.4 9.8 468 13.9 474.3 18.5 480 23.8 485.3 29.5 489.9 35.8 494 42.4 497.4 49.5 500.2 57 502.2 64.8 503.4 72.8 503.8 81.1 503.4 89.4 502.2 97.4 500.2 105.2 497.4 112.7 494 119.8 489.9 126.4 485.3 132.7 480 138.4 474.3 143.7 468 148.3 461.4 152.4 454.3 155.8 446.8 158.6 439 160.6 431 161.8 422.7 162.2 414.4 161.8 406.4 160.6 398.6 158.6 391.1 155.8 384 152.4 377.4 148.3 371.1 143.7 365.4 138.4 360.1 132.7 355.5 126.4 351.4 119.8 348 112.7 345.2 105.2 343.2 97.4 342.8 95.1 Z" style="stroke:#000000;stroke-width:1;fill:none;"/>
<g>
<circle cx="51.1" cy="51.1" r="2" style="stroke:#ff8000;stroke-width:1;fill:#ff8000;"><title>nodraw</title></circle>
<path d="M51.1 51.1 56.1 51.1 56.1 48.1 59.1 51.1 56.1 54.1 56.1 51.1" style="stroke:#ff8000;stroke-width:1;fill:#ff8000;" transform="rotate(0,51.1,51.1)"><title>spawn</title></path>
</g>
<g>
<circle cx="392.7" cy="111.1" r="2" style="stroke:#ff8000;stroke-width:1;fill:#ff8000;"><title>nodraw</title></circle>
<path d="M392.7 111.1 397.7 111.1 397.7 108.1 400.7 111.1 397.7 114.1 397.7 111.1" style="stroke:#ff8000;stroke-width:1;fill:#ff8000;" transform="rotate(270,392.7,111.1)"><title>spawn</title></path>
</g>
<g>
<circle cx="281.9" cy="111.1" r="2" style="stroke:#ff8000;stroke-width:1;fill:#ff8000;"><title>nodraw</title></circle>
<path d="M281.9 111.1 286.9 111.1 286.9 108.1 289.9 111.1 286.9 114.1 286.9 111.1" style="stroke:#ff8000;stroke-width:1;fill:#ff8000;" transform="rotate(180,281.9,111.1)"><title>spawn</title></path>
</g>
<g>
<circle cx="111.1" cy="51.1" r="2" style="stroke:#ff8000;stroke-width:1;fill:#ff8000;"><title>nodraw</title></circle>
<path d="M111.1 51.1 116.1 51.1 116.1 48.1 119.1 51.1 116.1 54.1 116.1 51.1" style="stroke:#ff8000;stroke-width:1;fill:#ff8000;" transform="rotate(90,111.1,51.1)"><title>spawn</title></path>
</g>
<g>
<circle cx="392.7" cy="51.1" r="2" style="stroke:#ff8000;stroke-width:1;fill:#ff8000;"><title>nodraw</title></circle>
<path d="M392.7 51.1 397.7 51.1 397.7 48.1 400.7 51.1 397.7 54.1 397.7 51.1" style="stroke:#ff8000;stroke-width:1;fill:#ff8000;" transform="rotate(0,392.7,51.1)"><title>spawn</title></path>
</g>
<g>
<circle cx="221.9" cy="111.1" r="2" style="stroke:#ff8000;stroke-width:1;fill:#ff8000;"><title>nodraw</title></circle>
<path d="M221.9 111.1 226.9 111.1 226.9 108.1 229.9 111.1 226.9 114.1 226.9 111.1" style="stroke:#ff8000;stroke-width:1;fill:#ff8000;" transform="rotate(270,221.9,111.1)"><title>spawn</title></path>
</g>
<g>
<circle cx="111.1" cy="111.1" r="2" style="stroke:#ff8000;stroke-width:1;fill:#ff8000;"><title>nodraw</title></circle>
<path d="M111.1 111.1 116.1 111.1 116.1 108.1 119.1 111.1 116.1 114.1 116.1 111.1" style="stroke:#ff8000;stroke-width:1;fill:#ff8000;" transform="rotate(180,111.1,111.1)"><title>spawn</title></path>
</g>
<g>
<circle cx="452.7" cy="51.1" r="2" style="stroke:#ff8000;stroke-width:1;fill:#ff8000;"><title>nodraw</title></circle>
<path d="M452.7 51.1 457.7 51.1 457.7 48.1 460.7 51.1 457.7 54.1 457.7 51.1" style="stroke:#ff8000;stroke-width:1;fill:#ff8000;" transform="rotate(90,452.7,51.1)"><title>spawn</title></path>
</g>
<g>
<circle cx="221.9" cy="51.1" r="2" style="stroke:#ff8000;stroke-width:1;fill:#ff8000;"><title>nodraw</title></circle>
<path d="M221.9 51.1 226.9 51.1 226.9 48.1 229.9 51.1 226.9 54.1 226.9 51.1" style="stroke:#ff8000;stroke-width:1;fill:#ff8000;" transform="rotate(0,221.9,51.1)"><title>spawn</title></path>
</g>
<g>
<circle cx="51.1" cy="111.1" r="2" style="stroke:#ff8000;stroke-width:1;fill:#ff8000;"><title>nodraw</title></circle>
<path d="M51.1 111.1 56.1 111.1 56.1 108.1 59.1 111.1 56.1 114.1 56.1 111.1" style="stroke:#ff8000;stroke-width:1;fill:#ff8000;" transform="rotate(270,51.1,111.1)"><title>spawn</title></path>
</g>
<g>
<circle cx="452.7" cy="111.1" r="2" style="stroke:#ff8000;stroke-width:1;fill:#ff8000;"><title>nodraw</title></circle>
<path d="M452.7 111.1 457.7 111.1 457.7 108.1 460.7 111.1 457.7 114.1 457.7 111.1" style="stroke:#ff8000;stroke-width:1;fill:#ff8000;" transform="rotate(180,452.7,111.1)"><title>spawn</title></path>
</g>
<g>
<circle cx="281.9" cy="51.1" r="2" style="stroke:#ff8000;stroke-width:1;fill:#ff8000;"><title>nodraw</title></circle>
<path d="M281.9 51.1 286.9 51.1 286.9 48.1 289.9 51.1 286.9 54.1 286.9 51.1" style="stroke:#ff8000;stroke-width:1;fill:#ff8000;" transform="rotate(90,281.9,51.1)"><title>spawn</title></path>
</g>
</svg>