<?xml version="1.0"?>
<!DOCTYPE svg PUBLIC "-//W3C//DTD SVG 1.1//EN" "http://www.w3.org/Graphics/SVG/1.1/DTD/svg11.dtd">
<svg version="1.1" xmlns="http://www.w3.org/2000/svg" width="498" height="448">
<path d="M0 249 1.3 223.5 5.1 198.8 11.2 175 19.6 152.1 30.1 130.3 42.5 109.8 56.9 90.6 72.9 72.9 90.6 56.9 109.8 42.5 130.3 30.1 152.1 19.6 175 11.2 198.8 5.1 223.5 1.3 249 0 274.5 1.3 299.2 5.1 323 11.2 345.9 19.6 367.7 30.1 388.2 42.5 407.4 56.9 425.1 72.9 441.1 90.6 455.5 109.8 467.9 130.3 478.4 152.1 486.8 175 492.9 198.8 496.7 223.5 498 249 448 249 447 228.7 444 208.9 439.1 189.8 432.4 171.5 424 154.1 414 137.7 402.6 122.4 389.7 108.3 375.6 95.4 360.3 84 343.9 74 326.5 65.6 308.2 58.9 289.1 54 269.3 51 249 50 228.7 51 208.9 54 189.8 58.9 171.5 65.6 154.1 74 137.7 84 122.4 95.4 108.3 108.3 95.4 122.4 84 137.7 74 154.1 65.6 171.5 58.9 189.8 54 208.9 51 228.7 50 249 50.8 264.2 53 279 56.7 293.3 61.7 307 68 320 75.4 332.3 84 343.8 93.6 354.4 104.2 364 115.7 372.6 128 380 141 386.3 154.7 391.3 169 395 183.8 397.2 199 398 214.2 397.2 229 395 243.3 391.3 257 386.3 270 380 282.3 372.6 293.8 364 304.4 354.4 314 343.8 322.6 332.3 330 320 336.3 307 341.3 293.3 345 279 347.2 264.2 348 249 398 249 397 269.3 394 289.1 389.1 308.2 382.4 326.5 374 343.9 364 360.3 352.6 375.6 339.7 389.7 325.6 402.6 310.3 414 293.9 424 276.5 432.4 258.2 439.1 239.1 444 219.3 447 199 448 178.7 447 158.9 444 139.8 439.1 121.5 432.4 104.1 424 87.7 414 72.4 402.6 58.3 389.7 45.4 375.6 34 360.3 24 343.9 15.6 326.5 8.9 308.2 4 289.1 1 269.3 Z" style="stroke:#000000;stroke-width:1;fill:none;"/>
<g>
<circle cx="465" cy="239" r="2" style="stroke:#ff8000;stroke-width:1;fill:#ff8000;"><title>nodraw</title></circle>
<path d="M465 239 470 239 470 236 473 239 470 242 470 239" style="stroke:#ff8000;stroke-width:1;fill:#ff8000;" transform="rotate(270,465,239)"><title>spawn</title></path>
</g>
<g>
<circle cx="365" cy="259" r="2" style="stroke:#ff8000;stroke-width:1;fill:#ff8000;"><title>nodraw</title></circle>
<path d="M365 259 370 259 370 256 373 259 370 262 370 259" style="stroke:#ff8000;stroke-width:1;fill:#ff8000;" transform="rotate(90,365,259)"><title>spawn</title></path>
</g>
<g>
<circle cx="33" cy="249" r="2" style="stroke:#ff8000;stroke-width:1;fill:#ff8000;"><title>nodraw</title></circle>
<path d="M33 249 38 249 38 246 41 249 38 252 38 249" style="stroke:#ff8000;stroke-width:1;fill:#ff8000;" transform="rotate(270,33,249)"><title>spawn</title></path>
</g>
<g>
<circle cx="17" cy="249" r="2" style="stroke:#ff8000;stroke-width:1;fill:#ff8000;"><title>nodraw</title></circle>
<path d="M17 249 22 249 22 246 25 249 22 252 22 249" style="stroke:#ff8000;stroke-width:1;fill:#ff8000;" transform="rotate(90,17,249)"><title>spawn</title></path>
</g>
<g>
<circle cx="249" cy="25" r="2" style="stroke:#ff8000;stroke-width:1;fill:#ff8000;"><title>nodraw</title></circle>
<path d="M249 25 254 25 254 22 257 25 254 28 254 25" style="stroke:#ff8000;stroke-width:1;fill:#ff8000;" transform="rotate(180,249,25)"><title>spawn</title></path>
</g>
<g>
<circle cx="199" cy="423" r="2" style="stroke:#ff8000;stroke-width:1;fill:#ff8000;"><title>nodraw</title></circle>
<path d="M199 423 204 423 204 420 207 423 204 426 204 423" style="stroke:#ff8000;stroke-width:1;fill:#ff8000;" transform="rotate(180,199,423)"><title>spawn</title></path>
</g>
<g>
<circle cx="33" cy="249" r="2" style="stroke:#ff8000;stroke-width:1;fill:#ff8000;"><title>nodraw</title></circle>
<path d="M33 249 38 249 38 246 41 249 38 252 38 249" style="stroke:#ff8000;stroke-width:1;fill:#ff8000;" transform="rotate(90,33,249)"><title>spawn</title></path>
</g>
<g>
<circle cx="17" cy="249" r="2" style="stroke:#ff8000;stroke-width:1;fill:#ff8000;"><title>nodraw</title></circle>
<path d="M17 249 22 249 22 246 25 249 22 252 22 249" style="stroke:#ff8000;stroke-width:1;fill:#ff8000;" transform="rotate(270,17,249)"><title>spawn</title></path>
</g>
<g>
<circle cx="249" cy="25" r="2" style="stroke:#ff8000;stroke-width:1;fill:#ff8000;"><title>nodraw</title></circle>
<path d="M249 25 254 25 254 22 257 25 254 28 254 25" style="stroke:#ff8000;stroke-width:1;fill:#ff8000;" transform="rotate(0,249,25)"><title>spawn</title></path>
</g>
<g>
<circle cx="199" cy="423" r="2" style="stroke:#ff8000;stroke-width:1;fill:#ff8000;"><title>nodraw</title></circle>
<path d="M199 423 204 423 204 420 207 423 204 426 204 423" style="stroke:#ff8000;stroke-width:1;fill:#ff8000;" transform="rotate(0,199,423)"><title>spawn</title></path>
</g>
<g>
<circle cx="481" cy="239" r="2" style="stroke:#ff8000;stroke-width:1;fill:#ff8000;"><title>nodraw</title></circle>
<path d="M481 239 486 239 486 236 489 239 486 242 486 239" style="stroke:#ff8000;stroke-width:1;fill:#ff8000;" transform="rotate(270,481,239)"><title>spawn</title></path>
</g>
<g>
<circle cx="381" cy="259" r="2" style="stroke:#ff8000;stroke-width:1;fill:#ff8000;"><title>nodraw</title></circle>
<path d="M381 259 386 259 386 256 389 259 386 262 386 259" style="stroke:#ff8000;stroke-width:1;fill:#ff8000;" transform="rotate(90,381,259)"><title>spawn</title></path>
</g>
</svg>